Symbol,Name,Class,CIK,CUSIP,shares_outstanding
MMM,3M,,66740,88579Y101,579665256
AOS,A. O. Smith,,91142,831865209,134884186
ABT,Abbott,,1800,002824100,1776730473
ABBV,AbbVie,,1551152,00287Y109,1766108787
ABMD,Abiomed,,815094,003654100,45269138
ACN,Accenture,a,1467373,G1151C101,665464118
ATVI,Activision Blizzard,,718877,00507V109,776111641
ADM,ADM,,7084,039483102,558585225
ADBE,Adobe,,796343,00724F101,477929670
ADP,ADP,,8670,053015103,426271800
AAP,Advance Auto Parts,,1158449,00751Y106,65489344
AES,AES,,874761,00130H105,665879696
AFL,Aflac,,4977,001055102,682688473
A,Agilent Technologies,,1090872,00846U101,304210555
AIG,AIG,,5272,026874784,860864752
APD,Air Products,,2969,009158106,221313842
AKAM,Akamai,,1086222,00971T101,163105977
ALK,Alaska Air Group,,766421,011659109,124392834
ALB,Albemarle,,915913,012653101,116685839
ARE,Alexandria,,1035443,015271109,145581413
ALXN,Alexion Pharmaceuticals,,899866,015351109,220566338
ALGN,Align,,1097149,016255101,79134792
ALLE,Allegion,,1579241,G0176J109,90203231
LNT,Alliant Energy,,352541,018802108,250130255
ALL,Allstate,,899051,020002101,300222369
GOOGL,Alphabet,a,1652044,02079K305,300744403
GOOG,Alphabet,c,1652044,02079K107,324574118
MO,Altria,,764180,02209S103,1853279931
AMZN,Amazon,,1018724,023135106,504140243
AMCR,Amcor,,1748790,G0250X107,1549556294
AMD,AMD,,2488,007903107,1214034347
AEE,Ameren,,1002910,023608102,254804015
AAL,American Airlines Group,,6201,02376R102,640922416
AEP,American Electric Power,,4904,025537101,499104304
AXP,American Express,,4962,025816109,803912491
AMT,American Tower,,1053507,03027X100,444646632
AWK,American Water,,1410636,030420103,181456683
AMP,Ameriprise Financial,,820027,03076C106,116246043
ABC,AmerisourceBergen,,1140859,03073E105,205165306
AME,Ametek,,1037868,031100100,230798144
AMGN,Amgen,,318154,031162100,575442256
APH,Amphenol,a,820313,032095101,500579763
ADI,Analog Devices,,6281,032654105,368850416
ANSS,Ansys,,1013462,03662Q105,86979433
ANTM,Anthem,,1156039,036752103,244855519
AON,Aon,a,315293,G0403H108,225791719
APA,APA Corporation,,1841666,03743Q108,377972835
AAPL,Apple,,320193,037833100,16706399186
AMAT,Applied Materials,,6951,038222105,915315289
APTV,Aptiv,,1521332,G6095L109,270313753
ANET,Arista,,1596532,040413106,76325962
AIZ,Assurant,,1267238,04621X108,59435524
T,AT&T,,732717,00206R102,7136684004
ATO,Atmos Energy,,731802,049560105,129816463
ADSK,Autodesk,,769397,052769106,219687023
AZO,AutoZone,,866787,053332102,21931345
AVB,AvalonBay Communities,,915912,053484101,139578357
AVY,Avery Dennison,,8818,053611109,83020490
BKR,Baker Hughes,a,1701605,05722G100,760219170
BLL,Ball,,9389,058498106,328117155
BAC,Bank of America,,70858,060505104,8598257907
BBWI,Bath & Body Works,,701985,070830104,278348517
BAX,Baxter,,10456,071813109,503476013
BDX,Becton Dickinson,,10795,075887109,290815631
WRB,Berkley,,11544,084423102,177373270
BRK.B,Berkshire Hathaway,b,1067983,084670702,1330031498
BBY,Best Buy,,764478,086516101,250112473
BIO,Bio-Rad,a,12208,090572207,24717926
BIIB,Biogen,,875045,09062X103,151057077
BLK,BlackRock,,1364742,09247X101,152563828
BK,BNY Mellon,,1390777,064058100,875536005
BA,Boeing,,12927,097023105,584346224
BKNG,Booking Holdings,,1075531,09857L108,41015105
BWA,BorgWarner,,908255,099724106,239496692
BXP,Boston Properties,,1037540,101121101,155943786
BSX,Boston Scientific,,885725,101137107,1419635035
BMY,Bristol Myers Squibb,,14272,110122108,2232975330
AVGO,Broadcom,,1730168,11135F101,408990935
BR,Broadridge,,1383312,11133T103,116020245
BF.B,Brown–Forman,b,14693,115637209,309605846
CHRW,C.H. Robinson,,1043277,12541W209,133331195
CDNS,Cadence,,813672,127387108,278315642
CZR,Caesars Entertainment,,1590895,12769G100,208503744
CPB,Campbell's,,16732,134429109,303021852
COF,Capital One,,927628,14040H105,454187874
CAH,Cardinal Health,,721371,14149Y108,291373866
KMX,CarMax,,1170010,143130102,163173075
CCL,Carnival,,815097,143658300,973540516
CARR,Carrier,,1783180,14448C104,869057527
CTLT,Catalent,,1596783,148806102,170306541
CAT,Caterpillar,,18230,149123101,547736200
CBOE,Cboe,,1374310,12503M108,106865542
CBRE,CBRE,a,1138118,12504L109,335634808
CDW,CDW,,1402057,12514G108,140573452
CE,Celanese,,1306830,150870103,112968370
CNC,Centene,,1071739,15135B101,582388177
CNP,CenterPoint Energy,,1130310,15189T107,567352248
CERN,Cerner,,804753,156782104,303070414
CF,CF Industries,,1324404,125269100,214386440
CRL,Charles River,,1100682,159864107,50132357
SCHW,Charles Schwab,,316709,808513105,1805689088
CHTR,Charter Communications,a,1091667,16119P108,188722435
CVX,Chevron,,93410,166764100,1928017986
CMG,Chipotle Mexican Grill,,1058090,169656105,28148314
CB,Chubb,,896159,H1467J104,449832506
CHD,Church & Dwight,,313927,171340102,245177942
CI,Cigna,,1739940,125523100,346175905
CINF,Cincinnati Financial,,20286,172062101,161136742
CTAS,Cintas,,723254,172908105,105052938
CSCO,Cisco,,858877,17275R102,4218149806
C,Citigroup,,831001,172967424,2067391085
CFG,Citizens,,759944,174610105,425686087
CTXS,Citrix,,877890,177376100,123752107
CLX,Clorox,,21076,189054109,124655882
CME,CME Group,a,1156375,12572Q105,359072469
CMS,CMS Energy,,811156,125896100,289382425
KO,Coca-Cola,,21344,191216100,4310733070
CTSH,Cognizant,a,1058290,192446102,528593712
CL,Colgate-Palmolive,,21665,194162103,846012744
CMCSA,Comcast,a,1166691,20030N101,4584423480
CMA,Comerica,,28412,200340107,139502504
ED,Con Edison,,1047862,209115104,342675988
CAG,Conagra Brands,,23217,205887102,480042477
COP,ConocoPhillips,,1163165,20825C104,1349508560
STZ,Constellation Brands,a,16918,21036P108,170134966
COO,CooperCompanies,,711404,216648402,49185134
CPRT,Copart,,900075,217204106,236425185
GLW,Corning,,24741,219350105,827792070
CTVA,Corteva,,1755672,22052L104,739639717
COST,Costco,,909832,22160K105,442384419
CTRA,Coterra,,858470,127097103,399419748
CCI,Crown Castle,,1051470,22822V101,431818750
CSX,CSX,,277948,126408103,757486738
CMI,Cummins,,26172,231021106,146279971
CVS,CVS Health,,64803,126650100,1314696557
DHI,D.R. Horton,,882184,23331A109,361261549
DHR,Danaher,,313616,235851102,713017875
DRI,Darden,,940944,237194105,130826894
DVA,DaVita,,927066,23918K108,107193103
DE,Deere & Co.,,315189,244199105,312484898
DAL,Delta Air Lines,,27904,247361702,639635713
XRAY,Dentsply Sirona,,818479,24906P109,218658296
DVN,Devon,,1090012,25179M103,675814285
DXCM,DexCom,,1093557,252131107,96548006
FANG,Diamondback,,1539838,25278X109,170819748
DLR,Digital Realty,,1297996,253868103,281357663
DFS,Discover,,1393612,254709108,305585149
DISCA,Discovery,a,1437107,25470F104,167090202
DISCK,Discovery,c,1437107,25470F302,327148376
DISH,Dish,a,1001082,25470M109,288564266
DIS,Disney,,1744489,254687106,1816272126
DG,Dollar General,,29534,256677105,238477713
DLTR,Dollar Tree,,935703,256746108,233034858
D,Dominion Energy,,715957,25746U109,806223926
DPZ,Domino's,,1286681,25754A201,38819306
DOV,Dover,,29905,260003108,143871667
DOW,Dow,,1751788,260557103,746937325
DTE,DTE,,936340,233331107,193728120
DUK,Duke Energy,,1326160,26441C204,769025510
DRE,Duke Realty,,783280,264411505,374480082
DD,DuPont,,1666700,26614N102,534475842
DXC,DXC Technology,,1688568,23355L106,254705109
EMN,Eastman,,915389,277432100,136318392
ETN,Eaton,,1551182,G29183103,398493220
EBAY,eBay,,1065088,278642103,680999392
ECL,Ecolab,,31462,278865100,285935962
EIX,Edison International,,827052,281020107,379384787
EW,Edwards Lifesciences,,1099800,28176E108,622480317
EA,Electronic Arts,,712515,285512109,286915183
EMR,Emerson,,32604,291011104,599705587
ENPH,Enphase,,1463101,29355A107,133533188
ETR,Entergy,,65984,29364G103,200598645
EOG,EOG Resources,,821189,26875P101,583588683
EFX,Equifax,,33185,294429105,121714748
EQIX,Equinix,,1101239,29444U700,89454744
EQR,Equity Residential,,906107,29476L107,373508962
ESS,Essex,,920522,297178105,64997160
EL,Estée Lauder Companies,a,1001250,518439104,231225003
ETSY,Etsy,,1370637,29786A106,126636126
RE,Everest,,1095073,G3223R108,40050495
EVRG,Evergy,,1711269,30034W106,228238939
ES,Eversource,,72741,30040W108,343304963
EXC,Exelon,,1109357,30161N101,977161041
EXPE,Expedia Group,,1324424,30212P303,140559711
EXPD,Expeditors,,746515,302130109,169102817
EXR,Extra Space Storage,,1289490,30225T102,133082620
XOM,ExxonMobil,,34088,30231G102,4233537971
FFIV,F5,,1048695,315616102,60308445
FAST,Fastenal,,815556,311900104,574438923
FRT,Federal Realty,,34903,313745101,77369867
FDX,FedEx,,1048911,31428X106,265574192
FITB,Fifth Third Bank,,35527,316773100,705614280
FRC,First Republic,,1132979,33616C100,175465851
FE,FirstEnergy,,1031296,337932107,543888816
FIS,FIS,,1136893,31620M106,620594532
FISV,Fiserv,,798354,337738108,667794332
FLT,Fleetcor,,1175454,339041105,83367571
FMC,FMC,,37785,302491303,128881877
F,Ford,,37996,345370860,3917092542
FTNT,Fortinet,,1262039,34959E109,163266629
FTV,Fortive,,1659166,34959J108,338362240
FBHS,Fortune Brands,,1519751,34964C106,138614829
FOX,Fox Corporation,b,1754301,35137L204,254411516
FOXA,Fox Corporation,a,1754301,35137L105,329835297
BEN,Franklin Templeton,,38777,354613101,504655321
FCX,Freeport-McMoRan,,831259,35671D857,1463126408
AJG,Gallagher,,354190,363576109,195850610
GPS,Gap,,39911,364760108,375615664
GRMN,Garmin,,1121788,H2906T109,191948101
IT,Gartner,,749251,366651107,87141406
GE,GE,,40545,369604301,8778459661
GNRC,Generac,,1474735,368736104,62914062
GD,General Dynamics,,40533,369550108,282888809
GIS,General Mills,,40704,370334104,609521128
GPC,Genuine Parts,,40987,372460105,144450563
GILD,Gilead,,882095,375558103,1255232598
GPN,Global Payments,,1123360,37940X102,295227476
GL,Globe Life,,320335,37959E102,103150042
GM,GM,,1467858,37045V100,1448231357
GS,Goldman Sachs,,886982,38141G104,341227148
GWW,Grainger,,277135,384802104,52114646
HAL,Halliburton,,45012,406216101,889437316
HBI,Hanesbrands,,1359841,410345102,348995024
HIG,Hartford (The),,874766,416515104,357321299
HAS,Hasbro,,46080,418056107,137490748
HCA,HCA Healthcare,,860730,40412C101,333597547
PEAK,Healthpeak,,765880,42250P103,538831382
HSIC,Henry Schein,,1000228,806407102,141316040
HSY,Hershey's,,47111,427866108,146440649
HES,Hess,,4447,42809H107,308412199
HPE,Hewlett Packard Enterprise,,1645590,42824C109,1302827092
HLT,Hilton,,1585689,43300A203,278184997
HOLX,Hologic,,859737,436440101,256594143
HD,Home Depot,,354950,437076102,1072403521
HON,Honeywell,,773840,438516106,694571103
HRL,Hormel,,48465,440452100,540783410
HST,Host Hotels & Resorts,,1070750,44107P104,705750033
HWM,Howmet Aerospace,,4281,443201108,434023126
HPQ,HP,,47217,40434L105,1219116125
HUM,Humana,,49071,444859102,129011842
HII,Huntington Ingalls Industries,,1501585,446413106,40263495
HBAN,Huntington National Bank,,49196,446150104,1018038381
IBM,IBM,,51143,459200101,893524282
IEX,IDEX,,832101,45167R104,75914933
IDXX,Idexx Laboratories,,874716,45168D104,85335879
INFO,IHS Markit,,1598014,G47567105,398553305
ITW,Illinois Tool Works,,49826,452308109,315895944
ILMN,Illumina,,1110803,452327109,145965714
INCY,Incyte,,879169,45337C102,219896817
IR,Ingersoll Rand,,1699150,45687V106,419190665
INTC,Intel,,50863,458140100,4038626373
ICE,Intercontinental Exchange,,1571949,45866F104,562425317
IFF,International Flavors & Fragrances,,51253,459506101,248834382
IP,International Paper,,51434,460146103,392031921
IPG,Interpublic Group,,51644,460690100,392690513
INTU,Intuit,,896878,461202103,273574816
ISRG,Intuitive Surgical,,1035267,46120E602,118283129
IVZ,Invesco,,914208,G491BT108,461410769
IPGP,IPG Photonics,,1111928,44980X109,53557317
IQV,IQVIA,,1478242,46266C105,191573902
IRM,Iron Mountain,,1020569,46284V101,288593860
JBHT,J.B. Hunt,,728535,445658107,105671006
JKHY,Jack Henry & Associates,,779152,426281101,74881031
J,Jacobs,,52988,469814107,130171368
JNJ,Johnson & Johnson,,200406,478160104,2631681028
JCI,Johnson Controls,,833444,G51502105,716754612
JPM,JPMorgan Chase,,19617,46625H100,3027541303
JNPR,Juniper Networks,,1043604,48203R104,327902813
KSU,Kansas City Southern,,54480,485170302,90922585
K,Kellogg's,,55067,487836108,340715636
KEY,KeyCorp,,91576,493267108,969799317
KEYS,Keysight,,1601046,49338L103,185343969
KMB,Kimberly-Clark,,55785,494368103,337637428
KIM,Kimco Realty,,879101,49446R109,433134181
KMI,Kinder Morgan,,1506307,49456B101,2264543046
KLAC,KLA,,319201,482480100,153450478
KHC,Kraft Heinz,,1637459,500754106,1223157485
KR,Kroger,,56873,501044101,751676659
LHX,L3Harris,,202058,502431109,205270183
LH,LabCorp,,920148,50540R409,97650000
LRCX,Lam Research,,707549,512807108,142709026
LW,Lamb Weston,,1679273,513272104,146283237
LVS,Las Vegas Sands,,1300514,517834107,763930319
LEG,Leggett & Platt,,58492,524660107,133134583
LDOS,Leidos,,1336920,525327102,141603216
LEN,Lennar,a,920760,526057104,275412972
LLY,Lilly,,59478,532457108,958798512
LNC,Lincoln Financial,,59558,534187109,191046857
LIN,Linde,,1707925,G5494J103,520253034
LYV,Live Nation Entertainment,,1335258,538034109,218394083
LKQ,LKQ Corporation,,1065696,501889208,302685314
LMT,Lockheed Martin,,936468,539830109,278373039
L,Loews Corporation,,60086,540424108,264604162
LOW,Lowe's,,60667,548661107,715554854
LUMN,Lumen,,18926,550241103,1101337036
LYB,LyondellBasell,,1489393,N53745100,334253638
MTB,M&T Bank,,36270,55261F104,128646124
MRO,Marathon Oil,,101778,565849106,788524611
MPC,Marathon Petroleum,,1510295,56585A102,652096242
MKTX,MarketAxess,,1278021,57060D108,37987487
MAR,Marriott International,a,1048286,571903202,325158083
MMC,Marsh & McLennan,,62709,571748102,508416804
MLM,Martin Marietta,,916076,573284106,62335838
MAS,Masco,,62996,574599106,253842741
MA,Mastercard,a,1141391,57636Q104,983701509
MXIM,Maxim Integrated,,743316,57772K101,268304045
MKC,McCormick,nonvoting,63754,579780206,249065297
MCD,McDonald's,,63908,580135101,746164078
MCK,McKesson,,927653,58155Q103,158439742
MDT,Medtronic,,1613103,G5960L103,1347067900
MRK,Merck,,310158,58933Y105,2531451357
FB,Meta,a,1326801,30303M102,2398526581
MET,MetLife,,1099219,59156R108,879031998
MTD,Mettler Toledo,,1037646,592688105,23271553
MGM,MGM Resorts,,789570,552953101,492528467
MCHP,Microchip,,827054,595017104,271841439
MU,Micron,,723125,595112103,1121653912
MSFT,Microsoft,,789019,594918104,7534264089
MAA,Mid-America Apartments,,912595,59522J103,114449206
MHK,Mohawk Industries,,851968,608190104,69922750
TAP,Molson Coors,b,24545,60871R209,200491811
MDLZ,Mondelez International,a,1103982,609207105,1406826462
MPWR,Monolithic Power Systems,,1280452,609839105,45689400
MNST,Monster Beverage,,865752,61174X109,528373922
MCO,Moody's,,1059556,615369105,187198305
MS,Morgan Stanley,,895421,617446448,1844565445
MOS,Mosaic,,1285785,61945C103,379541726
MSI,Motorola Solutions,,68505,620076307,169527544
MSCI,MSCI,,1408198,55354G100,82465781
NDAQ,Nasdaq,,1120193,631103108,164355525
NTAP,NetApp,,1002047,64110D104,222814946
NFLX,Netflix,,1065280,64110L106,443378304
NWL,Newell Brands,,814453,651229106,425041095
NEM,Newmont,,1164727,651639106,800883405
NWSA,News Corp,a,1564708,65249B109,391151324
NWS,News Corp,b,1564708,65249B208,199630240
NEE,NextEra Energy,,753308,65339F101,1961418443
NLSN,Nielsen,,1492633,G6518L108,358485172
NKE,Nike,b,320187,654106103,1275025694
NI,NiSource,,1111711,65473P105,392090098
NSC,Norfolk Southern,,702165,655844108,250269324
NTRS,Northern Trust,,73124,665859104,208143190
NOC,Northrop Grumman,,1133421,666807102,162669381
NLOK,NortonLifeLock,,849399,668771108,580750232
NCLH,Norwegian Cruise Line Holdings,,1513761,G66721104,346920378
NOV,Nov,,1021860,62955J103,390052604
NRG,NRG Energy,,1013871,629377508,244716931
NUE,Nucor,,73309,670346105,299130689
NVDA,Nvidia,,1045810,67066G104,621285714
NVR,NVR,,906163,62944T105,3653665
NXPI,NXP,,1413447,N6596X109,276229510
ORLY,O'Reilly Automotive,,898173,67103H107,69977805
OXY,Occidental Petroleum,,797468,674599105,933387092
ODFL,Old Dominion,,878927,679580100,116414601
OMC,Omnicom Group,,29989,681919106,215063912
OKE,Oneok,,1039684,682680103,445358192
ORCL,Oracle,,1341439,68389X105,2861099950
OGN,Organon,,1821825,68622V106,253516000
OTIS,Otis,,1781335,68902V107,430122360
PCAR,Paccar,,75362,693718108,347081541
PKG,Packaging Corporation of America,,75677,695156109,94920617
VIAC,Paramount,b,813828,92556H206,587866026
PH,Parker,,76334,701094104,129056225
PAYX,Paychex,,723531,704326107,360362308
PAYC,Paycom,,1590955,70432V102,60185188
PYPL,PayPal,,1633917,70450Y103,1173517931
PENN,Penn National Gaming,,921738,707569109,156414867
PNR,Pentair,,77360,G7S00T104,166200157
PBCT,People's United Financial,,1378946,712704105,426697510
PEP,PepsiCo,,77476,713448108,1381342317
PKI,PerkinElmer,,31791,714046109,112075419
PRGO,Perrigo,,1585364,G97822103,133303200
PFE,Pfizer,,78003,717081103,5586869664
PM,Philip Morris International,,1413329,718172109,1558236295
PSX,Phillips 66,,1534701,718546104,437851627
PNW,Pinnacle West,,764622,723484101,112726369
PXD,Pioneer Natural Resources,,1038357,723787107,230078860
PNC,PNC Financial Services,,713676,693475105,424654869
POOL,Pool Corporation,,945841,73278L105,40156484
PPG,PPG Industries,,79879,693506107,237086054
PPL,PPL,,922224,69351T106,769273542
PFG,Principal,,1126328,74251V102,272179043
PG,Procter & Gamble,,80424,742718109,2448391044
PGR,Progressive,,80661,743315103,585163357
PLD,Prologis,,1045609,74340W103,739687909
PRU,Prudential,,1137774,744320102,395044943
PEG,PSEG,,788784,744573106,505344390
PTC,PTC,,857005,69370C100,116838989
PSA,Public Storage,,1393311,74460D109,174951154
PHM,PulteGroup,,822416,745867101,263657025
PVH,PVH,,78239,693656100,71213725
QRVO,Qorvo,,1604778,74736K101,112862176
QCOM,Qualcomm,,804328,747525103,1130571428
PWR,Quanta,,1050915,74762E102,138855549
DGX,Quest Diagnostics,,1022079,74834L100,131247114
RL,Ralph Lauren,a,1037038,751212101,48244487
RJF,Raymond James,,720005,754730109,137532068
RTX,Raytheon Technologies,,101829,75513E101,1515161808
O,Realty Income,,726728,756109104,373463752
REG,Regency Centers,,910606,758849103,169847027
REGN,Regeneron,,872589,75886F107,104806096
RF,Regions,,1281761,7591EP100,960988447
RSG,Republic Services,,1060391,760759100,318975243
RMD,ResMed,,943819,761152107,145515236
RHI,Robert Half,,315213,770323103,112786426
ROK,Rockwell Automation,,1024478,773903109,116077565
ROL,Rollins,,84839,775711104,492127688
ROP,Roper,,882835,776696106,105118477
ROST,Ross,,745732,778296103,356719483
RCL,Royal Caribbean Group,,884887,V7780T103,247269720
SPGI,S&P Global,,64040,78409V104,240837662
CRM,Salesforce,,1108524,79466L302,922027397
SBAC,SBA Communications,a,1034054,78410G104,109336480
SLB,Schlumberger,,87347,806857108,1398265724
STX,Seagate,,1137789,G7997R103,231190229
SEE,Sealed Air,,1012100,81211K100,153233870
SRE,Sempra Energy,,1032208,816851109,302682357
NOW,ServiceNow,,1373715,81762P102,197377966
SHW,Sherwin-Williams,,89800,824348106,262960655
SPG,Simon,a,1063761,828806109,328530748
SWKS,Skyworks,,4127,83088M102,165041758
SJM,Smucker,,91419,832696405,109142073
SNA,Snap-on,,91440,833034101,54109882
SO,Southern Company,,92122,842587107,1058596135
LUV,Southwest Airlines,,92380,844741108,591161467
SWK,Stanley Black & Decker,,93556,854502101,161291093
SBUX,Starbucks,,829224,855244109,1178058241
STT,State Street,,93751,857477103,348846294
STE,Steris,,1757898,G8473T100,85361257
SYK,Stryker,,310764,863667101,376738596
SIVB,SVB Financial,,719739,78486Q101,53491292
SYF,Synchrony,,1601712,87165B103,582274088
SNPS,Synopsys,,883241,871607107,152464056
SYY,Sysco,,96021,871829107,511363340
TMUS,T-Mobile,,1283699,872590104,1245178392
TROW,T. Rowe Price,,1113169,74144T108,227247038
TTWO,Take-Two Interactive,,946581,874054109,115478526
TPR,Tapestry,,1116132,876030107,278589265
TGT,Target,,27419,87612E106,497318731
TEL,TE Connectivity,,1385157,H84989104,330377301
TDY,Teledyne,,1094285,879360105,37046449
TFX,Teleflex,,96943,879369106,46713623
TER,Teradyne,,97210,880770102,166448265
TSLA,Tesla,,1318605,88160R101,962362185
TXN,Texas Instruments,,97476,882508104,922692547
TXT,Textron,,217346,883203101,225850692
TMO,Thermo Fisher Scientific,,97745,883556102,393082562
TJX,TJX Companies,,109198,872540109,1206007178
TSCO,Tractor Supply,,916365,892356106,115543300
TT,Trane Technologies,,1466258,G8994E103,238934527
TDG,TransDigm,,1260221,893641100,54825826
TRV,Travelers,,86312,89417E109,251638968
TRMB,Trimble,,864749,896239100,250969982
TFC,Truist,,92230,89832Q109,1344885061
TWTR,Twitter,,1418091,90184L102,798135131
TYL,Tyler Technologies,,860731,902252105,40664109
TSN,Tyson,a,100493,902494103,294770653
USB,U.S. Bank,,36104,902973304,1494017311
UDR,UDR,,74208,902653104,296829278
ULTA,Ulta Beauty,,1403568,90384S303,56012520
UAA,Under Armour,a,1336917,904311107,188621084
UA,Under Armour,c,1336917,904311206,233245049
UNP,Union Pacific,,100885,907818108,665522732
UAL,United Airlines,,100517,910047109,321630227
UPS,United Parcel Service,b,1090727,911312106,722163993
URI,United Rentals,,1067701,911363109,72325071
UNH,UnitedHealth Group,,731766,91324P102,944253062
UHS,Universal Health Services,b,352915,913903100,77925152
UNM,Unum,,5513,91529Y106,204020464
VLO,Valero,,1035002,91913Y100,408685013
VTR,Ventas,,740260,92276F100,374915899
VRSN,Verisign,,1014473,92343E102,112747182
VRSK,Verisk,,1442145,92345Y106,162401372
VZ,Verizon,,732712,92343V104,4140036173
VRTX,Vertex,,875320,92532F100,259176424
VFC,VF Corporation,,103379,918204108,392008822
VTRS,Viatris,,1792044,92556V106,1207974502
V,Visa,a,1403161,92826C839,1692942166
VNO,Vornado Realty Trust,,899689,929042109,191463436
VMC,Vulcan Materials,,1396009,929160109,132625862
WAB,Wabtec,,943452,929740108,188963795
WBA,Walgreens Boots Alliance,,1618921,931427108,864540210
WMT,Walmart,,104169,931142103,2814551760
WM,Waste Management,,823768,94106L109,422469156
WAT,Waters,,1000697,941848103,61915368
WEC,WEC Energy Group,,783325,92939U106,315434531
WFC,Wells Fargo,,72971,949746101,4133760870
WELL,Welltower,,766704,95040Q104,417481225
WST,West Pharmaceutical Services,,105770,955306105,73883808
WDC,Western Digital,,106040,958102105,306334317
WU,Western Union,,1365135,959802109,409961094
WRK,WestRock,,1732845,96145D105,265430767
WY,Weyerhaeuser,,106535,962166104,748707610
WHR,Whirlpool,,106640,963320106,62710909
WMB,Williams,,107263,969457100,1214339760
WTW,Willis Towers Watson,,1140536,G96629103,128974245
WYNN,Wynn Resorts,,1174922,983134107,115640011
XEL,Xcel Energy,,72903,98389B100,538023467
XLNX,Xilinx,,743988,983919101,245673780
XYL,Xylem,,1524472,98419M100,180181932
YUM,Yum! Brands,,1041061,988498101,298751478
ZBRA,Zebra,a,877212,989207105,53496282
ZBH,Zimmer Biomet,,1136869,98956P102,208290640
ZION,Zions Bancorp,,109380,989701107,163941163
ZTS,Zoetis,,1555280,98978V103,474925545
