Symbol,Name,Class,CIK,CUSIP,shares_outstanding
MMM,3M,,66740,88579Y101,576416083
AOS,A. O. Smith,,91142,831865209,141386410
ABT,Abbott,,1800,002824100,1764050567
ABBV,AbbVie,,1551152,00287Y109,1477193035
ABMD,Abiomed,,815094,003654100,45111171
ACN,Accenture,a,1467373,G1151C101,670742072
ATVI,Activision Blizzard,,718877,00507V109,765109988
ADM,ADM,,7084,039483102,560136818
ADBE,Adobe,,796343,00724F101,487730091
ADP,ADP,,8670,053015103,435359226
AAP,Advance Auto Parts,,1158449,00751Y106,71700662
AES,AES,,874761,00130H105,663092243
AMG,Affiliated Managers Group,,1004434,008252108,51618509
AFL,Aflac,,4977,001055102,746836909
A,Agilent Technologies,,1090872,00846U101,316960598
AIG,AIG,,5272,026874784,869649828
APD,Air Products,,2969,009158106,220126990
AKAM,Akamai,,1086222,00971T101,163654698
ALK,Alaska Air Group,,766421,011659109,123321998
ALB,Albemarle,,915913,012653101,105865583
ARE,Alexandria,,1035443,015271109,112898853
ALXN,Alexion Pharmaceuticals,,899866,015351109,224012482
ALGN,Align,,1097149,016255101,79998229
ALLE,Allegion,,1579241,G0176J109,94121683
AGN,Allergan,,1578845,G0177J108,329749849
ADS,Alliance Data Systems,,1101215,018581108,52627227
LNT,Alliant Energy,,352541,018802108,237372037
ALL,Allstate,,899051,020002101,332859535
GOOGL,Alphabet,a,1652044,02079K305,299414444
GOOG,Alphabet,c,1652044,02079K107,348555363
MO,Altria,,764180,02209S103,1871825923
AMZN,Amazon,,1018724,023135106,492089871
AMCR,Amcor,,1748790,G0250X107,1625907855
AMD,AMD,,2488,007903107,1057075131
AEE,Ameren,,1002910,023608102,245263374
AAL,American Airlines Group,,6201,02376R102,446426425
AEP,American Electric Power,,4904,025537101,493392651
AXP,American Express,,4962,025816109,836974969
AMT,American Tower,,1053507,03027X100,441654353
AWK,American Water,,1410636,030420103,180605310
AMP,Ameriprise Financial,,820027,03076C106,134409683
ABC,AmerisourceBergen,,1140859,03073E105,210474858
AME,Ametek,,1037868,031100100,227621438
AMGN,Amgen,,318154,031162100,613995666
APH,Amphenol,a,820313,032095101,298543465
APC,Anadarko Petroleum,,773910,032511107,501168732
ADI,Analog Devices,,6281,032654105,369204722
ANSS,Ansys,,1013462,03662Q105,83861316
ANTM,Anthem,,1156039,036752103,257151817
AON,Aon,a,315293,G0403H108,240324883
APA,Apache Corporation,,6769,037411105,375741208
AIV,Apartment Investment & Management,a,922864,03748R754,148801611
AAPL,Apple,,320193,037833100,4629018776
AMAT,Applied Materials,,6951,038222105,940339464
APTV,Aptiv,,1521332,G6095L109,258487867
ARNC,Arconic,,4281,03965L100,463551720
ANET,Arista,,1596532,040413106,76309880
AIZ,Assurant,,1267238,04621X108,61572431
T,AT&T,,732717,00206R102,7292766233
ATO,Atmos Energy,,731802,049560105,116955626
ADSK,Autodesk,,769397,052769106,219552088
AZO,AutoZone,,866787,053332102,24793580
AVB,AvalonBay Communities,,915912,053484101,139091633
AVY,Avery Dennison,,8818,053611109,84222477
BKR,Baker Hughes,a,1701605,05722G100,515335622
BLL,Ball,,9389,058498106,334561689
BAC,Bank of America,,70858,060505104,9574550170
BBWI,Bath & Body Works,,701985,070830104,275419673
BAX,Baxter,,10456,071813109,510993880
BDX,Becton Dickinson,,10795,075887109,269724474
BRK.B,Berkshire Hathaway,b,1067983,084670702,1369918021
BBY,Best Buy,,764478,086516101,267761500
BIIB,Biogen,,875045,09062X103,194624666
BLK,BlackRock,,1364742,09247X101,155744408
BK,BNY Mellon,,1390777,064058100,957466953
BA,Boeing,,12927,097023105,563195547
BKNG,Booking Holdings,,1075531,09857L108,44091423
BWA,BorgWarner,,908255,099724106,207390529
BXP,Boston Properties,,1037540,101121101,154514773
BSX,Boston Scientific,,885725,101137107,1389279653
BMY,Bristol Myers Squibb,,14272,110122108,1635653542
AVGO,Broadcom,,1730168,11135F101,396555655
BR,Broadridge,,1383312,11133T103,115979331
BF.B,Brown–Forman,b,14693,115637209,308126231
CHRW,C.H. Robinson,,1043277,12541W209,136706178
CDNS,Cadence,,813672,127387108,281030000
CPB,Campbell's,,16732,134429109,301128635
COF,Capital One,,927628,14040H105,469567431
CPRI,Capri Holdings,,1530721,G1890L107,150829078
CAH,Cardinal Health,,721371,14149Y108,298044791
KMX,CarMax,,1170010,143130102,166230553
CCL,Carnival,,815097,143658300,526951116
CAT,Caterpillar,,18230,149123101,571744949
CBOE,Cboe,,1374310,12503M108,111618790
CBRE,CBRE,a,1138118,12504L109,336094590
CBS,CBS Corp.,b,813828,124857202,350209301
CE,Celanese,,1306830,150870103,126979568
CELG,Celgene,,816284,151020104,704073046
CNC,Centene,,1071739,15135B101,413285390
CNP,CenterPoint Energy,,1130310,15189T107,501824465
CERN,Cerner,,804753,156782104,325179147
CF,CF Industries,,1324404,125269100,221695697
SCHW,Charles Schwab,,316709,808513105,1334272409
CHTR,Charter Communications,a,1091667,16119P108,223429693
CVX,Chevron,,93410,166764100,1904628908
CMG,Chipotle Mexican Grill,,1058090,169656105,27697340
CB,Chubb,,896159,H1467J104,458024602
CHD,Church & Dwight,,313927,171340102,246078246
CI,Cigna,,1739940,125523100,379587664
XEC,Cimarex Energy,,1168054,171798101,99455508
CINF,Cincinnati Financial,,20286,172062101,163132518
CTAS,Cintas,,723254,172908105,104570566
CSCO,Cisco,,858877,17275R102,4343379725
C,Citigroup,,831001,172967424,2313129686
CFG,Citizens,,759944,174610105,459087055
CTXS,Citrix,,877890,177376100,131681784
CLX,Clorox,,21076,189054109,127528898
CME,CME Group,a,1156375,12572Q105,357940652
CMS,CMS Energy,,811156,125896100,283715988
KO,Coca-Cola,,21344,191216100,4269329855
CTSH,Cognizant,a,1058290,192446102,571322434
CL,Colgate-Palmolive,,21665,194162103,858568501
CMCSA,Comcast,a,1166691,20030N101,4528931358
CMA,Comerica,,28412,200340107,155774062
ED,Con Edison,,1047862,209115104,324972046
CAG,Conagra Brands,,23217,205887102,485976144
CXO,Concho Resources,,1358071,20605P101,200594110
COP,ConocoPhillips,,1163165,20825C104,1130247598
STZ,Constellation Brands,a,16918,21036P108,166827061
COO,CooperCompanies,,711404,216648402,49415926
CPRT,Copart,,900075,217204106,228518309
GLW,Corning,,24741,219350105,785453243
CTVA,Corteva,,1755672,22052L104,748815000
COST,Costco,,909832,22160K105,439854236
CTRA,Coterra,,858470,127097103,423318433
COTY,Coty,a,1024305,222070203,751347314
CCI,Crown Castle,,1051470,22822V101,415659892
CSX,CSX,,277948,126408103,809273271
CMI,Cummins,,26172,231021106,157489627
CVS,CVS Health,,64803,126650100,1298326410
DHI,D.R. Horton,,882184,23331A109,373244589
DHR,Danaher,,313616,235851102,713078054
DRI,Darden,,940944,237194105,122997608
DVA,DaVita,,927066,23918K108,166400000
DE,Deere & Co.,,315189,244199105,317472901
DAL,Delta Air Lines,,27904,247361702,655402470
XRAY,Dentsply Sirona,,818479,24906P109,229438391
DVN,Devon,,1090012,25179M103,421140000
FANG,Diamondback,,1539838,25278X109,164543851
DLR,Digital Realty,,1297996,253868103,208053386
DFS,Discover,,1393612,254709108,325525458
DISCK,Discovery,c,1437107,25470F302,360438986
DISCA,Discovery,a,1437107,25470F104,157542490
DISH,Dish,a,1001082,25470M109,230282168
DIS,Disney,,1744489,254687106,1694461703
DG,Dollar General,,29534,256677105,259304593
DLTR,Dollar Tree,,935703,256746108,238155493
D,Dominion Energy,,715957,25746U109,801656223
DOV,Dover,,29905,260003108,145261816
DOW,Dow,,1751788,260557103,748771240
DTE,DTE,,936340,233331107,183192600
DUK,Duke Energy,,1326160,26441C204,727686072
DRE,Duke Realty,,783280,264411505,359354872
DD,DuPont,,1666700,26614N102,2249304714
DXC,DXC Technology,,1688568,23355L106,268462214
ETFC,E-Trade,,1015780,269246401,245358292
EMN,Eastman,,915389,277432100,138591911
ETN,Eaton,,1551182,G29183103,423108474
EBAY,eBay,,1065088,278642103,882988552
ECL,Ecolab,,31462,278865100,288235558
EIX,Edison International,,827052,281020107,325811206
EW,Edwards Lifesciences,,1099800,28176E108,208286400
EA,Electronic Arts,,712515,285512109,298395046
EMR,Emerson,,32604,291011104,614884915
ETR,Entergy,,65984,29364G103,189805955
EOG,EOG Resources,,821189,26875P101,580219936
EFX,Equifax,,33185,294429105,120780760
EQIX,Equinix,,1101239,29444U700,82559294
EQR,Equity Residential,,906107,29476L107,370283488
ESS,Essex,,920522,297178105,65707794
EL,Estée Lauder Companies,a,1001250,518439104,218972805
RE,Everest,,1095073,G3223R108,40712633
EVRG,Evergy,,1711269,30034W106,244337828
ES,Eversource,,72741,30040W108,317293902
EXC,Exelon,,1109357,30161N101,970934388
EXPE,Expedia Group,,1324424,30212P303,135622597
EXPD,Expeditors,,746515,302130109,171837024
EXR,Extra Space Storage,,1289490,30225T102,127384943
XOM,ExxonMobil,,34088,30231G102,4231156770
FFIV,F5,,1048695,315616102,59611531
FAST,Fastenal,,815556,311900104,286263405
FRT,Federal Realty,,34903,313745101,74703423
FDX,FedEx,,1048911,31428X106,260604082
FITB,Fifth Third Bank,,35527,316773100,704038611
FRC,First Republic,,1132979,33616C100,167404589
FE,FirstEnergy,,1031296,337932107,531420442
FIS,FIS,,1136893,31620M106,323321797
FISV,Fiserv,,798354,337738108,392118467
FLT,Fleetcor,,1175454,339041105,86112194
FLIR,FLIR Systems,,354908,302445101,135441891
FLS,Flowserve,,30625,34354P105,131082878
FMC,FMC,,37785,302491303,131664681
FL,Foot Locker,,850209,344849104,112143344
F,Ford,,37996,345370860,3915874808
FTNT,Fortinet,,1262039,34959E109,170701878
FTV,Fortive,,1659166,34959J108,334940557
FBHS,Fortune Brands,,1519751,34964C106,140054374
FOXA,Fox Corporation,a,1754301,35137L105,354328270
FOX,Fox Corporation,b,1754301,35137L204,266173651
BEN,Franklin Templeton,,38777,354613101,507995781
FCX,Freeport-McMoRan,,831259,35671D857,1450085723
AJG,Gallagher,,354190,363576109,185231796
GPS,Gap,,39911,364760108,378450235
GRMN,Garmin,,1121788,H2906T109,198077418
IT,Gartner,,749251,366651107,89958515
GE,GE,,40545,369604301,8720541425
GD,General Dynamics,,40533,369550108,288861893
GIS,General Mills,,40704,370334104,599452325
GPC,Genuine Parts,,40987,372460105,146061299
GILD,Gilead,,882095,375558103,1273211867
GPN,Global Payments,,1123360,37940X102,157368783
GL,Globe Life,,320335,37959E102,110071509
GM,GM,,1467858,37045V100,1416352319
GS,Goldman Sachs,,886982,38141G104,366508868
GWW,Grainger,,277135,384802104,55447584
HRB,H&R Block,,12659,093671105,202858486
HAL,Halliburton,,45012,406216101,873568301
HBI,Hanesbrands,,1359841,410345102,361455901
HOG,Harley-Davidson,,793952,412822108,159248822
HRS,Harris Corporation,,202058,413875105,118037827
HIG,Hartford (The),,874766,416515104,360604108
HAS,Hasbro,,46080,418056107,125853887
HCA,HCA Healthcare,,860730,40412C101,342331538
PEAK,Healthpeak,,765880,42250P103,477899050
HP,Helmerich & Payne,,46765,423452101,109412475
HSIC,Henry Schein,,1000228,806407102,149993913
HSY,Hershey's,,47111,427866108,148101374
HES,Hess,,4447,42809H107,304259690
HPE,Hewlett Packard Enterprise,,1645590,42824C109,1358109490
HLT,Hilton,,1585689,43300A203,291642087
HFC,HollyFrontier,,48039,436106108,170765438
HOLX,Hologic,,859737,436440101,268050138
HD,Home Depot,,354950,437076102,1102828061
HON,Honeywell,,773840,438516106,727762709
HRL,Hormel,,48465,440452100,535132442
HST,Host Hotels & Resorts,,1070750,44107P104,740704221
HPQ,HP,,47217,40434L105,1517813933
HUM,Humana,,49071,444859102,135044033
HII,Huntington Ingalls Industries,,1501585,446413106,41544415
HBAN,Huntington National Bank,,49196,446150104,1046446441
IBM,IBM,,51143,459200101,886706076
IDXX,Idexx Laboratories,,874716,45168D104,86006403
INFO,IHS Markit,,1598014,G47567105,400174213
ITW,Illinois Tool Works,,49826,452308109,325814657
ILMN,Illumina,,1110803,452327109,147000000
INCY,Incyte,,879169,45337C102,214313677
INTC,Intel,,50863,458140100,4477000000
ICE,Intercontinental Exchange,,1571949,45866F104,565519680
IFF,International Flavors & Fragrances,,51253,459506101,106669871
IP,International Paper,,51434,460146103,398453374
IPG,Interpublic Group,,51644,460690100,386481244
INTU,Intuit,,896878,461202103,259153508
ISRG,Intuitive Surgical,,1035267,46120E602,115263192
IVZ,Invesco,,914208,G491BT108,400793580
IPGP,IPG Photonics,,1111928,44980X109,53047870
IQV,IQVIA,,1478242,46266C105,197373539
IRM,Iron Mountain,,1020569,46284V101,286733513
JBHT,J.B. Hunt,,728535,445658107,108738890
JKHY,Jack Henry & Associates,,779152,426281101,77193789
J,Jacobs,,52988,469814107,137488003
JEF,Jefferies Financial Group,,96223,47233W109,298227163
JNJ,Johnson & Johnson,,200406,478160104,2658101601
JCI,Johnson Controls,,833444,G51502105,898231436
JPM,JPMorgan Chase,,19617,46625H100,3244486000
JNPR,Juniper Networks,,1043604,48203R104,345913721
KSU,Kansas City Southern,,54480,485170302,100634561
K,Kellogg's,,55067,487836108,341542405
KEY,KeyCorp,,91576,493267108,1008510406
KEYS,Keysight,,1601046,49338L103,188048106
KMB,Kimberly-Clark,,55785,494368103,343932908
KIM,Kimco Realty,,879101,49446R109,421827949
KMI,Kinder Morgan,,1506307,49456B101,2263719187
KLAC,KLA,,319201,482480100,159366135
KSS,Kohl's,,885639,500255104,162920660
KHC,Kraft Heinz,,1637459,500754106,1219786010
KR,Kroger,,56873,501044101,798337660
LLL,L3 Technologies,,1039101,502413107,79419671
LH,LabCorp,,920148,50540R409,98550000
LRCX,Lam Research,,707549,512807108,150744790
LW,Lamb Weston,,1679273,513272104,146270146
LEG,Leggett & Platt,,58492,524660107,131189252
LEN,Lennar,a,920760,526057104,285095721
LLY,Lilly,,59478,532457108,996665945
LNC,Lincoln Financial,,59558,534187109,203134034
LIN,Linde,,1707925,G5494J103,543855742
LKQ,LKQ Corporation,,1065696,501889208,314298621
LMT,Lockheed Martin,,936468,539830109,282539174
L,Loews Corporation,,60086,540424108,306553266
LOW,Lowe's,,60667,548661107,795709500
LUMN,Lumen,,18926,550241103,1085198751
LYB,LyondellBasell,,1489393,N53745100,370651355
MTB,M&T Bank,,36270,55261F104,137226999
MAC,Macerich,,912242,554382101,141201570
M,Macy's,,794367,55616P104,308129994
MRO,Marathon Oil,,101778,565849106,818159318
MPC,Marathon Petroleum,,1510295,56585A102,667475668
MAR,Marriott International,a,1048286,571903202,335989995
MMC,Marsh & McLennan,,62709,571748102,506419644
MLM,Martin Marietta,,916076,573284106,62532463
MAS,Masco,,62996,574599106,293564867
MA,Mastercard,a,1141391,57636Q104,1011426074
MXIM,Maxim Integrated,,743316,57772K101,272645213
MKC,McCormick,nonvoting,63754,579780206,122649378
MCD,McDonald's,,63908,580135101,763586223
MCK,McKesson,,927653,58155Q103,190443015
MDT,Medtronic,,1613103,G5960L103,1341152571
MRK,Merck,,310158,58933Y105,2576934891
FB,Meta,a,1326801,30303M102,2397885652
MET,MetLife,,1099219,59156R108,953221964
MTD,Mettler Toledo,,1037646,592688105,24803147
MGM,MGM Resorts,,789570,552953101,537063012
MCHP,Microchip,,827054,595017104,237443638
MU,Micron,,723125,595112103,1106211360
MSFT,Microsoft,,789019,594918104,7664968703
MAA,Mid-America Apartments,,912595,59522J103,113949636
MHK,Mohawk Industries,,851968,608190104,72364676
TAP,Molson Coors,b,24545,60871R209,196140966
MDLZ,Mondelez International,a,1103982,609207105,1441635881
MNST,Monster Beverage,,865752,61174X109,543438615
MCO,Moody's,,1059556,615369105,189618888
MS,Morgan Stanley,,895421,617446448,1691483356
MOS,Mosaic,,1285785,61945C103,385616768
MSI,Motorola Solutions,,68505,620076307,164786286
MSCI,MSCI,,1408198,55354G100,84541591
MYL,Mylan N.V.,,1623613,N59465109,515678428
NDAQ,Nasdaq,,1120193,631103108,165604108
NKTR,Nektar Therapeutics,,906709,640268108,174211683
NTAP,NetApp,,1002047,64110D104,244230327
NFLX,Netflix,,1065280,64110L106,437185298
NWL,Newell Brands,,814453,651229106,422995505
NEM,Newmont,,1164727,651639106,733088782
NWSA,News Corp,a,1564708,65249B109,385454669
NWS,News Corp,b,1564708,65249B208,199630240
NEE,NextEra Energy,,753308,65339F101,478922320
NLSN,Nielsen,,1492633,G6518L108,355493220
NKE,Nike,b,320187,654106103,1256771383
NI,NiSource,,1111711,65473P105,372888815
NBL,Noble Energy,,72207,655044105,478224952
JWN,Nordstrom,,702165,655664100,265992264
NSC,Norfolk Southern,,702165,655844108,265992264
NTRS,Northern Trust,,73124,665859104,217689049
NOC,Northrop Grumman,,1133421,666807102,169784327
NLOK,NortonLifeLock,,849399,668771108,627003617
NCLH,Norwegian Cruise Line Holdings,,1513761,G66721104,216372513
NOV,Nov,,1021860,62955J103,385235577
NRG,NRG Energy,,1013871,629377508,271975443
NUE,Nucor,,73309,670346105,304785686
NVDA,Nvidia,,1045810,67066G104,607535714
ORLY,O'Reilly Automotive,,898173,67103H107,78319104
OXY,Occidental Petroleum,,797468,674599105,747906140
OMC,Omnicom Group,,29989,681919106,220729277
OKE,Oneok,,1039684,682680103,412331519
ORCL,Oracle,,1341439,68389X105,3403162385
PCAR,Paccar,,75362,693718108,346539132
PKG,Packaging Corporation of America,,75677,695156109,94494932
PH,Parker,,76334,701094104,128297392
PAYX,Paychex,,723531,704326107,359381139
PYPL,PayPal,,1633917,70450Y103,1174491052
PNR,Pentair,,77360,G7S00T104,171886069
PBCT,People's United Financial,,1378946,712704105,389670478
PEP,PepsiCo,,77476,713448108,1402338202
PKI,PerkinElmer,,31791,714046109,110861830
PRGO,Perrigo,,1585364,G97822103,135933881
PFE,Pfizer,,78003,717081103,5555572627
PM,Philip Morris International,,1413329,718172109,1555456826
PSX,Phillips 66,,1534701,718546104,453574249
PNW,Pinnacle West,,764622,723484101,112229253
PXD,Pioneer Natural Resources,,1038357,723787107,168397685
PNC,PNC Financial Services,,713676,693475105,452059232
PPG,PPG Industries,,79879,693506107,236057234
PPL,PPL,,922224,69351T106,721493009
PFG,Principal,,1126328,74251V102,278478358
PG,Procter & Gamble,,80424,742718109,2508254763
PGR,Progressive,,80661,743315103,583984285
PLD,Prologis,,1045609,74340W103,630665469
PRU,Prudential,,1137774,744320102,407044943
PEG,PSEG,,788784,744573106,505308374
PSA,Public Storage,,1393311,74460D109,174510891
PHM,PulteGroup,,822416,745867101,277138219
PVH,PVH,,78239,693656100,75110528
QRVO,Qorvo,,1604778,74736K101,120641531
QCOM,Qualcomm,,804328,747525103,1213920937
PWR,Quanta,,1050915,74762E102,141745231
DGX,Quest Diagnostics,,1022079,74834L100,134354333
RL,Ralph Lauren,a,1037038,751212101,52421769
RJF,Raymond James,,720005,754730109,140906140
RTN,Raytheon Company,,1047122,755111507,280649057
RTX,Raytheon Technologies,,101829,75513E101,862282218
O,Realty Income,,726728,756109104,303806245
RHT,Red Hat,,1087423,756577102,177547655
REG,Regency Centers,,910606,758849103,167512788
REGN,Regeneron,,872589,75886F107,107641779
RF,Regions,,1281761,7591EP100,1015441851
RSG,Republic Services,,1060391,760759100,321593360
RMD,ResMed,,943819,761152107,143362096
RHI,Robert Half,,315213,770323103,118738999
ROK,Rockwell Automation,,1024478,773903109,118375171
ROL,Rollins,,84839,775711104,327530468
ROP,Roper,,882835,776696106,103751053
ROST,Ross,,745732,778296103,367309833
RCL,Royal Caribbean Group,,884887,V7780T103,209480745
SPGI,S&P Global,,64040,78409V104,246912087
CRM,Salesforce,,1108524,79466L302,772630434
SBAC,SBA Communications,a,1034054,78410G104,112949354
SLB,Schlumberger,,87347,806857108,1385098294
STX,Seagate,,1137789,G7997R103,278283179
SEE,Sealed Air,,1012100,81211K100,155676493
SRE,Sempra Energy,,1032208,816851109,274223740
SHW,Sherwin-Williams,,89800,824348106,92323016
SPG,Simon,a,1063761,828806109,308985201
SWKS,Skyworks,,4127,83088M102,173175723
SLG,SL Green Realty,,1040971,78440X887,84326266
SJM,Smucker,,91419,832696405,113745191
SNA,Snap-on,,91440,833034101,55448129
SO,Southern Company,,92122,842587107,1040198588
LUV,Southwest Airlines,,92380,844741108,546158297
SWK,Stanley Black & Decker,,93556,854502101,151476688
SBUX,Starbucks,,829224,855244109,1220101098
STT,State Street,,93751,857477103,375037504
SYK,Stryker,,310764,863667101,373790670
STI,SunTrust Banks,,750556,867914103,443586549
SIVB,SVB Financial,,719739,78486Q101,52237459
SYF,Synchrony,,1601712,87165B103,696067204
SNPS,Synopsys,,883241,871607107,149766143
SYY,Sysco,,96021,871829107,513862667
TROW,T. Rowe Price,,1113169,74144T108,236404818
TTWO,Take-Two Interactive,,946581,874054109,112783766
TPR,Tapestry,,1116132,876030107,290089092
TGT,Target,,27419,87612E106,515154098
TEL,TE Connectivity,,1385157,H84989104,337352621
FTI,TechnipFMC,,1681459,G87110105,449276645
TFX,Teleflex,,96943,879369106,46094898
TXN,Texas Instruments,,97476,882508104,938310583
TXT,Textron,,217346,883203101,233123395
TMO,Thermo Fisher Scientific,,97745,883556102,399981140
TIF,Tiffany & Co,,98246,886547108,121441130
TJX,TJX Companies,,109198,872540109,1213734742
TSCO,Tractor Supply,,916365,892356106,120838099
TT,Trane Technologies,,1466258,G8994E103,241420668
TDG,TransDigm,,1260221,893641100,53080305
TRV,Travelers,,86312,89417E109,262267682
TRIP,TripAdvisor,,1526520,896945201,125853100
TFC,Truist,,92230,89832Q109,765880584
TSS,TSYS,,721683,891906109,176942653
TWTR,Twitter,,1418091,90184L102,768053142
TSN,Tyson,a,100493,902494103,294804084
USB,U.S. Bank,,36104,902973304,1595043849
UDR,UDR,,74208,902653104,279144627
ULTA,Ulta Beauty,,1403568,90384S303,58791603
UA,Under Armour,c,1336917,904311206,227839069
UAA,Under Armour,a,1336917,904311107,187936500
UNP,Union Pacific,,100885,907818108,710631249
UAL,United Airlines,,100517,910047109,264084016
UPS,United Parcel Service,b,1090727,911312106,697131493
URI,United Rentals,,1067701,911363109,78808288
UNH,UnitedHealth Group,,731766,91324P102,953546005
UHS,Universal Health Services,b,352915,913903100,83107211
UNM,Unum,,5513,91529Y106,213008750
VLO,Valero,,1035002,91913Y100,417371384
VAR,Varian Medical Systems,,203527,92220P105,90895829
VTR,Ventas,,740260,92276F100,357846078
VRSN,Verisign,,1014473,92343E102,119335241
VRSK,Verisk,,1442145,92345Y106,163605433
VZ,Verizon,,732712,92343V104,4135644599
VRTX,Vertex,,875320,92532F100,255981459
VFC,VF Corporation,,103379,918204108,396671656
VIAB,Viacom,b,1339947,92553P201,353642696
V,Visa,a,1403161,92826C839,1741651954
VNO,Vornado Realty Trust,,899689,929042109,190758986
VMC,Vulcan Materials,,1396009,929160109,131986940
WAB,Wabtec,,943452,929740108,133073643
WBA,Walgreens Boots Alliance,,1618921,931427108,914539852
WMT,Walmart,,104169,931142103,2868841295
WM,Waste Management,,823768,94106L109,424450703
WAT,Waters,,1000697,941848103,70348307
WEC,WEC Energy Group,,783325,92939U106,315438684
WCG,WellCare,,1279363,94946T106,50183138
WFC,Wells Fargo,,72971,949746101,4515527087
WELL,Welltower,,766704,95040Q104,400176686
WDC,Western Digital,,106040,958102105,292266388
WU,Western Union,,1365135,959802109,432822347
WRK,WestRock,,1732845,96145D105,256645138
WY,Weyerhaeuser,,106535,962166104,745305222
WHR,Whirlpool,,106640,963320106,63405098
WMB,Williams,,107263,969457100,1211445993
WTW,Willis Towers Watson,,1140536,G96629103,129174036
WYNN,Wynn Resorts,,1174922,983134107,107650719
XEL,Xcel Energy,,72903,98389B100,514533911
XRX,Xerox,,108772,98421M106,226402955
XLNX,Xilinx,,743988,983919101,253725573
XYL,Xylem,,1524472,98419M100,179786317
YUM,Yum! Brands,,1041061,988498101,306154207
ZBH,Zimmer Biomet,,1136869,98956P102,204642574
ZION,Zions Bancorp,,109380,989701107,182553459
ZTS,Zoetis,,1555280,98978V103,478696768
