Symbol,Name,Class,CIK,CUSIP,shares_outstanding
MMM,3M,,66740,88579Y101,593722921
AOS,A. O. Smith,,91142,831865209,145225659
ABT,Abbott,,1800,002824100,1753071598
ABBV,AbbVie,,1551152,00287Y109,1587243852
ABMD,Abiomed,,815094,003654100,44397419
ACN,Accenture,a,1467373,G1151C101,672642919
ATVI,Activision Blizzard,,718877,00507V109,760148770
ADM,ADM,,7084,039483102,559039696
ADBE,Adobe,,796343,00724F101,492254359
ADP,ADP,,8670,053015103,441428359
AAP,Advance Auto Parts,,1158449,00751Y106,74002669
AES,AES,,874761,00130H105,660959053
AET,Aetna,,1122304,00817Y108,327094915
AMG,Affiliated Managers Group,,1004434,008252108,54400504
AFL,Aflac,,4977,001055102,633370070
A,Agilent Technologies,,1090872,00846U101,321585595
AIG,AIG,,5272,026874784,899492527
APD,Air Products,,2969,009158106,219190826
AKAM,Akamai,,1086222,00971T101,170322872
ALK,Alaska Air Group,,766421,011659109,123167491
ALB,Albemarle,,915913,012653101,110707178
ARE,Alexandria,,1035443,015271109,102653225
ALXN,Alexion Pharmaceuticals,,899866,015351109,222245319
ALGN,Align,,1097149,016255101,80143235
ALLE,Allegion,,1579241,G0176J109,95041583
AGN,Allergan,,1578845,G0177J108,335710068
ADS,Alliance Data Systems,,1101215,018581108,55425162
LNT,Alliant Energy,,352541,018802108,231479701
ALL,Allstate,,899051,020002101,352192073
GOOGL,Alphabet,a,1652044,02079K305,298615811
GOOG,Alphabet,c,1652044,02079K107,349172203
MO,Altria,,764180,02209S103,1894787361
AMZN,Amazon,,1018724,023135106,484973633
AMD,AMD,,2488,007903107,969240078
AEE,Ameren,,1002910,023608102,243298871
AAL,American Airlines Group,,6201,02376R102,469814660
AEP,American Electric Power,,4904,025537101,492402930
AXP,American Express,,4962,025816109,860339895
AMT,American Tower,,1053507,03027X100,441339225
AWK,American Water,,1410636,030420103,178242297
AMP,Ameriprise Financial,,820027,03076C106,145128610
ABC,AmerisourceBergen,,1140859,03073E105,219757054
AME,Ametek,,1037868,031100100,231503361
AMGN,Amgen,,318154,031162100,678151132
APH,Amphenol,a,820313,032095101,302845784
APC,Anadarko Petroleum,,773910,032511107,521747106
ADI,Analog Devices,,6281,032654105,370464618
ANDV,Andeavor,,50104,03349M105,152289103
ANSS,Ansys,,1013462,03662Q105,83955080
ANTM,Anthem,,1156039,036752103,255548271
AON,Aon,a,315293,G0403H108,245258724
APA,Apache Corporation,,6769,037411105,381908218
AIV,Apartment Investment & Management,a,922864,03748R754,157339201
AAPL,Apple,,320193,037833100,4951801461
AMAT,Applied Materials,,6951,038222105,1022104818
APTV,Aptiv,,1521332,G6095L109,265098551
ARNC,Arconic,,4281,03965L100,482809223
AIZ,Assurant,,1267238,04621X108,52603124
T,AT&T,,732717,00206R102,6141387500
ADSK,Autodesk,,769397,052769106,218502981
AZO,AutoZone,,866787,053332102,26784679
AVB,AvalonBay Communities,,915912,053484101,138169347
AVY,Avery Dennison,,8818,053611109,87998040
BKR,Baker Hughes,a,1701605,05722G100,419187361
BLL,Ball,,9389,058498106,349780066
BAC,Bank of America,,70858,060505104,10184298498
BBWI,Bath & Body Works,,701985,070830104,278557308
BAX,Baxter,,10456,071813109,537106575
BDX,Becton Dickinson,,10795,075887109,267191180
BRK.B,Berkshire Hathaway,b,1067983,084670702,1345407677
BBY,Best Buy,,764478,086516101,282664744
BIIB,Biogen,,875045,09062X103,211146630
BLK,BlackRock,,1364742,09247X101,160360902
BK,BNY Mellon,,1390777,064058100,1010660467
BA,Boeing,,12927,097023105,584140382
BKNG,Booking Holdings,,1075531,09857L108,48227777
BWA,BorgWarner,,908255,099724106,210224071
BXP,Boston Properties,,1037540,101121101,154352316
BSX,Boston Scientific,,885725,101137107,1378293926
BHF,Brighthouse Financial,,1685040,10922N103,119773106
BMY,Bristol Myers Squibb,,14272,110122108,1634504734
AVGO,Broadcom,,1730168,11135F101,417410865
BR,Broadridge,,1383312,11133T103,117479017
BF.B,Brown–Forman,b,14693,115637209,311904136
CHRW,C.H. Robinson,,1043277,12541W209,139493718
CA,CA Technologies,,356028,12673P105,416720596
CDNS,Cadence,,813672,127387108,281923196
CPB,Campbell's,,16732,134429109,300637783
COF,Capital One,,927628,14040H105,486382917
CAH,Cardinal Health,,721371,14149Y108,312085923
KMX,CarMax,,1170010,143130102,178699765
CCL,Carnival,,815097,143658300,533761568
CAT,Caterpillar,,18230,149123101,597901798
CBOE,Cboe,,1374310,12503M108,112574917
CBRE,CBRE,a,1138118,12504L109,339645290
CBS,CBS Corp.,b,813828,124857202,342957006
CELG,Celgene,,816284,151020104,733031661
CNC,Centene,,1071739,15135B101,177273843
CNP,CenterPoint Energy,,1130310,15189T107,431329654
CERN,Cerner,,804753,156782104,332065930
CF,CF Industries,,1324404,125269100,233336105
SCHW,Charles Schwab,,316709,808513105,1348240570
CHTR,Charter Communications,a,1091667,16119P108,237475033
CVX,Chevron,,93410,166764100,1910941766
CMG,Chipotle Mexican Grill,,1058090,169656105,27832741
CB,Chubb,,896159,H1467J104,465283672
CHD,Church & Dwight,,313927,171340102,244354802
CI,CIGNA Corp.,,701221,125509109,243163766
XEC,Cimarex Energy,,1168054,171798101,95432857
CINF,Cincinnati Financial,,20286,172062101,164090797
CTAS,Cintas,,723254,172908105,106718323
CSCO,Cisco,,858877,17275R102,4763349262
C,Citigroup,,831001,172967424,2550274717
CFG,Citizens,,759944,174610105,485660879
CTXS,Citrix,,877890,177376100,135752824
CLX,Clorox,,21076,189054109,129485779
CME,CME Group,a,1156375,12572Q105,340485339
CMS,CMS Energy,,811156,125896100,282511042
KO,Coca-Cola,,21344,191216100,4259520175
CTSH,Cognizant,a,1058290,192446102,586894803
CL,Colgate-Palmolive,,21665,194162103,872371690
CMCSA,Comcast,a,1166691,20030N101,4607976244
CMA,Comerica,,28412,200340107,172230564
ED,Con Edison,,1047862,209115104,310614338
CAG,Conagra Brands,,23217,205887102,392789884
CXO,Concho Resources,,1358071,20605P101,149070109
STZ,Constellation Brands,a,16918,21036P108,168616902
COO,CooperCompanies,,711404,216648402,49061846
CPRT,Copart,,900075,217204106,232098701
GLW,Corning,,24741,219350105,835619122
COST,Costco,,909832,22160K105,438743953
CTRA,Coterra,,858470,127097103,455043055
COTY,Coty,a,1024305,222070203,750290601
CCI,Crown Castle,,1051470,22822V101,411151776
CSX,CSX,,277948,126408103,875554944
CMI,Cummins,,26172,231021106,164804294
CVS,CVS Health,,64803,126650100,1015913427
DHI,D.R. Horton,,882184,23331A109,377012035
DHR,Danaher,,313616,235851102,698353264
DRI,Darden,,940944,237194105,123738335
DVA,DaVita,,927066,23918K108,177112359
DE,Deere & Co.,,315189,244199105,324120806
DAL,Delta Air Lines,,27904,247361702,702553377
XRAY,Dentsply Sirona,,818479,24906P109,227403565
DVN,Devon,,1090012,25179M103,524132857
DLR,Digital Realty,,1297996,253868103,205843378
DFS,Discover,,1393612,254709108,351289031
DISCK,Discovery,c,1437107,25470F302,294743661
DISCA,Discovery,a,1437107,25470F104,155850242
DISH,Dish,a,1001082,25470M109,228596228
DG,Dollar General,,29534,256677105,268504620
DLTR,Dollar Tree,,935703,256746108,237437438
D,Dominion Energy,,715957,25746U109,652299627
DOV,Dover,,29905,260003108,154614449
DPS,Dr Pepper Snapple Group,,1418135,26138E109,180066541
DTE,DTE,,936340,233331107,181447617
DUK,Duke Energy,,1326160,26441C204,700991765
DRE,Duke Realty,,783280,264411505,357012465
DWDP,DuPont,,1666700,26078J100,2323655680
DXC,DXC Technology,,1688568,23355L106,285137410
ETFC,E-Trade,,1015780,269246401,264939385
EMN,Eastman,,915389,277432100,142638766
ETN,Eaton,,1551182,G29183103,437349152
EBAY,eBay,,1065088,278642103,999149930
ECL,Ecolab,,31462,278865100,288526205
EIX,Edison International,,827052,281020107,325811206
EW,Edwards Lifesciences,,1099800,28176E108,210558020
EA,Electronic Arts,,712515,285512109,306782408
EMR,Emerson,,32604,291011104,631743724
ETR,Entergy,,65984,29364G103,180805079
EVHC,Envision Healthcare,,1678531,29414D100,121027177
EOG,EOG Resources,,821189,26875P101,578773253
EQT,EQT,,33213,26884L109,264991067
EFX,Equifax,,33185,294429105,120253219
EQIX,Equinix,,1101239,29444U700,79344586
EQR,Equity Residential,,906107,29476L107,368196058
ESS,Essex,,920522,297178105,66043733
EL,Estée Lauder Companies,a,1001250,518439104,224153873
RE,Everest,,1095073,G3223R108,40929885
EVRG,Evergy,,1711269,30034W106,271687743
ES,Eversource,,72741,30040W108,316885808
EXC,Exelon,,1109357,30161N101,965378002
EXPE,Expedia Group,,1324424,30212P303,137790367
EXPD,Expeditors,,746515,302130109,175572582
ESRX,Express Scripts,,1532063,30219G108,562575976
EXR,Extra Space Storage,,1289490,30225T102,126074913
XOM,ExxonMobil,,34088,30231G102,4233895923
FFIV,F5,,1048695,315616102,61346818
FAST,Fastenal,,815556,311900104,287677305
FRT,Federal Realty,,34903,313745101,73211096
FDX,FedEx,,1048911,31428X106,267091780
FITB,Fifth Third Bank,,35527,316773100,688532037
FE,FirstEnergy,,1031296,337932107,476886953
FIS,FIS,,1136893,31620M106,331071875
FISV,Fiserv,,798354,337738108,330068933
FLT,Fleetcor,,1175454,339041105,89685525
FLIR,FLIR Systems,,354908,302445101,137948574
FLS,Flowserve,,30625,34354P105,130816984
FLR,Fluor Corporation,,1124198,343412102,140315190
FMC,FMC,,37785,302491303,134512215
FL,Foot Locker,,850209,344849104,118043771
F,Ford,,37996,345370860,3911017509
FTV,Fortive,,1659166,34959J108,348375115
FBHS,Fortune Brands,,1519751,34964C106,147566644
BEN,Franklin Templeton,,38777,354613101,542881593
FCX,Freeport-McMoRan,,831259,35671D857,1448463494
AJG,Gallagher,,354190,363576109,181977977
GPS,Gap,,39911,364760108,388907880
GRMN,Garmin,,1121788,H2906T109,198077418
IT,Gartner,,749251,366651107,91098659
GE,GE,,40545,369604301,8685291186
GD,General Dynamics,,40533,369550108,297030258
GIS,General Mills,,40704,370334104,574963784
GPC,Genuine Parts,,40987,372460105,146737733
GGP,GGP,,1496048,36174X101,957751792
GILD,Gilead,,882095,375558103,1304327256
GPN,Global Payments,,1123360,37940X102,159397479
GL,Globe Life,,320335,37959E102,113779896
GM,GM,,1467858,37045V100,1407966392
GS,Goldman Sachs,,886982,38141G104,378368772
GWW,Grainger,,277135,384802104,56018695
HRB,H&R Block,,12659,093671105,209219534
HAL,Halliburton,,45012,406216101,875685511
HBI,Hanesbrands,,1359841,410345102,360327926
HOG,Harley-Davidson,,793952,412822108,167197034
HRS,Harris Corporation,,202058,413875105,118729187
HIG,Hartford (The),,874766,416515104,357672335
HAS,Hasbro,,46080,418056107,124694525
HCA,HCA Healthcare,,860730,40412C101,349509756
PEAK,Healthpeak,,765880,42250P103,469647093
HP,Helmerich & Payne,,46765,423452101,108876506
HSIC,Henry Schein,,1000228,806407102,153881364
HSY,Hershey's,,47111,427866108,149033465
HES,Hess,,4447,42809H107,308132862
HPE,Hewlett Packard Enterprise,,1645590,42824C109,1540407935
HLT,Hilton,,1585689,43300A203,304839781
HFC,HollyFrontier,,48039,436106108,176870655
HOLX,Hologic,,859737,436440101,274227078
HD,Home Depot,,354950,437076102,1155859717
HON,Honeywell,,773840,438516106,747009085
HRL,Hormel,,48465,440452100,529812079
HST,Host Hotels & Resorts,,1070750,44107P104,741417520
HPQ,HP,,47217,40434L105,1621262016
HUM,Humana,,49071,444859102,137682207
HII,Huntington Ingalls Industries,,1501585,446413106,44604235
HBAN,Huntington National Bank,,49196,446150104,1101291207
IBM,IBM,,51143,459200101,918032297
IDXX,Idexx Laboratories,,874716,45168D104,86954067
INFO,IHS Markit,,1598014,G47567105,397278794
ITW,Illinois Tool Works,,49826,452308109,338809792
ILMN,Illumina,,1110803,452327109,147000000
INCY,Incyte,,879169,45337C102,211867395
INTC,Intel,,50863,458140100,4660153846
ICE,Intercontinental Exchange,,1571949,45866F104,580359639
IFF,International Flavors & Fragrances,,51253,459506101,78937865
IP,International Paper,,51434,460146103,413631100
IPG,Interpublic Group,,51644,460690100,385227096
INTU,Intuit,,896878,461202103,256336268
ISRG,Intuitive Surgical,,1035267,46120E602,113128994
IVZ,Invesco,,914208,G491BT108,410701323
IPGP,IPG Photonics,,1111928,44980X109,53867439
IQV,IQVIA,,1478242,46266C105,207912984
IRM,Iron Mountain,,1020569,46284V101,285740226
JBHT,J.B. Hunt,,728535,445658107,109755593
J,Jacobs,,52988,469814107,141755602
JEF,Jefferies Financial Group,,96223,47233W109,349538006
JNJ,Johnson & Johnson,,200406,478160104,2682444064
JCI,Johnson Controls,,833444,G51502105,926203311
JPM,JPMorgan Chase,,19617,46625H100,3405237626
JNPR,Juniper Networks,,1043604,48203R104,346699723
KSU,Kansas City Southern,,54480,485170302,102676019
K,Kellogg's,,55067,487836108,346497908
KEY,KeyCorp,,91576,493267108,1061224939
KMB,Kimberly-Clark,,55785,494368103,349645461
KIM,Kimco Realty,,879101,49446R109,425069801
KMI,Kinder Morgan,,1506307,49456B101,2206070043
KLAC,KLA,,319201,482480100,155987166
KSS,Kohl's,,885639,500255104,168008784
KHC,Kraft Heinz,,1637459,500754106,1219032770
KR,Kroger,,56873,501044101,865197694
LLL,L3 Technologies,,1039101,502413107,78377190
LH,LabCorp,,920148,50540R409,102125000
LRCX,Lam Research,,707549,512807108,163785033
LEG,Leggett & Platt,,58492,524660107,131726354
LEN,Lennar,a,920760,526057104,289218071
LLY,Lilly,,59478,532457108,1089018829
LNC,Lincoln Financial,,59558,534187109,218516068
LKQ,LKQ Corporation,,1065696,501889208,309656242
LMT,Lockheed Martin,,936468,539830109,285488361
L,Loews Corporation,,60086,540424108,321913965
LOW,Lowe's,,60667,548661107,825616088
LUMN,Lumen,,18926,550241103,1074762408
LYB,LyondellBasell,,1489393,N53745100,393056200
MTB,M&T Bank,,36270,55261F104,146956737
MAC,Macerich,,912242,554382101,140921360
M,Macy's,,794367,55616P104,305771761
MRO,Marathon Oil,,101778,565849106,851753709
MPC,Marathon Petroleum,,1510295,56585A102,467427844
MAR,Marriott International,a,1048286,571903202,354683227
MMC,Marsh & McLennan,,62709,571748102,507478632
MLM,Martin Marietta,,916076,573284106,62891710
MAS,Masco,,62996,574599106,310539988
MA,Mastercard,a,1141391,57636Q104,1032759269
MAT,Mattel,,63276,577081102,343993273
MKC,McCormick,nonvoting,63754,579780206,121283939
MCD,McDonald's,,63908,580135101,785335372
MCK,McKesson,,927653,58155Q103,203158808
MDT,Medtronic,,1613103,G5960L103,1354391910
MRK,Merck,,310158,58933Y105,2692354288
FB,Meta,a,1326801,30303M102,2397839182
MET,MetLife,,1099219,59156R108,1025071447
MTD,Mettler Toledo,,1037646,592688105,25394355
MGM,MGM Resorts,,789570,552953101,561362255
KORS,Michael Kors,,1530721,G60754101,151049017
MCHP,Microchip,,827054,595017104,234753583
MU,Micron,,723125,595112103,1159771637
MSFT,Microsoft,,789019,594918104,7687346340
MAA,Mid-America Apartments,,912595,59522J103,113746045
MHK,Mohawk Industries,,851968,608190104,74510744
TAP,Molson Coors,b,24545,60871R209,195531227
MDLZ,Mondelez International,a,1103982,609207105,1479154850
MNST,Monster Beverage,,865752,61174X109,564058062
MCO,Moody's,,1059556,615369105,191890000
MS,Morgan Stanley,,895421,617446448,1777779140
MOS,Mosaic,,1285785,61945C103,385331123
MSI,Motorola Solutions,,68505,620076307,162120738
MSCI,MSCI,,1408198,55354G100,89392275
MYL,Mylan N.V.,,1623613,N59465109,515113386
NDAQ,Nasdaq,,1120193,631103108,166802415
NKTR,Nektar Therapeutics,,906709,640268108,166312406
NTAP,NetApp,,1002047,64110D104,266208209
NFLX,Netflix,,1065280,64110L106,434646397
NWL,Newell Brands,,814453,651229106,485525842
NFX,Newfield Exploration,,912750,651290108,199724788
NEM,Newmont,,1164727,651639106,533482738
NWS,News Corp,b,1564708,65249B208,199630240
NWSA,News Corp,a,1564708,65249B109,383206414
NEE,NextEra Energy,,753308,65339F101,471425585
NLSN,Nielsen,,1492633,G6518L108,356232522
NKE,Nike,b,320187,654106103,1283199681
NI,NiSource,,1111711,65473P105,337622404
NBL,Noble Energy,,72207,655044105,484468031
JWN,Nordstrom,,702165,655664100,282566553
NSC,Norfolk Southern,,702165,655844108,282566553
NTRS,Northern Trust,,73124,665859104,225013914
NOC,Northrop Grumman,,1133421,666807102,174310893
NLOK,NortonLifeLock,,849399,668771108,625689313
NCLH,Norwegian Cruise Line Holdings,,1513761,G66721104,226407653
NOV,Nov,,1021860,62955J103,381459043
NRG,NRG Energy,,1013871,629377508,314932836
NUE,Nucor,,73309,670346105,318092192
NVDA,Nvidia,,1045810,67066G104,605637960
ORLY,O'Reilly Automotive,,898173,67103H107,82690798
OXY,Occidental Petroleum,,797468,674599105,765759688
OMC,Omnicom Group,,29989,681919106,227834866
OKE,Oneok,,1039684,682680103,410899403
ORCL,Oracle,,1341439,68389X105,4065819847
PCAR,Paccar,,75362,693718108,351872698
PCG,Pacific Gas & Electric Company,,1004980,69331C108,515982850
PKG,Packaging Corporation of America,,75677,695156109,94348252
PH,Parker,,76334,701094104,132960421
PAYX,Paychex,,723531,704326107,359207440
PYPL,PayPal,,1633917,70450Y103,1190870528
PNR,Pentair,,77360,G7S00T104,178423914
PBCT,People's United Financial,,1378946,712704105,347552397
PEP,PepsiCo,,77476,713448108,1418420865
PKI,PerkinElmer,,31791,714046109,110570301
PRGO,Perrigo,,1585364,G97822103,139647855
PFE,Pfizer,,78003,717081103,5901217899
PM,Philip Morris International,,1413329,718172109,1554109678
PSX,Phillips 66,,1534701,718546104,466436952
PNW,Pinnacle West,,764622,723484101,111882170
PXD,Pioneer Natural Resources,,1038357,723787107,170371363
PNC,PNC Financial Services,,713676,693475105,470126243
PPG,PPG Industries,,79879,693506107,246784104
PPL,PPL,,922224,69351T106,697497396
PX,Praxair Inc.,,884905,74005P104,287365535
PFG,Principal,,1126328,74251V102,287423240
PG,Procter & Gamble,,80424,742718109,2514670634
PGR,Progressive,,80661,743315103,582374643
PLD,Prologis,,1045609,74340W103,533181545
PRU,Prudential,,1137774,744320102,420696629
PEG,PSEG,,788784,744573106,505081616
PSA,Public Storage,,1393311,74460D109,174222576
PHM,PulteGroup,,822416,745867101,285769046
PVH,PVH,,78239,693656100,77005042
QRVO,Qorvo,,1604778,74736K101,126491754
QCOM,Qualcomm,,804328,747525103,1481976879
PWR,Quanta,,1050915,74762E102,151558798
DGX,Quest Diagnostics,,1022079,74834L100,135782327
RL,Ralph Lauren,a,1037038,751212101,55549731
RJF,Raymond James,,720005,754730109,145756429
RTN,Raytheon Company,,1047122,755111507,287680628
RTX,Raytheon Technologies,,101829,75513E101,800054712
O,Realty Income,,726728,756109104,284326482
RHT,Red Hat,,1087423,756577102,177552486
REG,Regency Centers,,910606,758849103,170102478
REGN,Regeneron,,872589,75886F107,105919296
RF,Regions,,1281761,7591EP100,1122849180
RSG,Republic Services,,1060391,760759100,328945840
RMD,ResMed,,943819,761152107,142784060
RHI,Robert Half,,315213,770323103,123806034
ROK,Rockwell Automation,,1024478,773903109,125604897
COL,Rockwell Collins,,1137411,774341101,164154689
ROP,Roper,,882835,776696106,103026785
ROST,Ross,,745732,778296103,378170173
RCL,Royal Caribbean Group,,884887,V7780T103,212353520
SPGI,S&P Global,,64040,78409V104,251950000
CRM,Salesforce,,1108524,79466L302,732680327
SBAC,SBA Communications,a,1034054,78410G104,115743640
SCG,SCANA,,754737,80589M102,142632201
SLB,Schlumberger,,87347,806857108,1385119876
STX,Seagate,,1137789,G7997R103,286430601
SEE,Sealed Air,,1012100,81211K100,163567654
SRE,Sempra Energy,,1032208,816851109,259856933
SHW,Sherwin-Williams,,89800,824348106,93553283
SPG,Simon,a,1063761,828806109,309870214
SWKS,Skyworks,,4127,83088M102,182209240
SLG,SL Green Realty,,1040971,78440X887,89425048
SJM,Smucker,,91419,832696405,113575958
SNA,Snap-on,,91440,833034101,56623183
SO,Southern Company,,92122,842587107,1011565888
LUV,Southwest Airlines,,92380,844741108,582619732
SWK,Stanley Black & Decker,,93556,854502101,154241236
SBUX,Starbucks,,829224,855244109,1387314285
STT,State Street,,93751,857477103,366190072
SRCL,Stericycle,,861878,858912108,85563082
SYK,Stryker,,310764,863667101,373726715
STI,SunTrust Banks,,750556,867914103,466301652
SIVB,SVB Financial,,719739,78486Q101,52939180
SYF,Synchrony,,1601712,87165B103,756742170
SNPS,Synopsys,,883241,871607107,148841314
SYY,Sysco,,96021,871829107,521203080
TROW,T. Rowe Price,,1113169,74144T108,242951737
TTWO,Take-Two Interactive,,946581,874054109,114386647
TPR,Tapestry,,1116132,876030107,286914549
TGT,Target,,27419,87612E106,537157254
TEL,TE Connectivity,,1385157,H84989104,350385330
FTI,TechnipFMC,,1681459,G87110105,462440841
TXN,Texas Instruments,,97476,882508104,980850433
TXT,Textron,,217346,883203101,257201677
GT,The Goodyear Tire & Rubber Company,,42582,382550101,239837401
DIS,The Walt Disney Company,,1001039,254687106,1495292784
TMO,Thermo Fisher Scientific,,97745,883556102,402313680
TIF,Tiffany & Co,,98246,886547108,124340748
TJX,TJX Companies,,109198,872540109,626271082
TSCO,Tractor Supply,,916365,892356106,123027563
TT,Trane Technologies,,1466258,G8994E103,248344596
TDG,TransDigm,,1260221,893641100,52350665
TRV,Travelers,,86312,89417E109,270599459
TRIP,TripAdvisor,,1526520,896945201,125262078
TFC,Truist,,92230,89832Q109,779727107
TSS,TSYS,,721683,891906109,182059643
FOXA,Twenty-First Century Fox,a,1308161,90130A101,1054023424
FOX,Twenty-First Century Fox,b,1308161,90130A200,798520953
TWTR,Twitter,,1418091,90184L102,752063739
TSN,Tyson,a,100493,902494103,297599290
USB,U.S. Bank,,36104,902973304,1645748579
UDR,UDR,,74208,902653104,267809204
ULTA,Ulta Beauty,,1403568,90384S303,60604262
UA,Under Armour,c,1336917,904311206,223603947
UAA,Under Armour,a,1336917,904311107,185734203
UNP,Union Pacific,,100885,907818108,772716646
UAL,United Airlines,,100517,910047109,278961207
UPS,United Parcel Service,b,1090727,911312106,689123668
URI,United Rentals,,1067701,911363109,83764826
UNH,UnitedHealth Group,,731766,91324P102,963308567
UHS,Universal Health Services,b,352915,913903100,87093980
UNM,Unum,,5513,91529Y106,221224464
VLO,Valero,,1035002,91913Y100,431773283
VAR,Varian Medical Systems,,203527,92220P105,91441800
VTR,Ventas,,740260,92276F100,356277907
VRSN,Verisign,,1014473,92343E102,97040241
VRSK,Verisk,,1442145,92345Y106,165163747
VZ,Verizon,,732712,92343V104,4131008196
VRTX,Vertex,,875320,92532F100,254580824
VFC,VF Corporation,,103379,918204108,395169728
VIAB,Viacom,b,1339947,92553P201,352961541
V,Visa,a,1403161,92826C839,1790278986
VNO,Vornado Realty Trust,,899689,929042109,190167109
VMC,Vulcan Materials,,1396009,929160109,132306540
WBA,Walgreens Boots Alliance,,1618921,931427108,991908917
WMT,Walmart,,104169,931142103,2950701429
WM,Waste Management,,823768,94106L109,431890248
WAT,Waters,,1000697,941848103,78519468
WEC,WEC Energy Group,,783325,92939U106,315538904
WFC,Wells Fargo,,72971,949746101,4874856360
WELL,Welltower,,766704,95040Q104,371879939
WDC,Western Digital,,106040,958102105,298650672
WU,Western Union,,1365135,959802109,460196846
WRK,WestRock,,1636023,96145D105,256120700
WY,Weyerhaeuser,,106535,962166104,756728412
WHR,Whirlpool,,106640,963320106,70762655
WMB,Williams,,107263,969457100,827485286
WTW,Willis Towers Watson,,1140536,G96629103,132022528
WYNN,Wynn Resorts,,1174922,983134107,106254008
XEL,Xcel Energy,,72903,98389B100,508555248
XRX,Xerox,,108772,98421M106,254679371
XLNX,Xilinx,,743988,983919101,253780326
XL,XL Group,,875159,G98294104,257650798
XYL,Xylem,,1524472,98419M100,179910027
YUM,Yum! Brands,,1041061,988498101,327201117
ZBH,Zimmer Biomet,,1136869,98956P102,203218244
ZION,Zions Bancorp,,109380,989701107,196882215
ZTS,Zoetis,,1555280,98978V103,484370267
