Symbol,Name,Class,CIK,CUSIP,shares_outstanding
MMM,3M,,66740,88579Y101,576010397
AOS,A. O. Smith,,91142,831865209,135277893
ABT,Abbott,,1800,002824100,1770511486
ABBV,AbbVie,,1551152,00287Y109,1670960887
ABMD,Abiomed,,815094,003654100,45010906
ACN,Accenture,a,1467373,G1151C101,662975444
ATVI,Activision Blizzard,,718877,00507V109,771430173
ADM,ADM,,7084,039483102,555596662
ADBE,Adobe,,796343,00724F101,479671144
ADP,ADP,,8670,053015103,429900373
AAP,Advance Auto Parts,,1158449,00751Y106,69119992
AES,AES,,874761,00130H105,665054951
AFL,Aflac,,4977,001055102,713972887
A,Agilent Technologies,,1090872,00846U101,308592240
AIG,AIG,,5272,026874784,861386149
APD,Air Products,,2969,009158106,220893939
AKAM,Akamai,,1086222,00971T101,162534597
ALK,Alaska Air Group,,766421,011659109,123272996
ALB,Albemarle,,915913,012653101,106343670
ARE,Alexandria,,1035443,015271109,126128686
ALXN,Alexion Pharmaceuticals,,899866,015351109,219737441
ALGN,Align,,1097149,016255101,78779705
ALLE,Allegion,,1579241,G0176J109,92230386
LNT,Alliant Energy,,352541,018802108,249642806
ALL,Allstate,,899051,020002101,312731528
GOOGL,Alphabet,a,1652044,02079K305,300362585
GOOG,Alphabet,c,1652044,02079K107,334284316
MO,Altria,,764180,02209S103,1858389450
AMZN,Amazon,,1018724,023135106,500355439
AMCR,Amcor,,1748790,G0250X107,1571567720
AMD,AMD,,2488,007903107,1173269263
AEE,Ameren,,1002910,023608102,247013964
AAL,American Airlines Group,,6201,02376R102,490204021
AEP,American Electric Power,,4904,025537101,495919049
AXP,American Express,,4962,025816109,805122334
AMT,American Tower,,1053507,03027X100,443499668
AWK,American Water,,1410636,030420103,181141060
AMP,Ameriprise Financial,,820027,03076C106,120966074
ABC,AmerisourceBergen,,1140859,03073E105,203873058
AME,Ametek,,1037868,031100100,229575916
AMGN,Amgen,,318154,031162100,586398223
APH,Amphenol,a,820313,032095101,297776699
ADI,Analog Devices,,6281,032654105,368897309
ANSS,Ansys,,1013462,03662Q105,85721828
ANTM,Anthem,,1156039,036752103,251660542
AON,Aon,a,315293,G0403H108,231457607
APA,Apache Corporation,,6769,037411105,377447781
AIV,Apartment Investment & Management,a,922864,03748R754,148864711
AAPL,Apple,,320193,037833100,4287245186
AMAT,Applied Materials,,6951,038222105,914231184
APTV,Aptiv,,1521332,G6095L109,265516588
ANET,Arista,,1596532,040413106,75917369
AIZ,Assurant,,1267238,04621X108,59649529
T,AT&T,,732717,00206R102,7125000000
ATO,Atmos Energy,,731802,049560105,122988047
ADSK,Autodesk,,769397,052769106,219224810
AZO,AutoZone,,866787,053332102,23326936
AVB,AvalonBay Communities,,915912,053484101,140739309
AVY,Avery Dennison,,8818,053611109,83427263
BKR,Baker Hughes,a,1701605,05722G100,656069938
BLL,Ball,,9389,058498106,326370340
BAC,Bank of America,,70858,060505104,8667935494
BBWI,Bath & Body Works,,701985,070830104,277849625
BAX,Baxter,,10456,071813109,506861389
BDX,Becton Dickinson,,10795,075887109,289669735
WRB,Berkley,,11544,084423102,178243975
BRK.B,Berkshire Hathaway,b,1067983,084670702,1397987866
BBY,Best Buy,,764478,086516101,258513969
BIO,Bio-Rad,a,12208,090572207,24581010
BIIB,Biogen,,875045,09062X103,159504896
BLK,BlackRock,,1364742,09247X101,153102207
BK,BNY Mellon,,1390777,064058100,885857110
BA,Boeing,,12927,097023105,564417550
BKNG,Booking Holdings,,1075531,09857L108,40942594
BWA,BorgWarner,,908255,099724106,207273789
BXP,Boston Properties,,1037540,101121101,155530877
BSX,Boston Scientific,,885725,101137107,1419779173
BMY,Bristol Myers Squibb,,14272,110122108,2254030845
AVGO,Broadcom,,1730168,11135F101,402974266
BR,Broadridge,,1383312,11133T103,115040527
BF.B,Brown–Forman,b,14693,115637209,309248290
CHRW,C.H. Robinson,,1043277,12541W209,134754632
CDNS,Cadence,,813672,127387108,278797010
CPB,Campbell's,,16732,134429109,302195864
COF,Capital One,,927628,14040H105,456288045
CAH,Cardinal Health,,721371,14149Y108,292284893
KMX,CarMax,,1170010,143130102,163077762
CCL,Carnival,,815097,143658300,599176754
CARR,Carrier,,1783180,14448C104,866164868
CTLT,Catalent,,1596783,148806102,159366708
CAT,Caterpillar,,18230,149123101,541511464
CBOE,Cboe,,1374310,12503M108,109022292
CBRE,CBRE,a,1138118,12504L109,335248114
CDW,CDW,,1402057,12514G108,142546031
CE,Celanese,,1306830,150870103,118275221
CNC,Centene,,1071739,15135B101,579402262
CNP,CenterPoint Energy,,1130310,15189T107,533236000
CERN,Cerner,,804753,156782104,305117574
CF,CF Industries,,1324404,125269100,213848147
SCHW,Charles Schwab,,316709,808513105,1288214418
CHTR,Charter Communications,a,1091667,16119P108,204916300
CVX,Chevron,,93410,166764100,1867264654
CMG,Chipotle Mexican Grill,,1058090,169656105,27946503
CB,Chubb,,896159,H1467J104,451364173
CHD,Church & Dwight,,313927,171340102,246849153
CI,Cigna,,1739940,125523100,367819882
CINF,Cincinnati Financial,,20286,172062101,160839946
CTAS,Cintas,,723254,172908105,103505069
CSCO,Cisco,,858877,17275R102,4227125809
C,Citigroup,,831001,172967424,2081864268
CFG,Citizens,,759944,174610105,426756483
CTXS,Citrix,,877890,177376100,123508613
CLX,Clorox,,21076,189054109,126134019
CME,CME Group,a,1156375,12572Q105,358616978
CMS,CMS Energy,,811156,125896100,286275544
KO,Coca-Cola,,21344,191216100,4295311153
CTSH,Cognizant,a,1058290,192446102,541746489
CL,Colgate-Palmolive,,21665,194162103,857390608
CMCSA,Comcast,a,1166691,20030N101,4558612201
CMA,Comerica,,28412,200340107,139037968
ED,Con Edison,,1047862,209115104,334359359
CAG,Conagra Brands,,23217,205887102,487263912
CXO,Concho Resources,,1358071,20605P101,196705611
COP,ConocoPhillips,,1163165,20825C104,1072564660
STZ,Constellation Brands,a,16918,21036P108,168067830
COO,CooperCompanies,,711404,216648402,53335581
CPRT,Copart,,900075,217204106,235110389
GLW,Corning,,24741,219350105,761532681
CTVA,Corteva,,1755672,22052L104,748501208
COST,Costco,,909832,22160K105,441445650
CTRA,Coterra,,858470,127097103,398578455
CCI,Crown Castle,,1051470,22822V101,418685009
CSX,CSX,,277948,126408103,765057091
CMI,Cummins,,26172,231021106,147679159
CVS,CVS Health,,64803,126650100,1308207259
DHI,D.R. Horton,,882184,23331A109,363660922
DHR,Danaher,,313616,235851102,706627567
DRI,Darden,,940944,237194105,129976771
DVA,DaVita,,927066,23918K108,121932584
DE,Deere & Co.,,315189,244199105,313181924
DAL,Delta Air Lines,,27904,247361702,637856520
XRAY,Dentsply Sirona,,818479,24906P109,218721025
DVN,Devon,,1090012,25179M103,382774725
DXCM,DexCom,,1093557,252131107,94911748
FANG,Diamondback,,1539838,25278X109,157821188
DLR,Digital Realty,,1297996,253868103,268714505
DFS,Discover,,1393612,254709108,306390042
DISCA,Discovery,a,1437107,25470F104,160155705
DISCK,Discovery,c,1437107,25470F302,340168275
DISH,Dish,a,1001082,25470M109,286483397
DIS,Disney,,1744489,254687106,1806800742
DG,Dollar General,,29534,256677105,250582294
DLTR,Dollar Tree,,935703,256746108,237260529
D,Dominion Energy,,715957,25746U109,839960827
DPZ,Domino's,,1286681,25754A201,39319911
DOV,Dover,,29905,260003108,143966136
DOW,Dow,,1751788,260557103,741117157
DTE,DTE,,936340,233331107,192650313
DUK,Duke Energy,,1326160,26441C204,735230537
DRE,Duke Realty,,783280,264411505,369843227
DD,DuPont,,1666700,26614N102,733817355
DXC,DXC Technology,,1688568,23355L106,253979881
ETFC,E-Trade,,1015780,269246401,221077973
EMN,Eastman,,915389,277432100,135355739
ETN,Eaton,,1551182,G29183103,400098901
EBAY,eBay,,1065088,278642103,700180236
ECL,Ecolab,,31462,278865100,285426719
EIX,Edison International,,827052,281020107,374176765
EW,Edwards Lifesciences,,1099800,28176E108,516803503
EA,Electronic Arts,,712515,285512109,288745673
EMR,Emerson,,32604,291011104,597561331
ETR,Entergy,,65984,29364G103,200194144
EOG,EOG Resources,,821189,26875P101,582176971
EFX,Equifax,,33185,294429105,121448714
EQIX,Equinix,,1101239,29444U700,87597914
EQR,Equity Residential,,906107,29476L107,372182597
ESS,Essex,,920522,297178105,65290605
EL,Estée Lauder Companies,a,1001250,518439104,225214018
ETSY,Etsy,,1370637,29786A106,119077748
RE,Everest,,1095073,G3223R108,39977254
EVRG,Evergy,,1711269,30034W106,226796921
ES,Eversource,,72741,30040W108,340502516
EXC,Exelon,,1109357,30161N101,974502839
EXPE,Expedia Group,,1324424,30212P303,135640546
EXPD,Expeditors,,746515,302130109,167184966
EXR,Extra Space Storage,,1289490,30225T102,129075712
XOM,ExxonMobil,,34088,30231G102,4228233045
FFIV,F5,,1048695,315616102,61075854
FAST,Fastenal,,815556,311900104,573502105
FRT,Federal Realty,,34903,313745101,75636748
FDX,FedEx,,1048911,31428X106,261858654
FITB,Fifth Third Bank,,35527,316773100,712126507
FRC,First Republic,,1132979,33616C100,171899289
FE,FirstEnergy,,1031296,337932107,542106466
FIS,FIS,,1136893,31620M106,618907545
FISV,Fiserv,,798354,337738108,669592327
FLT,Fleetcor,,1175454,339041105,83964132
FLIR,FLIR Systems,,354908,302445101,131023641
FLS,Flowserve,,30625,34354P105,130149829
FMC,FMC,,37785,302491303,129565051
F,Ford,,37996,345370860,3907166301
FTNT,Fortinet,,1262039,34959E109,161767216
FTV,Fortive,,1659166,34959J108,337018255
FBHS,Fortune Brands,,1519751,34964C106,138108489
FOX,Fox Corporation,b,1754301,35137L204,261078355
FOXA,Fox Corporation,a,1754301,35137L105,343266514
BEN,Franklin Templeton,,38777,354613101,495344172
FCX,Freeport-McMoRan,,831259,35671D857,1452132415
AJG,Gallagher,,354190,363576109,191469000
GPS,Gap,,39911,364760108,373510504
GRMN,Garmin,,1121788,H2906T109,191177115
IT,Gartner,,749251,366651107,89212381
GE,GE,,40545,369604301,8753220901
GD,General Dynamics,,40533,369550108,286932872
GIS,General Mills,,40704,370334104,610092136
GPC,Genuine Parts,,40987,372460105,144264124
GILD,Gilead,,882095,375558103,1253950119
GPN,Global Payments,,1123360,37940X102,299200092
GL,Globe Life,,320335,37959E102,106488071
GM,GM,,1467858,37045V100,1431092784
GS,Goldman Sachs,,886982,38141G104,344027811
GWW,Grainger,,277135,384802104,53570595
HAL,Halliburton,,45012,406216101,878234476
HBI,Hanesbrands,,1359841,410345102,348126306
HIG,Hartford (The),,874766,416515104,358158130
HAS,Hasbro,,46080,418056107,137019137
HCA,HCA Healthcare,,860730,40412C101,337898270
PEAK,Healthpeak,,765880,42250P103,538300463
HSIC,Henry Schein,,1000228,806407102,142764156
HSY,Hershey's,,47111,427866108,147406169
HES,Hess,,4447,42809H107,307144576
HPE,Hewlett Packard Enterprise,,1645590,42824C109,1285304997
HLT,Hilton,,1585689,43300A203,277292702
HFC,HollyFrontier,,48039,436106108,161969941
HOLX,Hologic,,859737,436440101,258779642
HD,Home Depot,,354950,437076102,1075943069
HON,Honeywell,,773840,438516106,701783875
HRL,Hormel,,48465,440452100,539155970
HST,Host Hotels & Resorts,,1070750,44107P104,705156907
HWM,Howmet Aerospace,,4281,443201108,436127323
HPQ,HP,,47217,40434L105,1393135036
HUM,Humana,,49071,444859102,132291615
HII,Huntington Ingalls Industries,,1501585,446413106,40485858
HBAN,Huntington National Bank,,49196,446150104,1017275610
IBM,IBM,,51143,459200101,890549222
IEX,IDEX,,832101,45167R104,75486963
IDXX,Idexx Laboratories,,874716,45168D104,85017228
INFO,IHS Markit,,1598014,G47567105,397297909
ITW,Illinois Tool Works,,49826,452308109,316160708
ILMN,Illumina,,1110803,452327109,146326530
INCY,Incyte,,879169,45337C102,218276631
IR,Ingersoll Rand,,1699150,45687V106,416870166
INTC,Intel,,50863,458140100,4249593406
ICE,Intercontinental Exchange,,1571949,45866F104,544490560
IFF,International Flavors & Fragrances,,51253,459506101,106903928
IP,International Paper,,51434,460146103,393078691
IPG,Interpublic Group,,51644,460690100,389868571
INTU,Intuit,,896878,461202103,261232863
ISRG,Intuitive Surgical,,1035267,46120E602,116937529
IVZ,Invesco,,914208,G491BT108,459162958
IPGP,IPG Photonics,,1111928,44980X109,53168733
IQV,IQVIA,,1478242,46266C105,191210202
IRM,Iron Mountain,,1020569,46284V101,288054968
JBHT,J.B. Hunt,,728535,445658107,105506711
JKHY,Jack Henry & Associates,,779152,426281101,76630589
J,Jacobs,,52988,469814107,130178971
JNJ,Johnson & Johnson,,200406,478160104,2633241365
JCI,Johnson Controls,,833444,G51502105,744045492
JPM,JPMorgan Chase,,19617,46625H100,3047598095
JNPR,Juniper Networks,,1043604,48203R104,331611922
KSU,Kansas City Southern,,54480,485170302,94430373
K,Kellogg's,,55067,487836108,342936709
KEY,KeyCorp,,91576,493267108,975803956
KEYS,Keysight,,1601046,49338L103,187071896
KMB,Kimberly-Clark,,55785,494368103,340954757
KIM,Kimco Realty,,879101,49446R109,432509796
KMI,Kinder Morgan,,1506307,49456B101,2262970555
KLAC,KLA,,319201,482480100,155366240
KHC,Kraft Heinz,,1637459,500754106,1222365588
KR,Kroger,,56873,501044101,777668598
LHX,L3Harris,,202058,502431109,216081089
LH,LabCorp,,920148,50540R409,97328571
LRCX,Lam Research,,707549,512807108,145437523
LW,Lamb Weston,,1679273,513272104,146055743
LVS,Las Vegas Sands,,1300514,517834107,763784721
LEG,Leggett & Platt,,58492,524660107,132354638
LDOS,Leidos,,1336920,525327102,142147464
LEN,Lennar,a,920760,526057104,274775127
LLY,Lilly,,59478,532457108,956464241
LNC,Lincoln Financial,,59558,534187109,193239014
LIN,Linde,,1707925,G5494J103,525357167
LYV,Live Nation Entertainment,,1335258,538034109,216589884
LKQ,LKQ Corporation,,1065696,501889208,304180779
LMT,Lockheed Martin,,936468,539830109,279694310
L,Loews Corporation,,60086,540424108,280715151
LOW,Lowe's,,60667,548661107,755279788
LUMN,Lumen,,18926,550241103,1097524891
LYB,LyondellBasell,,1489393,N53745100,333795424
MTB,M&T Bank,,36270,55261F104,128277479
MRO,Marathon Oil,,101778,565849106,789742954
MPC,Marathon Petroleum,,1510295,56585A102,650545781
MKTX,MarketAxess,,1278021,57060D108,37955622
MAR,Marriott International,a,1048286,571903202,324294722
MMC,Marsh & McLennan,,62709,571748102,506416539
MLM,Martin Marietta,,916076,573284106,62261568
MAS,Masco,,62996,574599106,261556481
MA,Mastercard,a,1141391,57636Q104,992686188
MXIM,Maxim Integrated,,743316,57772K101,266669706
MKC,McCormick,nonvoting,63754,579780206,124072230
MCD,McDonald's,,63908,580135101,744096510
MCK,McKesson,,927653,58155Q103,162184243
MDT,Medtronic,,1613103,G5960L103,1341753382
MRK,Merck,,310158,58933Y105,2527453286
FB,Meta,a,1326801,30303M102,2404354043
MET,MetLife,,1099219,59156R108,907636818
MTD,Mettler Toledo,,1037646,592688105,23970564
MGM,MGM Resorts,,789570,552953101,493259773
MCHP,Microchip,,827054,595017104,249641376
MU,Micron,,723125,595112103,1111121990
MSFT,Microsoft,,789019,594918104,7572355538
MAA,Mid-America Apartments,,912595,59522J103,114360515
MHK,Mohawk Industries,,851968,608190104,71191031
TAP,Molson Coors,b,24545,60871R209,196542720
MDLZ,Mondelez International,a,1103982,609207105,1428098156
MNST,Monster Beverage,,865752,61174X109,527106757
MCO,Moody's,,1059556,615369105,187697802
MS,Morgan Stanley,,895421,617446448,1576376758
MOS,Mosaic,,1285785,61945C103,379065075
MSI,Motorola Solutions,,68505,620076307,169836366
MSCI,MSCI,,1408198,55354G100,83627151
MYL,Mylan N.V.,,1623613,N59465109,516946046
NDAQ,Nasdaq,,1120193,631103108,164198637
NTAP,NetApp,,1002047,64110D104,221871555
NFLX,Netflix,,1065280,64110L106,441001873
NWL,Newell Brands,,814453,651229106,424228571
NEM,Newmont,,1164727,651639106,802935341
NWS,News Corp,b,1564708,65249B208,199630240
NWSA,News Corp,a,1564708,65249B109,388943292
NEE,NextEra Energy,,753308,65339F101,489645588
NLSN,Nielsen,,1492633,G6518L108,356750904
NKE,Nike,b,320187,654106103,1244047064
NI,NiSource,,1111711,65473P105,382947705
NBL,Noble Energy,,72207,655044105,479767993
NSC,Norfolk Southern,,702165,655844108,255121003
NTRS,Northern Trust,,73124,665859104,208092183
NOC,Northrop Grumman,,1133421,666807102,166710687
NLOK,NortonLifeLock,,849399,668771108,590228248
NCLH,Norwegian Cruise Line Holdings,,1513761,G66721104,268277200
NOV,Nov,,1021860,62955J103,388271694
NRG,NRG Energy,,1013871,629377508,244116639
NUE,Nucor,,73309,670346105,301853300
NVDA,Nvidia,,1045810,67066G104,615989010
NVR,NVR,,906163,62944T105,3694701
ORLY,O'Reilly Automotive,,898173,67103H107,74126648
OXY,Occidental Petroleum,,797468,674599105,922041589
ODFL,Old Dominion,,878927,679580100,117565151
OMC,Omnicom Group,,29989,681919106,214737843
OKE,Oneok,,1039684,682680103,437210856
ORCL,Oracle,,1341439,68389X105,3058684837
OTIS,Otis,,1781335,68902V107,433079455
PCAR,Paccar,,75362,693718108,346005157
PKG,Packaging Corporation of America,,75677,695156109,94837749
VIAC,Paramount,b,813828,92556H206,563515377
PH,Parker,,76334,701094104,128471333
PAYX,Paychex,,723531,704326107,358769237
PAYC,Paycom,,1590955,70432V102,58542725
PYPL,PayPal,,1633917,70450Y103,1173502711
PNR,Pentair,,77360,G7S00T104,165906752
PBCT,People's United Financial,,1378946,712704105,424735515
PEP,PepsiCo,,77476,713448108,1384896962
PKI,PerkinElmer,,31791,714046109,111635650
PRGO,Perrigo,,1585364,G97822103,136421080
PFE,Pfizer,,78003,717081103,5556092863
PM,Philip Morris International,,1413329,718172109,1557245744
PSX,Phillips 66,,1534701,718546104,436696418
PNW,Pinnacle West,,764622,723484101,112535091
PXD,Pioneer Natural Resources,,1038357,723787107,164513626
PNC,PNC Financial Services,,713676,693475105,424455421
PPG,PPG Industries,,79879,693506107,235976770
PPL,PPL,,922224,69351T106,768776566
PFG,Principal,,1126328,74251V102,274354177
PG,Procter & Gamble,,80424,742718109,2483347261
PGR,Progressive,,80661,743315103,585395824
PLD,Prologis,,1045609,74340W103,738715159
PRU,Prudential,,1137774,744320102,395000000
PEG,PSEG,,788784,744573106,505724093
PSA,Public Storage,,1393311,74460D109,174799203
PHM,PulteGroup,,822416,745867101,268172214
PVH,PVH,,78239,693656100,71055268
QRVO,Qorvo,,1604778,74736K101,114419842
QCOM,Qualcomm,,804328,747525103,1127238823
PWR,Quanta,,1050915,74762E102,137872876
DGX,Quest Diagnostics,,1022079,74834L100,134202268
RL,Ralph Lauren,a,1037038,751212101,47986870
RJF,Raymond James,,720005,754730109,137106963
RTX,Raytheon Technologies,,101829,75513E101,1397718795
O,Realty Income,,726728,756109104,344474715
REG,Regency Centers,,910606,758849103,169652170
REGN,Regeneron,,872589,75886F107,106014596
RF,Regions,,1281761,7591EP100,959976652
RSG,Republic Services,,1060391,760759100,318430329
RMD,ResMed,,943819,761152107,144811862
RHI,Robert Half,,315213,770323103,114623692
ROK,Rockwell Automation,,1024478,773903109,115965394
ROL,Rollins,,84839,775711104,327760449
ROP,Roper,,882835,776696106,104608224
ROST,Ross,,745732,778296103,355961725
RCL,Royal Caribbean Group,,884887,V7780T103,212528165
SPGI,S&P Global,,64040,78409V104,240972527
CRM,Salesforce,,1108524,79466L302,904170454
SBAC,SBA Communications,a,1034054,78410G104,111832892
SLB,Schlumberger,,87347,806857108,1388098568
STX,Seagate,,1137789,G7997R103,257162740
SEE,Sealed Air,,1012100,81211K100,155671666
SRE,Sempra Energy,,1032208,816851109,290474669
NOW,ServiceNow,,1373715,81762P102,191787912
SHW,Sherwin-Williams,,89800,824348106,91046914
SPG,Simon,a,1063761,828806109,305885681
SWKS,Skyworks,,4127,83088M102,166991045
SLG,SL Green Realty,,1040971,78440X887,74659750
SJM,Smucker,,91419,832696405,114050962
SNA,Snap-on,,91440,833034101,54437599
SO,Southern Company,,92122,842587107,1056128824
LUV,Southwest Airlines,,92380,844741108,568275687
SWK,Stanley Black & Decker,,93556,854502101,158399901
SBUX,Starbucks,,829224,855244109,1168823076
STT,State Street,,93751,857477103,352272937
STE,Steris,,1757898,G8473T100,84991481
SYK,Stryker,,310764,863667101,375603314
SIVB,SVB Financial,,719739,78486Q101,51674778
SYF,Synchrony,,1601712,87165B103,583746196
SNPS,Synopsys,,883241,871607107,151216391
SYY,Sysco,,96021,871829107,508216080
TMUS,T-Mobile,,1283699,872590104,1237055343
TROW,T. Rowe Price,,1113169,74144T108,227153408
TTWO,Take-Two Interactive,,946581,874054109,114215385
TPR,Tapestry,,1116132,876030107,276194582
TGT,Target,,27419,87612E106,500267016
TEL,TE Connectivity,,1385157,H84989104,329986113
FTI,TechnipFMC,,1681459,G87110105,448992994
TDY,Teledyne,,1094285,879360105,36817309
TFX,Teleflex,,96943,879369106,46487154
TER,Teradyne,,97210,880770102,165960323
TXN,Texas Instruments,,97476,882508104,916245239
TXT,Textron,,217346,883203101,227924102
TMO,Thermo Fisher Scientific,,97745,883556102,395605791
TIF,Tiffany & Co,,98246,886547108,121360963
TJX,TJX Companies,,109198,872540109,1198631756
TSCO,Tractor Supply,,916365,892356106,116054108
TT,Trane Technologies,,1466258,G8994E103,239325233
TDG,TransDigm,,1260221,893641100,54170451
TRV,Travelers,,86312,89417E109,253111789
TFC,Truist,,92230,89832Q109,1347606627
TWTR,Twitter,,1418091,90184L102,789143286
TYL,Tyler Technologies,,860731,902252105,40093357
TSN,Tyson,a,100493,902494103,294248545
USB,U.S. Bank,,36104,902973304,1506336980
UDR,UDR,,74208,902653104,295005116
ULTA,Ulta Beauty,,1403568,90384S303,56316316
UA,Under Armour,c,1336917,904311206,231395934
UAA,Under Armour,a,1336917,904311107,188504409
UNP,Union Pacific,,100885,907818108,678785245
UAL,United Airlines,,100517,910047109,290856389
UPS,United Parcel Service,b,1090727,911312106,706373816
URI,United Rentals,,1067701,911363109,72070805
UNH,UnitedHealth Group,,731766,91324P102,949669343
UHS,Universal Health Services,b,352915,913903100,77689547
UNM,Unum,,5513,91529Y106,203513038
VLO,Valero,,1035002,91913Y100,407743732
VAR,Varian Medical Systems,,203527,92220P105,90896762
VTR,Ventas,,740260,92276F100,373082534
VRSN,Verisign,,1014473,92343E102,114989334
VRSK,Verisk,,1442145,92345Y106,162341320
VZ,Verizon,,732712,92343V104,4138053227
VRTX,Vertex,,875320,92532F100,260149834
VFC,VF Corporation,,103379,918204108,389421262
V,Visa,a,1403161,92826C839,1686332238
VNO,Vornado Realty Trust,,899689,929042109,191150752
VMC,Vulcan Materials,,1396009,929160109,132444565
WAB,Wabtec,,943452,929740108,190296466
WBA,Walgreens Boots Alliance,,1618921,931427108,866651518
WMT,Walmart,,104169,931142103,2832507138
WM,Waste Management,,823768,94106L109,422320812
WAT,Waters,,1000697,941848103,61921222
WEC,WEC Energy Group,,783325,92939U106,315434531
WFC,Wells Fargo,,72971,949746101,4114538984
WELL,Welltower,,766704,95040Q104,417363503
WST,West Pharmaceutical Services,,105770,955306105,73793519
WDC,Western Digital,,106040,958102105,301166706
WU,Western Union,,1365135,959802109,410969477
WRK,WestRock,,1732845,96145D105,259531589
WY,Weyerhaeuser,,106535,962166104,746248230
WHR,Whirlpool,,106640,963320106,62265802
WMB,Williams,,107263,969457100,1213435326
WTW,Willis Towers Watson,,1140536,G96629103,128820653
WYNN,Wynn Resorts,,1174922,983134107,107854213
XEL,Xcel Energy,,72903,98389B100,525286427
XRX,Xerox,,108772,98421M106,213012314
XLNX,Xilinx,,743988,983919101,244247142
XYL,Xylem,,1524472,98419M100,179946197
YUM,Yum! Brands,,1041061,988498101,301264740
ZBRA,Zebra,a,877212,989207105,53279820
ZBH,Zimmer Biomet,,1136869,98956P102,206984802
ZION,Zions Bancorp,,109380,989701107,163943980
ZTS,Zoetis,,1555280,98978V103,475072991
