Symbol,Name,Class,CIK,CUSIP,shares_outstanding
MMM,3M,,66740,88579Y101,575203098
AOS,A. O. Smith,,91142,831865209,135381752
ABT,Abbott,,1800,002824100,1768755124
ABBV,AbbVie,,1551152,00287Y109,1477573865
ABMD,Abiomed,,815094,003654100,45002261
ACN,Accenture,a,1467373,G1151C101,662292157
ATVI,Activision Blizzard,,718877,00507V109,769946425
ADM,ADM,,7084,039483102,556471602
ADBE,Adobe,,796343,00724F101,481566167
ADP,ADP,,8670,053015103,430405325
AAP,Advance Auto Parts,,1158449,00751Y106,69170433
AES,AES,,874761,00130H105,664516362
AFL,Aflac,,4977,001055102,719055983
A,Agilent Technologies,,1090872,00846U101,309322337
AIG,AIG,,5272,026874784,865991556
APD,Air Products,,2969,009158106,220852711
AKAM,Akamai,,1086222,00971T101,162072555
ALK,Alaska Air Group,,766421,011659109,122698225
ALB,Albemarle,,915913,012653101,106266824
ARE,Alexandria,,1035443,015271109,125580341
ALXN,Alexion Pharmaceuticals,,899866,015351109,221036498
ALGN,Align,,1097149,016255101,78758556
ALLE,Allegion,,1579241,G0176J109,92339424
LNT,Alliant Energy,,352541,018802108,249429208
ALL,Allstate,,899051,020002101,314850452
GOOGL,Alphabet,a,1652044,02079K305,300010259
GOOG,Alphabet,c,1652044,02079K107,337409174
MO,Altria,,764180,02209S103,1858367646
AMZN,Amazon,,1018724,023135106,498531982
AMCR,Amcor,,1748790,G0250X107,1586939317
AMD,AMD,,2488,007903107,1170735378
AEE,Ameren,,1002910,023608102,246663932
AAL,American Airlines Group,,6201,02376R102,424024587
AEP,American Electric Power,,4904,025537101,495171278
AXP,American Express,,4962,025816109,805767208
AMT,American Tower,,1053507,03027X100,443164615
AWK,American Water,,1410636,030420103,181003515
AMP,Ameriprise Financial,,820027,03076C106,122714248
ABC,AmerisourceBergen,,1140859,03073E105,204300857
AME,Ametek,,1037868,031100100,229340428
AMGN,Amgen,,318154,031162100,588786457
APH,Amphenol,a,820313,032095101,296493742
ADI,Analog Devices,,6281,032654105,368350446
ANSS,Ansys,,1013462,03662Q105,85736681
ANTM,Anthem,,1156039,036752103,252180806
AON,Aon,a,315293,G0403H108,231284880
APA,Apache Corporation,,6769,037411105,377388187
AIV,Apartment Investment & Management,a,922864,03748R754,148896831
AAPL,Apple,,320193,037833100,4342473571
AMAT,Applied Materials,,6951,038222105,917021020
APTV,Aptiv,,1521332,G6095L109,255010511
ANET,Arista,,1596532,040413106,76010574
AIZ,Assurant,,1267238,04621X108,59722206
T,AT&T,,732717,00206R102,7144030848
ATO,Atmos Energy,,731802,049560105,122295619
ADSK,Autodesk,,769397,052769106,219449736
AZO,AutoZone,,866787,053332102,23353835
AVB,AvalonBay Communities,,915912,053484101,140700591
AVY,Avery Dennison,,8818,053611109,83322502
BKR,Baker Hughes,a,1701605,05722G100,654648209
BLL,Ball,,9389,058498106,325904709
BAC,Bank of America,,70858,060505104,8698395672
BBWI,Bath & Body Works,,701985,070830104,276718451
BAX,Baxter,,10456,071813109,508170939
BDX,Becton Dickinson,,10795,075887109,271769749
WRB,Berkley,,11544,084423102,180746801
BRK.B,Berkshire Hathaway,b,1067983,084670702,1389091686
BBY,Best Buy,,764478,086516101,257218203
BIO,Bio-Rad,a,12208,090572207,24693025
BIIB,Biogen,,875045,09062X103,166394666
BLK,BlackRock,,1364742,09247X101,154456908
BK,BNY Mellon,,1390777,064058100,885522275
BA,Boeing,,12927,097023105,564022174
BKNG,Booking Holdings,,1075531,09857L108,40988065
BWA,BorgWarner,,908255,099724106,206966948
BXP,Boston Properties,,1037540,101121101,155248696
BSX,Boston Scientific,,885725,101137107,1398263477
BMY,Bristol Myers Squibb,,14272,110122108,2262598896
AVGO,Broadcom,,1730168,11135F101,400606862
BR,Broadridge,,1383312,11133T103,114812603
BF.B,Brown–Forman,b,14693,115637209,309131863
CHRW,C.H. Robinson,,1043277,12541W209,134723110
CDNS,Cadence,,813672,127387108,279178362
CPB,Campbell's,,16732,134429109,301899767
COF,Capital One,,927628,14040H105,455340293
CAH,Cardinal Health,,721371,14149Y108,291916538
KMX,CarMax,,1170010,143130102,162583619
CCL,Carnival,,815097,143658300,531534298
CARR,Carrier,,1783180,14448C104,866158910
CAT,Caterpillar,,18230,149123101,542040861
CBOE,Cboe,,1374310,12503M108,109975641
CBRE,CBRE,a,1138118,12504L109,335022603
CDW,CDW,,1402057,12514G108,142537945
CE,Celanese,,1306830,150870103,118584930
CNC,Centene,,1071739,15135B101,581312143
CNP,CenterPoint Energy,,1130310,15189T107,502497810
CERN,Cerner,,804753,156782104,306466486
CF,CF Industries,,1324404,125269100,214681175
SCHW,Charles Schwab,,316709,808513105,1287000580
CHTR,Charter Communications,a,1091667,16119P108,206496203
CVX,Chevron,,93410,166764100,1867225572
CMG,Chipotle Mexican Grill,,1058090,169656105,27854200
CB,Chubb,,896159,H1467J104,451512062
CHD,Church & Dwight,,313927,171340102,245802570
CI,Cigna,,1739940,125523100,369765491
CINF,Cincinnati Financial,,20286,172062101,161478855
CTAS,Cintas,,723254,172908105,104046911
CSCO,Cisco,,858877,17275R102,4231486071
C,Citigroup,,831001,172967424,2082219322
CFG,Citizens,,759944,174610105,426922441
CTXS,Citrix,,877890,177376100,123059509
CLX,Clorox,,21076,189054109,125761220
CME,CME Group,a,1156375,12572Q105,358538711
CMS,CMS Energy,,811156,125896100,286033255
KO,Coca-Cola,,21344,191216100,4293253670
CTSH,Cognizant,a,1058290,192446102,543649405
CL,Colgate-Palmolive,,21665,194162103,856503477
CMCSA,Comcast,a,1166691,20030N101,4554527302
CMA,Comerica,,28412,200340107,139785149
ED,Con Edison,,1047862,209115104,333989556
CAG,Conagra Brands,,23217,205887102,487124127
CXO,Concho Resources,,1358071,20605P101,196702938
COP,ConocoPhillips,,1163165,20825C104,1072570282
STZ,Constellation Brands,a,16918,21036P108,167801569
COO,CooperCompanies,,711404,216648402,53331387
CPRT,Copart,,900075,217204106,234098563
GLW,Corning,,24741,219350105,761986587
CTVA,Corteva,,1755672,22052L104,748755819
COST,Costco,,909832,22160K105,441562544
CTRA,Coterra,,858470,127097103,398575510
COTY,Coty,a,1024305,222070203,762149259
CCI,Crown Castle,,1051470,22822V101,416748458
CSX,CSX,,277948,126408103,765605221
CMI,Cummins,,26172,231021106,147527728
CVS,CVS Health,,64803,126650100,1305996534
DHI,D.R. Horton,,882184,23331A109,364252051
DHR,Danaher,,313616,235851102,697031534
DRI,Darden,,940944,237194105,122494308
DVA,DaVita,,927066,23918K108,123136263
DE,Deere & Co.,,315189,244199105,313143098
DAL,Delta Air Lines,,27904,247361702,637873835
XRAY,Dentsply Sirona,,818479,24906P109,220181085
DVN,Devon,,1090012,25179M103,382759740
DXCM,DexCom,,1093557,252131107,92114652
FANG,Diamondback,,1539838,25278X109,158010603
DLR,Digital Realty,,1297996,253868103,236588938
DFS,Discover,,1393612,254709108,307109054
DISCA,Discovery,a,1437107,25470F104,159535279
DISCK,Discovery,c,1437107,25470F302,345388850
DISH,Dish,a,1001082,25470M109,285318624
DIS,Disney,,1744489,254687106,1805993743
DG,Dollar General,,29534,256677105,251884873
DLTR,Dollar Tree,,935703,256746108,236893964
D,Dominion Energy,,715957,25746U109,838893664
DPZ,Domino's,,1286681,25754A201,40456615
DOV,Dover,,29905,260003108,144028652
DOW,Dow,,1751788,260557103,740746615
DTE,DTE,,936340,233331107,192606252
DUK,Duke Energy,,1326160,26441C204,734325341
DRE,Duke Realty,,783280,264411505,368364843
DD,DuPont,,1666700,26614N102,736006128
DXC,DXC Technology,,1688568,23355L106,253736456
ETFC,E-Trade,,1015780,269246401,221333749
EMN,Eastman,,915389,277432100,135895343
ETN,Eaton,,1551182,G29183103,400223333
EBAY,eBay,,1065088,278642103,720139893
ECL,Ecolab,,31462,278865100,289184496
EIX,Edison International,,827052,281020107,362814079
EW,Edwards Lifesciences,,1099800,28176E108,207274995
EA,Electronic Arts,,712515,285512109,289135280
EMR,Emerson,,32604,291011104,597714729
ETR,Entergy,,65984,29364G103,200012033
EOG,EOG Resources,,821189,26875P101,582049300
EFX,Equifax,,33185,294429105,121361657
EQIX,Equinix,,1101239,29444U700,85691820
EQR,Equity Residential,,906107,29476L107,372065587
ESS,Essex,,920522,297178105,65770213
EL,Estée Lauder Companies,a,1001250,518439104,224044413
RE,Everest,,1095073,G3223R108,40280851
EVRG,Evergy,,1711269,30034W106,226701564
ES,Eversource,,72741,30040W108,334207138
EXC,Exelon,,1109357,30161N101,974406376
EXPE,Expedia Group,,1324424,30212P303,134465673
EXPD,Expeditors,,746515,302130109,167963458
EXR,Extra Space Storage,,1289490,30225T102,129316575
XOM,ExxonMobil,,34088,30231G102,4228277576
FFIV,F5,,1048695,315616102,60864030
FAST,Fastenal,,815556,311900104,573059176
FRT,Federal Realty,,34903,313745101,75640037
FDX,FedEx,,1048911,31428X106,261345620
FITB,Fifth Third Bank,,35527,316773100,711099118
FRC,First Republic,,1132979,33616C100,171397359
FE,FirstEnergy,,1031296,337932107,541736365
FIS,FIS,,1136893,31620M106,617107178
FISV,Fiserv,,798354,337738108,673803839
FLT,Fleetcor,,1175454,339041105,84421977
FLIR,FLIR Systems,,354908,302445101,132594102
FLS,Flowserve,,30625,34354P105,130445649
FMC,FMC,,37785,302491303,129443635
F,Ford,,37996,345370860,3902583814
FTNT,Fortinet,,1262039,34959E109,166615937
FTV,Fortive,,1659166,34959J108,336685464
FBHS,Fortune Brands,,1519751,34964C106,138467600
FOX,Fox Corporation,b,1754301,35137L204,261446268
FOXA,Fox Corporation,a,1754301,35137L105,343484783
BEN,Franklin Templeton,,38777,354613101,495721397
FCX,Freeport-McMoRan,,831259,35671D857,1451626898
AJG,Gallagher,,354190,363576109,189621000
GPS,Gap,,39911,364760108,371798083
GRMN,Garmin,,1121788,H2906T109,190899814
IT,Gartner,,749251,366651107,89149265
GE,GE,,40545,369604301,8746977666
GD,General Dynamics,,40533,369550108,286865286
GIS,General Mills,,40704,370334104,606908061
GPC,Genuine Parts,,40987,372460105,144743081
GILD,Gilead,,882095,375558103,1258361746
GPN,Global Payments,,1123360,37940X102,299337524
GL,Globe Life,,320335,37959E102,106907435
GM,GM,,1467858,37045V100,1430575755
GS,Goldman Sachs,,886982,38141G104,344345892
GWW,Grainger,,277135,384802104,53471075
HRB,H&R Block,,12659,093671105,192475292
HAL,Halliburton,,45012,406216101,877954926
HBI,Hanesbrands,,1359841,410345102,352327109
HIG,Hartford (The),,874766,416515104,358147946
HAS,Hasbro,,46080,418056107,136959645
HCA,HCA Healthcare,,860730,40412C101,337897348
PEAK,Healthpeak,,765880,42250P103,524579253
HSIC,Henry Schein,,1000228,806407102,142999403
HSY,Hershey's,,47111,427866108,147607274
HES,Hess,,4447,42809H107,307125944
HPE,Hewlett Packard Enterprise,,1645590,42824C109,1287107005
HLT,Hilton,,1585689,43300A203,277330213
HFC,HollyFrontier,,48039,436106108,161879196
HOLX,Hologic,,859737,436440101,259549766
HD,Home Depot,,354950,437076102,1074994977
HON,Honeywell,,773840,438516106,702010695
HRL,Hormel,,48465,440452100,538146732
HST,Host Hotels & Resorts,,1070750,44107P104,705408213
HWM,Howmet Aerospace,,4281,443201108,436018912
HPQ,HP,,47217,40434L105,1431124132
HUM,Humana,,49071,444859102,132204409
HII,Huntington Ingalls Industries,,1501585,446413106,40583103
HBAN,Huntington National Bank,,49196,446150104,1014272775
IBM,IBM,,51143,459200101,887902278
IEX,IDEX,,832101,45167R104,75640064
IDXX,Idexx Laboratories,,874716,45168D104,85077213
INFO,IHS Markit,,1598014,G47567105,398229428
ITW,Illinois Tool Works,,49826,452308109,315980923
ILMN,Illumina,,1110803,452327109,147000000
INCY,Incyte,,879169,45337C102,217161994
IR,Ingersoll Rand,,1699150,45687V106,305869350
INTC,Intel,,50863,458140100,4234417582
ICE,Intercontinental Exchange,,1571949,45866F104,549297914
IFF,International Flavors & Fragrances,,51253,459506101,106827045
IP,International Paper,,51434,460146103,392713932
IPG,Interpublic Group,,51644,460690100,389152123
INTU,Intuit,,896878,461202103,260622301
ISRG,Intuitive Surgical,,1035267,46120E602,116509760
IVZ,Invesco,,914208,G491BT108,458804135
IPGP,IPG Photonics,,1111928,44980X109,53042507
IQV,IQVIA,,1478242,46266C105,191317425
IRM,Iron Mountain,,1020569,46284V101,287677290
JBHT,J.B. Hunt,,728535,445658107,105479640
JKHY,Jack Henry & Associates,,779152,426281101,76648629
J,Jacobs,,52988,469814107,131009580
JNJ,Johnson & Johnson,,200406,478160104,2634635015
JCI,Johnson Controls,,833444,G51502105,744084166
JPM,JPMorgan Chase,,19617,46625H100,3047472105
JNPR,Juniper Networks,,1043604,48203R104,331020144
KSU,Kansas City Southern,,54480,485170302,95168297
K,Kellogg's,,55067,487836108,342675504
KEY,KeyCorp,,91576,493267108,973065515
KEYS,Keysight,,1601046,49338L103,187281342
KMB,Kimberly-Clark,,55785,494368103,340813475
KIM,Kimco Realty,,879101,49446R109,432372265
KMI,Kinder Morgan,,1506307,49456B101,2262738819
KLAC,KLA,,319201,482480100,155433887
KSS,Kohl's,,885639,500255104,155845434
KHC,Kraft Heinz,,1637459,500754106,1221686691
KR,Kroger,,56873,501044101,777893715
LHX,L3Harris,,202058,502431109,216391409
LH,LabCorp,,920148,50540R409,97252857
LRCX,Lam Research,,707549,512807108,145277181
LW,Lamb Weston,,1679273,513272104,146039430
LVS,Las Vegas Sands,,1300514,517834107,763716504
LEG,Leggett & Platt,,58492,524660107,132226883
LDOS,Leidos,,1336920,525327102,141810496
LEN,Lennar,a,920760,526057104,274617833
LLY,Lilly,,59478,532457108,956424625
LNC,Lincoln Financial,,59558,534187109,194163816
LIN,Linde,,1707925,G5494J103,527863173
LYV,Live Nation Entertainment,,1335258,538034109,214937230
LKQ,LKQ Corporation,,1065696,501889208,305421753
LMT,Lockheed Martin,,936468,539830109,280786443
L,Loews Corporation,,60086,540424108,283488891
LOW,Lowe's,,60667,548661107,754961082
LUMN,Lumen,,18926,550241103,1093684814
LYB,LyondellBasell,,1489393,N53745100,333642289
MTB,M&T Bank,,36270,55261F104,129018037
MRO,Marathon Oil,,101778,565849106,792571189
MPC,Marathon Petroleum,,1510295,56585A102,649933575
MKTX,MarketAxess,,1278021,57060D108,37914543
MAR,Marriott International,a,1048286,571903202,324237935
MMC,Marsh & McLennan,,62709,571748102,505277555
MLM,Martin Marietta,,916076,573284106,62224366
MAS,Masco,,62996,574599106,263988368
MA,Mastercard,a,1141391,57636Q104,993465592
MXIM,Maxim Integrated,,743316,57772K101,267173057
MKC,McCormick,nonvoting,63754,579780206,123739943
MCD,McDonald's,,63908,580135101,743587689
MCK,McKesson,,927653,58155Q103,165715974
MDT,Medtronic,,1613103,G5960L103,1340506962
MRK,Merck,,310158,58933Y105,2528292242
FB,Meta,a,1326801,30303M102,2404876283
MET,MetLife,,1099219,59156R108,910949514
MTD,Mettler Toledo,,1037646,592688105,23909949
MGM,MGM Resorts,,789570,552953101,492856136
MCHP,Microchip,,827054,595017104,242872601
MU,Micron,,723125,595112103,1112049934
MSFT,Microsoft,,789019,594918104,7589650896
MAA,Mid-America Apartments,,912595,59522J103,114314900
MHK,Mohawk Industries,,851968,608190104,71421214
TAP,Molson Coors,b,24545,60871R209,196409741
MDLZ,Mondelez International,a,1103982,609207105,1429094700
MNST,Monster Beverage,,865752,61174X109,531139435
MCO,Moody's,,1059556,615369105,187498333
MS,Morgan Stanley,,895421,617446448,1583792204
MOS,Mosaic,,1285785,61945C103,378929451
MSI,Motorola Solutions,,68505,620076307,170176513
MSCI,MSCI,,1408198,55354G100,83976740
MYL,Mylan N.V.,,1623613,N59465109,516635082
NDAQ,Nasdaq,,1120193,631103108,164434643
NTAP,NetApp,,1002047,64110D104,221440588
NFLX,Netflix,,1065280,64110L106,439769915
NWL,Newell Brands,,814453,651229106,423906896
NEM,Newmont,,1164727,651639106,804517396
NWS,News Corp,b,1564708,65249B208,199630240
NWSA,News Corp,a,1564708,65249B109,388780765
NEE,NextEra Energy,,753308,65339F101,489441980
NLSN,Nielsen,,1492633,G6518L108,356473812
NKE,Nike,b,320187,654106103,1240094560
NI,NiSource,,1111711,65473P105,382572940
NBL,Noble Energy,,72207,655044105,479685606
NSC,Norfolk Southern,,702165,655844108,256206880
NTRS,Northern Trust,,73124,665859104,208071963
NOC,Northrop Grumman,,1133421,666807102,166968184
NLOK,NortonLifeLock,,849399,668771108,593769346
NCLH,Norwegian Cruise Line Holdings,,1513761,G66721104,236315621
NOV,Nov,,1021860,62955J103,387637720
NRG,NRG Energy,,1013871,629377508,246024890
NUE,Nucor,,73309,670346105,301119114
NVDA,Nvidia,,1045810,67066G104,613483516
NVR,NVR,,906163,62944T105,3679446
ORLY,O'Reilly Automotive,,898173,67103H107,74561362
OXY,Occidental Petroleum,,797468,674599105,899713852
ODFL,Old Dominion,,878927,679580100,99679089
OMC,Omnicom Group,,29989,681919106,214879369
OKE,Oneok,,1039684,682680103,413707978
ORCL,Oracle,,1341439,68389X105,3135574484
OTIS,Otis,,1781335,68902V107,433079455
PCAR,Paccar,,75362,693718108,345942669
PKG,Packaging Corporation of America,,75677,695156109,94755937
VIAC,Paramount,b,813828,92556H206,562390751
PH,Parker,,76334,701094104,128219014
PAYX,Paychex,,723531,704326107,358728774
PAYC,Paycom,,1590955,70432V102,58646057
PYPL,PayPal,,1633917,70450Y103,1173620805
PNR,Pentair,,77360,G7S00T104,165753409
PBCT,People's United Financial,,1378946,712704105,428361902
PEP,PepsiCo,,77476,713448108,1388100060
PKI,PerkinElmer,,31791,714046109,111345020
PRGO,Perrigo,,1585364,G97822103,136228158
PFE,Pfizer,,78003,717081103,5551184243
PM,Philip Morris International,,1413329,718172109,1556777458
PSX,Phillips 66,,1534701,718546104,436720892
PNW,Pinnacle West,,764622,723484101,112471009
PXD,Pioneer Natural Resources,,1038357,723787107,165272824
PNC,PNC Financial Services,,713676,693475105,425345119
PPG,PPG Industries,,79879,693506107,235920636
PPL,PPL,,922224,69351T106,768436314
PFG,Principal,,1126328,74251V102,274097821
PG,Procter & Gamble,,80424,742718109,2475574594
PGR,Progressive,,80661,743315103,585297719
PLD,Prologis,,1045609,74340W103,738636313
PRU,Prudential,,1137774,744320102,395688888
PEG,PSEG,,788784,744573106,505442688
PSA,Public Storage,,1393311,74460D109,174778272
PHM,PulteGroup,,822416,745867101,268518168
PVH,PVH,,78239,693656100,70906272
QRVO,Qorvo,,1604778,74736K101,115102389
QCOM,Qualcomm,,804328,747525103,1130966255
PWR,Quanta,,1050915,74762E102,140147201
DGX,Quest Diagnostics,,1022079,74834L100,133672781
RL,Ralph Lauren,a,1037038,751212101,48290473
RJF,Raymond James,,720005,754730109,137941991
RTX,Raytheon Technologies,,101829,75513E101,866146427
O,Realty Income,,726728,756109104,339525638
REG,Regency Centers,,910606,758849103,168773736
REGN,Regeneron,,872589,75886F107,110166053
RF,Regions,,1281761,7591EP100,958591187
RSG,Republic Services,,1060391,760759100,318592598
RMD,ResMed,,943819,761152107,144652588
RHI,Robert Half,,315213,770323103,114780719
ROK,Rockwell Automation,,1024478,773903109,115827912
ROL,Rollins,,84839,775711104,327770316
ROP,Roper,,882835,776696106,105076408
ROST,Ross,,745732,778296103,355904258
RCL,Royal Caribbean Group,,884887,V7780T103,209178597
SPGI,S&P Global,,64040,78409V104,241696703
CRM,Salesforce,,1108524,79466L302,897000000
SBAC,SBA Communications,a,1034054,78410G104,111748461
SLB,Schlumberger,,87347,806857108,1387776670
STX,Seagate,,1137789,G7997R103,258018842
SEE,Sealed Air,,1012100,81211K100,155217006
SRE,Sempra Energy,,1032208,816851109,292419851
NOW,ServiceNow,,1373715,81762P102,190685000
SHW,Sherwin-Williams,,89800,824348106,90823795
SPG,Simon,a,1063761,828806109,305765734
SWKS,Skyworks,,4127,83088M102,167818138
SLG,SL Green Realty,,1040971,78440X887,77305910
SJM,Smucker,,91419,832696405,114039770
SNA,Snap-on,,91440,833034101,54432721
SO,Southern Company,,92122,842587107,1055926922
LUV,Southwest Airlines,,92380,844741108,511359062
SWK,Stanley Black & Decker,,93556,854502101,154093214
SBUX,Starbucks,,829224,855244109,1169664835
STT,State Street,,93751,857477103,352666514
STE,Steris,,1757898,G8473T100,84866204
SYK,Stryker,,310764,863667101,375365088
SIVB,SVB Financial,,719739,78486Q101,51550982
SYF,Synchrony,,1601712,87165B103,591042219
SNPS,Synopsys,,883241,871607107,150473982
SYY,Sysco,,96021,871829107,507794129
TMUS,T-Mobile,,1283699,872590104,1105277377
TROW,T. Rowe Price,,1113169,74144T108,230457155
TTWO,Take-Two Interactive,,946581,874054109,113747704
TPR,Tapestry,,1116132,876030107,276079345
TGT,Target,,27419,87612E106,500658594
TEL,TE Connectivity,,1385157,H84989104,331027605
FTI,TechnipFMC,,1681459,G87110105,447722797
TDY,Teledyne,,1094285,879360105,36652891
TFX,Teleflex,,96943,879369106,46399854
TXN,Texas Instruments,,97476,882508104,921823385
TXT,Textron,,217346,883203101,227623016
TMO,Thermo Fisher Scientific,,97745,883556102,394965132
TIF,Tiffany & Co,,98246,886547108,121239664
TJX,TJX Companies,,109198,872540109,1197783381
TSCO,Tractor Supply,,916365,892356106,116102088
TT,Trane Technologies,,1466258,G8994E103,239016821
TDG,TransDigm,,1260221,893641100,53949247
TRV,Travelers,,86312,89417E109,253400280
TFC,Truist,,92230,89832Q109,1345849814
TWTR,Twitter,,1418091,90184L102,783764799
TYL,Tyler Technologies,,860731,902252105,39613257
TSN,Tyson,a,100493,902494103,294308491
USB,U.S. Bank,,36104,902973304,1511871021
UDR,UDR,,74208,902653104,294766793
ULTA,Ulta Beauty,,1403568,90384S303,56309736
UAA,Under Armour,a,1336917,904311107,188402049
UA,Under Armour,c,1336917,904311206,230460799
UNP,Union Pacific,,100885,907818108,681301583
UAL,United Airlines,,100517,910047109,272141712
UPS,United Parcel Service,b,1090727,911312106,703484499
URI,United Rentals,,1067701,911363109,72765181
UNH,UnitedHealth Group,,731766,91324P102,948446279
UHS,Universal Health Services,b,352915,913903100,78290574
UNM,Unum,,5513,91529Y106,203233702
VLO,Valero,,1035002,91913Y100,408128708
VAR,Varian Medical Systems,,203527,92220P105,90762514
VTR,Ventas,,740260,92276F100,372975913
VRSN,Verisign,,1014473,92343E102,115765314
VRSK,Verisk,,1442145,92345Y106,162598575
VZ,Verizon,,732712,92343V104,4137959877
VRTX,Vertex,,875320,92532F100,259274293
VFC,VF Corporation,,103379,918204108,390529239
V,Visa,a,1403161,92826C839,1693156467
VNO,Vornado Realty Trust,,899689,929042109,191114296
VMC,Vulcan Materials,,1396009,929160109,132421513
WAB,Wabtec,,943452,929740108,190857663
WBA,Walgreens Boots Alliance,,1618921,931427108,877315155
WMT,Walmart,,104169,931142103,2832225416
WM,Waste Management,,823768,94106L109,423047398
WAT,Waters,,1000697,941848103,62007635
WEC,WEC Energy Group,,783325,92939U106,315434531
WFC,Wells Fargo,,72971,949746101,4099955757
WELL,Welltower,,766704,95040Q104,414965765
WST,West Pharmaceutical Services,,105770,955306105,73657218
WDC,Western Digital,,106040,958102105,299396616
WU,Western Union,,1365135,959802109,411809354
WRK,WestRock,,1732845,96145D105,259051244
WY,Weyerhaeuser,,106535,962166104,745977000
WHR,Whirlpool,,106640,963320106,62363535
WMB,Williams,,107263,969457100,1212890416
WTW,Willis Towers Watson,,1140536,G96629103,128728520
WYNN,Wynn Resorts,,1174922,983134107,107733198
XEL,Xcel Energy,,72903,98389B100,524968798
XRX,Xerox,,108772,98421M106,212884858
XLNX,Xilinx,,743988,983919101,245034228
XYL,Xylem,,1524472,98419M100,180055767
YUM,Yum! Brands,,1041061,988498101,300923526
ZBRA,Zebra,a,877212,989207105,53353589
ZBH,Zimmer Biomet,,1136869,98956P102,206650316
ZION,Zions Bancorp,,109380,989701107,164191530
ZTS,Zoetis,,1555280,98978V103,474938171
