Symbol,Name,Class,CIK,CUSIP,shares_outstanding
MMM,3M,,66740,88579Y101,595620706.0
AOS,A. O. Smith,,91142,831865209,146031365.0
ABT,Abbott,,1800,002824100,1740566367.0
ABBV,AbbVie,,1551152,00287Y109,1595795217.0
ACN,Accenture,a,1467373,G1151C101,
ATVI,Activision Blizzard,,718877,00507V109,755749855.0
AYI,Acuity Brands,,1144215,00508Y102,
ADM,ADM,,7084,039483102,560373503.0
ADBE,Adobe,,796343,00724F101,492857733.0
ADP,ADP,,8670,053015103,443797563.0
AAP,Advance Auto Parts,,1158449,00751Y106,73881679.0
AES,AES,,874761,00130H105,660385154.0
AET,Aetna,,1122304,00817Y108,326165217.0
AMG,Affiliated Managers Group,,1004434,008252108,55717657.0
AFL,Aflac,,4977,001055102,393743756.0
A,Agilent Technologies,,1090872,00846U101,322203119.0
AIG,AIG,,5272,026874784,900474048.0
APD,Air Products,,2969,009158106,218446384.0
AKAM,Akamai,,1086222,00971T101,170060302.0
ALK,Alaska Air Group,,766421,011659109,123212050.0
ALB,Albemarle,,915913,012653101,110487680.0
ARE,Alexandria,,1035443,015271109,95339544.0
ALXN,Alexion Pharmaceuticals,,899866,015351109,223350461.0
ALGN,Align,,1097149,016255101,80169362.0
ALLE,Allegion,,1579241,G0176J109,95027425.0
AGN,Allergan,,1578845,G0177J108,333113279.0
ADS,Alliance Data Systems,,1101215,018581108,55317567.0
LNT,Alliant Energy,,352541,018802108,231202817.0
ALL,Allstate,,899051,020002101,359321650.0
GOOGL,Alphabet,a,1652044,02079K305,298229270.0
GOOG,Alphabet,c,1652044,02079K107,349107767.0
MO,Altria,,764180,02209S103,1910149960.0
AMZN,Amazon,,1018724,023135106,481563908.0
AMD,AMD,,2488,007903107,959254121.0
AEE,Ameren,,1002910,023608102,242634798.0
AAL,American Airlines Group,,6201,02376R102,480462951.0
AEP,American Electric Power,,4904,025537101,491870978.0
AXP,American Express,,4962,025816109,871297168.0
AMT,American Tower,,1053507,03027X100,428939985.0
AWK,American Water,,1410636,030420103,178347785.0
AMP,Ameriprise Financial,,820027,03076C106,148394592.0
ABC,AmerisourceBergen,,1140859,03073E105,218440142.0
AME,Ametek,,1037868,031100100,231028792.0
AMGN,Amgen,,318154,031162100,726655141.0
APH,Amphenol,a,820313,032095101,305375893.0
APC,Anadarko Petroleum,,773910,032511107,549957682.0
ADI,Analog Devices,,6281,032654105,368327290.0
ANDV,Andeavor,,50104,03349M105,156345104.0
ANSS,Ansys,,1013462,03662Q105,84825759.0
ANTM,Anthem,,1156039,036752103,257470323.0
AON,Aon,a,315293,G0403H108,251324728.0
APA,Apache Corporation,,6769,037411105,380939673.0
AIV,Apartment Investment & Management,a,922864,03748R754,157023105.0
AAPL,Apple,,320193,037833100,5141446461.0
AMAT,Applied Materials,,6951,038222105,1061762481.0
APTV,Aptiv,,1521332,G6095L109,266148830.0
ARNC,Arconic,,4281,03965L100,471250882.0
AIZ,Assurant,,1267238,04621X108,53834807.0
T,AT&T,,732717,00206R102,6139347826.0
ADSK,Autodesk,,769397,052769106,219586989.0
AZO,AutoZone,,866787,053332102,
AVB,AvalonBay Communities,,915912,053484101,138086228.0
AVY,Avery Dennison,,8818,053611109,88148467.0
BKR,Baker Hughes,a,1701605,05722G100,428144090.0
BLL,Ball,,9389,058498106,350657136.0
BAC,Bank of America,,70858,060505104,10252141880.0
BBWI,Bath & Body Works,,701985,070830104,283238271.0
BAX,Baxter,,10456,071813109,544843920.0
BDX,Becton Dickinson,,10795,075887109,227870787.0
BRK.B,Berkshire Hathaway,b,1067983,084670702,1335966540.0
BBY,Best Buy,,764478,086516101,296898547.0
BIIB,Biogen,,875045,09062X103,211466507.0
BLK,BlackRock,,1364742,09247X101,160556868.0
BK,BNY Mellon,,1390777,064058100,1024121633.0
BA,Boeing,,12927,097023105,594639977.0
BWA,BorgWarner,,908255,099724106,210890185.0
BXP,Boston Properties,,1037540,101121101,154320566.0
BSX,Boston Scientific,,885725,101137107,1372823874.0
BHF,Brighthouse Financial,,1685040,10922N103,119773106.0
BMY,Bristol Myers Squibb,,14272,110122108,1636734769.0
AVGO,Broadcom,,1649338,Y09827109,408526522.0
BF.B,Brown–Forman,b,14693,115637209,215242732.0
CHRW,C.H. Robinson,,1043277,12541W209,139785596.0
CA,CA Technologies,,356028,12673P105,419192609.0
CDNS,Cadence,,813672,127387108,282336274.0
CPB,Campbell's,,16732,134429109,300538450.0
COF,Capital One,,927628,14040H105,484470611.0
CAH,Cardinal Health,,721371,14149Y108,318807775.0
KMX,CarMax,,1170010,143130102,182330049.0
CCL,Carnival,,815097,143658300,533668729.0
CAT,Caterpillar,,18230,149123101,594890529.0
CBOE,Cboe,,1374310,12503M108,113221136.0
CBRE,CBRE,a,1138118,12504L109,338929079.0
CBS,CBS Corp.,b,813828,124857202,363093105.0
CELG,Celgene,,816284,151020104,786048949.0
CNC,Centene,,1071739,15135B101,172552549.0
CNP,CenterPoint Energy,,1130310,15189T107,431030806.0
CERN,Cerner,,804753,156782104,332231977.0
CF,CF Industries,,1324404,125269100,233255728.0
SCHW,Charles Schwab,,316709,808513105,1340069628.0
CHTR,Charter Communications,a,1091667,16119P108,248711230.0
CHK,Chesapeake Energy,,895126,165167107,908565383.0
CVX,Chevron,,93410,166764100,1899326414.0
CMG,Chipotle Mexican Grill,,1058090,169656105,28297291.0
CB,Chubb,,896159,H1467J104,464497545.0
CHD,Church & Dwight,,313927,171340102,249778953.0
CI,CIGNA Corp.,,701221,125509109,247756263.0
XEC,Cimarex Energy,,1168054,171798101,95266861.0
CINF,Cincinnati Financial,,20286,172062101,164049436.0
CTAS,Cintas,,723254,172908105,
CSCO,Cisco,,858877,17275R102,4948885530.0
C,Citigroup,,831001,172967424,2644877587.0
CFG,Citizens,,759944,174610105,495104772.0
CTXS,Citrix,,877890,177376100,150932487.0
CLX,Clorox,,21076,189054109,128968663.0
CME,CME Group,a,1156375,12572Q105,340240939.0
CMS,CMS Energy,,811156,125896100,282075795.0
KO,Coca-Cola,,21344,191216100,4261890225.0
CTSH,Cognizant,a,1058290,192446102,589931067.0
CL,Colgate-Palmolive,,21665,194162103,878134970.0
CMCSA,Comcast,a,1166691,20030N101,4664757895.0
CMA,Comerica,,28412,200340107,174463351.0
ED,Con Edison,,1047862,209115104,308540341.0
CAG,Conagra Brands,,23217,205887102,405656040.0
CXO,Concho Resources,,1358071,20605P101,148701529.0
STZ,Constellation Brands,a,16918,21036P108,
COO,CooperCompanies,,711404,216648402,48905846.0
CPRT,Copart,,900075,217204106,230799017.0
GLW,Corning,,24741,219350105,874307622.0
COST,Costco,,909832,22160K105,
CTRA,Coterra,,858470,127097103,462504291.0
COTY,Coty,a,1024305,222070203,749140654.0
BCR,CR Bard,,9892,067383109,72889971.0
CCI,Crown Castle,,1051470,22822V101,406272112.0
CSRA,CSRA,,1646383,12650T104,163664719.0
CSX,CSX,,277948,126408103,893936016.0
CMI,Cummins,,26172,231021106,166003859.0
CVS,CVS Health,,64803,126650100,1014248619.0
DHI,D.R. Horton,,882184,23331A109,374768259.0
DHR,Danaher,,313616,235851102,695464430.0
DRI,Darden,,940944,237194105,123651812.0
DVA,DaVita,,927066,23918K108,186121428.0
DE,Deere & Co.,,315189,244199105,321940653.0
DAL,Delta Air Lines,,27904,247361702,713093324.0
XRAY,Dentsply Sirona,,818479,24906P109,229626715.0
DVN,Devon,,1090012,25179M103,525520879.0
DLR,Digital Realty,,1297996,253868103,188241918.0
DFS,Discover,,1393612,254709108,366141034.0
DISCK,Discovery,c,1437107,25470F302,218534775.0
DISCA,Discovery,a,1437107,25470F104,153981729.0
DISH,Dish,a,1001082,25470M109,227838057.0
DG,Dollar General,,29534,256677105,272653502.0
DLTR,Dollar Tree,,935703,256746108,236957563.0
D,Dominion Energy,,715957,25746U109,643384566.0
DOV,Dover,,29905,260003108,155782973.0
DPS,Dr Pepper Snapple Group,,1418135,26138E109,180856990.0
DTE,DTE,,936340,233331107,179390321.0
DUK,Duke Energy,,1326160,26441C204,699975339.0
DRE,Duke Realty,,783280,264411505,356017252.0
DWDP,DuPont,,1666700,26078J100,
DXC,DXC Technology,,1688568,23355L106,285101258.0
ETFC,E-Trade,,1015780,269246401,271416327.0
EMN,Eastman,,915389,277432100,143746841.0
ETN,Eaton,,1551182,G29183103,440645652.0
EBAY,eBay,,1065088,278642103,1049380530.0
ECL,Ecolab,,31462,278865100,288919381.0
EIX,Edison International,,827052,281020107,325811206.0
EW,Edwards Lifesciences,,1099800,28176E108,211498081.0
EA,Electronic Arts,,712515,285512109,308228531.0
EMR,Emerson,,32604,291011104,641193673.0
ETR,Entergy,,65984,29364G103,179997011.0
EVHC,Envision Healthcare,,1678531,29414D100,120926835.0
EOG,EOG Resources,,821189,26875P101,577995359.0
EQT,EQT,,33213,26884L109,173342826.0
EFX,Equifax,,33185,294429105,120164651.0
EQIX,Equinix,,1101239,29444U700,78125877.0
EQR,Equity Residential,,906107,29476L107,367432007.0
ESS,Essex,,920522,297178105,66021595.0
EL,Estée Lauder Companies,a,1001250,518439104,224579108.0
RE,Everest,,1095073,G3223R108,41067565.0
ES,Eversource,,72741,30040W108,316885808.0
EXC,Exelon,,1109357,30161N101,960844162.0
EXPE,Expedia Group,,1324424,30212P303,139562939.0
EXPD,Expeditors,,746515,302130109,178870233.0
ESRX,Express Scripts,,1532063,30219G108,566494478.0
EXR,Extra Space Storage,,1289490,30225T102,126005128.0
XOM,ExxonMobil,,34088,30231G102,4237106074.0
FFIV,F5,,1048695,315616102,62907832.0
FAST,Fastenal,,815556,311900104,287461426.0
FRT,Federal Realty,,34903,313745101,72457124.0
FDX,FedEx,,1048911,31428X106,268116475.0
FITB,Fifth Third Bank,,35527,316773100,716414160.0
FE,FirstEnergy,,1031296,337932107,444851986.0
FIS,FIS,,1136893,31620M106,333362224.0
FISV,Fiserv,,798354,337738108,209019237.0
FLIR,FLIR Systems,,354908,302445101,138286367.0
FLS,Flowserve,,30625,34354P105,130635758.0
FLR,Fluor Corporation,,1124198,343412102,139882473.0
FMC,FMC,,37785,302491303,134260332.0
FL,Foot Locker,,850209,344849104,123159974.0
F,Ford,,37996,345370860,3901331191.0
FTV,Fortive,,1659166,34959J108,347454558.0
FBHS,Fortune Brands,,1519751,34964C106,152310793.0
BEN,Franklin Templeton,,38777,354613101,555098100.0
FCX,Freeport-McMoRan,,831259,35671D857,1447492133.0
AJG,Gallagher,,354190,363576109,180792097.0
GPS,Gap,,39911,364760108,390600660.0
GRMN,Garmin,,1121788,H2906T109,198077418.0
IT,Gartner,,749251,366651107,90632624.0
GE,GE,,40545,369604301,8671931315.0
GD,General Dynamics,,40533,369550108,298602199.0
GIS,General Mills,,40704,370334104,568465267.0
GPC,Genuine Parts,,40987,372460105,146615860.0
GGP,GGP,,1496048,36174X101,923480790.0
GILD,Gilead,,882095,375558103,1306149768.0
GPN,Global Payments,,1123360,37940X102,156735788.0
GL,Globe Life,,320335,37959E102,115750653.0
GM,GM,,1467858,37045V100,1427607697.0
GS,Goldman Sachs,,886982,38141G104,379433860.0
GWW,Grainger,,277135,384802104,56990878.0
HRB,H&R Block,,12659,093671105,209062811.0
HAL,Halliburton,,45012,406216101,872322712.0
HBI,Hanesbrands,,1359841,410345102,364551750.0
HOG,Harley-Davidson,,793952,412822108,
HRS,Harris Corporation,,202058,413875105,119450474.0
HIG,Hartford (The),,874766,416515104,358801492.0
HAS,Hasbro,,46080,418056107,124624882.0
HCA,HCA Healthcare,,860730,40412C101,356555873.0
PEAK,Healthpeak,,765880,42250P103,469063740.0
HP,Helmerich & Payne,,46765,423452101,108595664.0
HSIC,Henry Schein,,1000228,806407102,
HSY,Hershey's,,47111,427866108,150460544.0
HES,Hess,,4447,42809H107,317754998.0
HPE,Hewlett Packard Enterprise,,1645590,42824C109,1611312748.0
HLT,Hilton,,1585689,43300A203,320877750.0
HOLX,Hologic,,859737,436440101,277762192.0
HD,Home Depot,,354950,437076102,1173343919.0
HON,Honeywell,,773840,438516106,761809146.0
HRL,Hormel,,48465,440452100,528267398.0
HST,Host Hotels & Resorts,,1070750,44107P104,740076096.0
HPQ,HP,,47217,40434L105,1657741379.0
HUM,Humana,,49071,444859102,142878108.0
HBAN,Huntington National Bank,,49196,446150104,1081044903.0
IBM,IBM,,51143,459200101,925858214.0
IDXX,Idexx Laboratories,,874716,45168D104,87234400.0
INFO,IHS Markit,,1598014,G47567105,398636840.0
ITW,Illinois Tool Works,,49826,452308109,342615837.0
ILMN,Illumina,,1110803,452327109,146000000.0
INCY,Incyte,,879169,45337C102,209530276.0
INTC,Intel,,50863,458140100,4680208791.0
ICE,Intercontinental Exchange,,1571949,45866F104,586245125.0
IFF,International Flavors & Fragrances,,51253,459506101,78976771.0
IP,International Paper,,51434,460146103,412924174.0
IPG,Interpublic Group,,51644,460690100,389451373.0
INTU,Intuit,,896878,461202103,255265730.0
ISRG,Intuitive Surgical,,1035267,46120E602,97233074.0
IVZ,Invesco,,914208,G491BT108,407076499.0
IQV,IQVIA,,1478242,46266C105,212803001.0
IRM,Iron Mountain,,1020569,46284V101,266349465.0
JBHT,J.B. Hunt,,728535,445658107,109748455.0
J,Jacobs,,52988,469814107,120406848.0
JEF,Jefferies Financial Group,,96223,47233W109,356948058.0
JNJ,Johnson & Johnson,,200406,478160104,2685744566.0
JCI,Johnson Controls,,833444,G51502105,927246718.0
JPM,JPMorgan Chase,,19617,46625H100,3470260781.0
JNPR,Juniper Networks,,1043604,48203R104,376997616.0
KSU,Kansas City Southern,,54480,485170302,103832051.0
K,Kellogg's,,55067,487836108,345364909.0
KEY,KeyCorp,,91576,493267108,1079630200.0
KMB,Kimberly-Clark,,55785,494368103,352049231.0
KIM,Kimco Realty,,879101,49446R109,425650218.0
KMI,Kinder Morgan,,1506307,49456B101,2233236878.0
KLAC,KLA,,319201,482480100,156728290.0
KSS,Kohl's,,885639,500255104,168365000.0
KHC,Kraft Heinz,,1637459,500754106,1218398773.0
KR,Kroger,,56873,501044101,887773521.0
LLL,L3 Technologies,,1039101,502413107,78159668.0
LH,LabCorp,,920148,50540R409,101800000.0
LRCX,Lam Research,,707549,512807108,
LEG,Leggett & Platt,,58492,524660107,131894495.0
LEN,Lennar,a,920760,526057104,
LLY,Lilly,,59478,532457108,1101068808.0
LNC,Lincoln Financial,,59558,534187109,219661455.0
LKQ,LKQ Corporation,,1065696,501889208,309001896.0
LMT,Lockheed Martin,,936468,539830109,286687268.0
L,Loews Corporation,,60086,540424108,336624249.0
LOW,Lowe's,,60667,548661107,831873230.0
LUMN,Lumen,,18926,550241103,888805394.0
LYB,LyondellBasell,,1489393,N53745100,394829420.0
MTB,M&T Bank,,36270,55261F104,151008081.0
MAC,Macerich,,912242,554382101,141015241.0
M,Macy's,,794367,55616P104,304562826.0
MRO,Marathon Oil,,101778,565849106,849723136.0
MPC,Marathon Petroleum,,1510295,56585A102,493842255.0
MAR,Marriott International,a,1048286,571903202,366857074.0
MMC,Marsh & McLennan,,62709,571748102,510969536.0
MLM,Martin Marietta,,916076,573284106,62853877.0
MAS,Masco,,62996,574599106,314609079.0
MA,Mastercard,a,1141391,57636Q104,1045204645.0
MAT,Mattel,,63276,577081102,343562342.0
MKC,McCormick,nonvoting,63754,579780206,120133841.0
MCD,McDonald's,,63908,580135101,797324838.0
MCK,McKesson,,927653,58155Q103,208493872.0
MDT,Medtronic,,1613103,G5960L103,1354218946.0
MRK,Merck,,310158,58933Y105,2725451619.0
FB,Meta,a,1326801,30303M102,2380222395.0
MET,MetLife,,1099219,59156R108,1055494738.0
MTD,Mettler Toledo,,1037646,592688105,25580090.0
MGM,MGM Resorts,,789570,552953101,569759812.0
KORS,Michael Kors,,1530721,G60754101,151914243.0
MCHP,Microchip,,827054,595017104,233551040.0
MU,Micron,,723125,595112103,
MSFT,Microsoft,,789019,594918104,7711389324.0
MAA,Mid-America Apartments,,912595,59522J103,113621928.0
MHK,Mohawk Industries,,851968,608190104,74338177.0
TAP,Molson Coors,b,24545,60871R209,195216597.0
MDLZ,Mondelez International,a,1103982,609207105,1498465931.0
MON,Monsanto,,1110783,61166W101,
MNST,Monster Beverage,,865752,61174X109,565283726.0
MCO,Moody's,,1059556,615369105,191098913.0
MS,Morgan Stanley,,895421,617446448,1817875345.0
MOS,Mosaic,,1285785,61945C103,351049649.0
MSI,Motorola Solutions,,68505,620076307,162006986.0
MYL,Mylan N.V.,,1623613,N59465109,536376482.0
NDAQ,Nasdaq,,1120193,631103108,166399745.0
NAVI,Navient,,1593538,63938C108,263132768.0
NTAP,NetApp,,1002047,64110D104,268323573.0
NFLX,Netflix,,1065280,64110L106,432720462.0
NWL,Newell Brands,,814453,651229106,490100000.0
NFX,Newfield Exploration,,912750,651290108,199529879.0
NEM,Newmont,,1164727,651639106,533322646.0
NWS,News Corp,b,1564708,65249B208,199630240.0
NWSA,News Corp,a,1564708,65249B109,382718724.0
NEE,NextEra Energy,,753308,65339F101,470384937.0
NLSN,Nielsen,,1492633,G6518L108,356172450.0
NKE,Nike,b,320187,654106103,
NI,NiSource,,1111711,65473P105,333912812.0
NBL,Noble Energy,,72207,655044105,486606607.0
JWN,Nordstrom,,702165,655664100,286170864.0
NSC,Norfolk Southern,,702165,655844108,286170864.0
NTRS,Northern Trust,,73124,665859104,227432702.0
NOC,Northrop Grumman,,1133421,666807102,174082163.0
NLOK,NortonLifeLock,,849399,668771108,617772480.0
NCLH,Norwegian Cruise Line Holdings,,1513761,G66721104,228358976.0
NOV,Nov,,1021860,62955J103,380033666.0
NRG,NRG Energy,,1013871,629377508,316578805.0
NUE,Nucor,,73309,670346105,317933259.0
NVDA,Nvidia,,1045810,67066G104,602698661.0
ORLY,O'Reilly Automotive,,898173,67103H107,86045923.0
OXY,Occidental Petroleum,,797468,674599105,765238039.0
OMC,Omnicom Group,,29989,681919106,230564661.0
OKE,Oneok,,1039684,682680103,382532485.0
ORCL,Oracle,,1341439,68389X105,4166436318.0
PCAR,Paccar,,75362,693718108,351528890.0
PCG,Pacific Gas & Electric Company,,1004980,69331C108,514001451.0
PKG,Packaging Corporation of America,,75677,695156109,94350825.0
PH,Parker,,76334,701094104,133224481.0
PDCO,Patterson Companies,,891024,703395103,95429533.0
PAYX,Paychex,,723531,704326107,
PYPL,PayPal,,1633917,70450Y103,1202014218.0
PNR,Pentair,,77360,G7S00T104,181596106.0
PBCT,People's United Financial,,1378946,712704105,345666548.0
PEP,PepsiCo,,77476,713448108,1422109492.0
PKI,PerkinElmer,,31791,714046109,110221271.0
PRGO,Perrigo,,1585364,G97822103,140860175.0
PFE,Pfizer,,78003,717081103,5955129141.0
PM,Philip Morris International,,1413329,718172109,1553198769.0
PSX,Phillips 66,,1534701,718546104,506792338.0
PNW,Pinnacle West,,764622,723484101,111698087.0
PXD,Pioneer Natural Resources,,1038357,723787107,170142938.0
PNC,PNC Financial Services,,713676,693475105,476586957.0
PPG,PPG Industries,,79879,693506107,254497708.0
PPL,PPL,,922224,69351T106,687710710.0
PX,Praxair Inc.,,884905,74005P104,286302286.0
PCLN,Priceline.com,,1075531,741503403,48869253.0
PFG,Principal,,1126328,74251V102,288813541.0
PG,Procter & Gamble,,80424,742718109,2537172115.0
PGR,Progressive,,80661,743315103,581627642.0
PLD,Prologis,,1045609,74340W103,532020774.0
PRU,Prudential,,1137774,744320102,425043478.0
PEG,PSEG,,788784,744573106,506009350.0
PSA,Public Storage,,1393311,74460D109,174028667.0
PHM,PulteGroup,,822416,745867101,295668980.0
PVH,PVH,,78239,693656100,77242021.0
QRVO,Qorvo,,1604778,74736K101,127181332.0
QCOM,Qualcomm,,804328,747525103,
PWR,Quanta,,1050915,74762E102,153413739.0
DGX,Quest Diagnostics,,1022079,74834L100,136314593.0
RL,Ralph Lauren,a,1037038,751212101,55389558.0
RRC,Range Resources,,315852,75281A109,248137305.0
RJF,Raymond James,,720005,754730109,144302258.0
RTN,Raytheon Company,,1047122,755111507,289393461.0
RTX,Raytheon Technologies,,101829,75513E101,798572126.0
O,Realty Income,,726728,756109104,280090876.0
RHT,Red Hat,,1087423,756577102,176947183.0
REG,Regency Centers,,910606,758849103,170108061.0
REGN,Regeneron,,872589,75886F107,105462557.0
RF,Regions,,1281761,7591EP100,1173868686.0
RSG,Republic Services,,1060391,760759100,334923727.0
RMD,ResMed,,943819,761152107,141982902.0
RHI,Robert Half,,315213,770323103,125640053.0
ROK,Rockwell Automation,,1024478,773903109,128465522.0
COL,Rockwell Collins,,1137411,774341101,162766037.0
ROP,Roper,,882835,776696106,102318331.0
ROST,Ross,,745732,778296103,383907329.0
RCL,Royal Caribbean Group,,884887,V7780T103,214422457.0
SPGI,S&P Global,,64040,78409V104,255461538.0
CRM,Salesforce,,1108524,79466L302,721047826.0
SBAC,SBA Communications,a,1034054,78410G104,118390217.0
SCG,SCANA,,754737,80589M102,142720832.0
SLB,Schlumberger,,87347,806857108,1385253673.0
SNI,Scripps Networks Interactive,a,1430602,811065101,96029356.0
STX,Seagate,,1137789,G7997R103,290031348.0
SEE,Sealed Air,,1012100,81211K100,183741129.0
SRE,Sempra Energy,,1032208,816851109,251220641.0
SHW,Sherwin-Williams,,89800,824348106,93512788.0
SIG,Signet Jewelers,,832988,G81276100,60481111.0
SPG,Simon,a,1063761,828806109,310852195.0
SWKS,Skyworks,,4127,83088M102,183371374.0
SLG,SL Green Realty,,1040971,78440X887,98554214.0
SJM,Smucker,,91419,832696405,113590229.0
SNA,Snap-on,,91440,833034101,57095998.0
SO,Southern Company,,92122,842587107,1003582542.0
LUV,Southwest Airlines,,92380,844741108,595077237.0
SWK,Stanley Black & Decker,,93556,854502101,153309314.0
SBUX,Starbucks,,829224,855244109,1431160377.0
STT,State Street,,93751,857477103,371921457.0
SRCL,Stericycle,,861878,858912108,85360101.0
SYK,Stryker,,310764,863667101,374235736.0
STI,SunTrust Banks,,750556,867914103,477390677.0
SYF,Synchrony,,1601712,87165B103,785952535.0
SNPS,Synopsys,,883241,871607107,149662662.0
SYY,Sysco,,96021,871829107,522573085.0
TROW,T. Rowe Price,,1113169,74144T108,241796332.0
TPR,Tapestry,,1116132,876030107,283778392.0
TGT,Target,,27419,87612E106,544916834.0
TEL,TE Connectivity,,1385157,H84989104,352282453.0
FTI,TechnipFMC,,1681459,G87110105,466712116.0
TXN,Texas Instruments,,97476,882508104,986790821.0
TXT,Textron,,217346,883203101,263619329.0
GT,The Goodyear Tire & Rubber Company,,42582,382550101,246386199.0
DIS,The Walt Disney Company,,1001039,254687106,1525159165.0
TMO,Thermo Fisher Scientific,,97745,883556102,400875842.0
TIF,Tiffany & Co,,98246,886547108,124359078.0
TWX,Time Warner,,1105705,887317303,778395083.0
TJX,TJX Companies,,109198,872540109,633568223.0
TSCO,Tractor Supply,,916365,892356106,125924980.0
TT,Trane Technologies,,1466258,G8994E103,250452483.0
TDG,TransDigm,,1260221,893641100,51940636.0
TRV,Travelers,,86312,89417E109,274116422.0
TRIP,TripAdvisor,,1526520,896945201,126033424.0
TFC,Truist,,92230,89832Q109,789129437.0
TSS,TSYS,,721683,891906109,183982504.0
FOXA,Twenty-First Century Fox,a,1308161,90130A101,1053409818.0
FOX,Twenty-First Century Fox,b,1308161,90130A200,798520953.0
TSN,Tyson,a,100493,902494103,295651470.0
USB,U.S. Bank,,36104,902973304,1664109932.0
UDR,UDR,,74208,902653104,267697616.0
ULTA,Ulta Beauty,,1403568,90384S303,61276511.0
UAA,Under Armour,a,1336917,904311107,185068051.0
UA,Under Armour,c,1336917,904311206,221932995.0
UNP,Union Pacific,,100885,907818108,790000833.0
UAL,United Airlines,,100517,910047109,297379048.0
UPS,United Parcel Service,b,1090727,911312106,687523917.0
URI,United Rentals,,1067701,911363109,84568140.0
UNH,UnitedHealth Group,,731766,91324P102,968299614.0
UHS,Universal Health Services,b,352915,913903100,87890673.0
UNM,Unum,,5513,91529Y106,224748389.0
VLO,Valero,,1035002,91913Y100,439001395.0
VAR,Varian Medical Systems,,203527,92220P105,91700979.0
VTR,Ventas,,740260,92276F100,356159941.0
VRSN,Verisign,,1014473,92343E102,98881775.0
VRSK,Verisk,,1442145,92345Y106,164650036.0
VZ,Verizon,,732712,92343V104,4079440478.0
VRTX,Vertex,,875320,92532F100,252721929.0
VFC,VF Corporation,,103379,918204108,394662215.0
VIAB,Viacom,b,1339947,92553P201,352789121.0
V,Visa,a,1403161,92826C839,1819077410.0
VNO,Vornado Realty Trust,,899689,929042109,189873371.0
VMC,Vulcan Materials,,1396009,929160109,132281183.0
WBA,Walgreens Boots Alliance,,1618921,931427108,
WMT,Walmart,,104169,931142103,2978838315.0
WM,Waste Management,,823768,94106L109,435495203.0
WAT,Waters,,1000697,941848103,79622417.0
WEC,WEC Energy Group,,783325,92939U106,315575572.0
WFC,Wells Fargo,,72971,949746101,4935599503.0
WELL,Welltower,,766704,95040Q104,369922882.0
WDC,Western Digital,,106040,958102105,295402785.0
WU,Western Union,,1365135,959802109,460928057.0
WRK,WestRock,,1636023,96145D105,254395183.0
WY,Weyerhaeuser,,106535,962166104,754331278.0
WHR,Whirlpool,,106640,963320106,72120479.0
WMB,Williams,,107263,969457100,826713956.0
WTW,Willis Towers Watson,,1140536,G96629103,132845893.0
WYN,Wyndham Worldwide,,1361658,98310W108,101342108.0
WYNN,Wynn Resorts,,1174922,983134107,102707238.0
XEL,Xcel Energy,,72903,98389B100,507762881.0
XRX,Xerox,,108772,98421M106,254581583.0
XLNX,Xilinx,,743988,983919101,250591140.0
XL,XL Group,,875159,G98294104,256706925.0
XYL,Xylem,,1524472,98419M100,179590298.0
YUM,Yum! Brands,,1041061,988498101,339784185.0
ZBH,Zimmer Biomet,,1136869,98956P102,202384890.0
ZION,Zions Bancorp,,109380,989701107,200588441.0
ZTS,Zoetis,,1555280,98978V103,487867450.0
