Symbol,Name,Class,CIK,CUSIP,shares_outstanding
MMM,3M,,66740,88579Y101,572440566
AOS,A. O. Smith,,91142,831865209,132005079
ABT,Abbott,,1800,002824100,1764732270
ABBV,AbbVie,,1551152,00287Y109,1768468648
ABMD,Abiomed,,815094,003654100,45510799
ACN,Accenture,a,1467373,G1151C101,659429701
ATVI,Activision Blizzard,,718877,00507V109,779084321
ADM,ADM,,7084,039483102,561019072
ADBE,Adobe,,796343,00724F101,472249107
ADP,ADP,,8670,053015103,420438166
AAP,Advance Auto Parts,,1158449,00751Y106,61699038
AES,AES,,874761,00130H105,667069558
AFL,Aflac,,4977,001055102,654527812
A,Agilent Technologies,,1090872,00846U101,301475186
AIG,AIG,,5272,026874784,821036558
APD,Air Products,,2969,009158106,221713173
AKAM,Akamai,,1086222,00971T101,161375192
ALK,Alaska Air Group,,766421,011659109,125707572
ALB,Albemarle,,915913,012653101,117011921
ARE,Alexandria,,1035443,015271109,159122619
ALGN,Align,,1097149,016255101,78821799
ALLE,Allegion,,1579241,G0176J109,88765638
LNT,Alliant Energy,,352541,018802108,250448009
ALL,Allstate,,899051,020002101,281066053
GOOGL,Alphabet,a,1652044,02079K305,300769435
GOOG,Alphabet,c,1652044,02079K107,316196170
MO,Altria,,764180,02209S103,1825183651
AMZN,Amazon,,1018724,023135106,508376927
AMCR,Amcor,,1748790,G0250X107,1520777497
AMD,AMD,,2488,007903107,1201761625
AEE,Ameren,,1002910,023608102,257684411
AAL,American Airlines Group,,6201,02376R102,648507103
AEP,American Electric Power,,4904,025537101,504203259
AXP,American Express,,4962,025816109,764281168
AMT,American Tower,,1053507,03027X100,455690819
AWK,American Water,,1410636,030420103,181650800
AMP,Ameriprise Financial,,820027,03076C106,111217340
ABC,AmerisourceBergen,,1140859,03073E105,208788187
AME,Ametek,,1037868,031100100,231572985
AMGN,Amgen,,318154,031162100,559559283
APH,Amphenol,a,820313,032095101,598638909
ADI,Analog Devices,,6281,032654105,523979594
ANSS,Ansys,,1013462,03662Q105,87240195
ANTM,Anthem,,1156039,036752103,241745089
AON,Aon,a,315293,G0403H108,216739186
APA,APA Corporation,,1841666,03743Q108,352514772
AAPL,Apple,,320193,037833100,16333774406
AMAT,Applied Materials,,6951,038222105,886505950
APTV,Aptiv,,1521332,G6095L109,270514140
ANET,Arista,,1596532,040413106,304696000
AIZ,Assurant,,1267238,04621X108,55904947
T,AT&T,,732717,00206R102,7142117618
ATO,Atmos Energy,,731802,049560105,134242908
ADSK,Autodesk,,769397,052769106,219173784
AZO,AutoZone,,866787,053332102,20461752
AVB,AvalonBay Communities,,915912,053484101,139748549
AVY,Avery Dennison,,8818,053611109,82571475
BKR,Baker Hughes,a,1701605,05722G100,925066679
BLL,Ball,,9389,058498106,322513944
BAC,Bank of America,,70858,060505104,8120368881
BBWI,Bath & Body Works,,701985,070830104,251631161
BAX,Baxter,,10456,071813109,501791605
BDX,Becton Dickinson,,10795,075887109,284758822
WRB,Berkley,,11544,084423102,176725081
BRK.B,Berkshire Hathaway,b,1067983,084670702,1296341262
BBY,Best Buy,,764478,086516101,236326030
BIO,Bio-Rad,a,12208,090572207,24851521
TECH,Bio-Techne,,842023,09073M104,39290873
BIIB,Biogen,,875045,09062X103,146940314
BLK,BlackRock,,1364742,09247X101,151998844
BK,BNY Mellon,,1390777,064058100,810043089
BA,Boeing,,12927,097023105,584223582
BKNG,Booking Holdings,,1075531,09857L108,40963037
BWA,BorgWarner,,908255,099724106,239889484
BXP,Boston Properties,,1037540,101121101,156468687
BSX,Boston Scientific,,885725,101137107,1426135014
BMY,Bristol Myers Squibb,,14272,110122108,2190339915
AVGO,Broadcom,,1730168,11135F101,411157977
BR,Broadridge,,1383312,11133T103,116712060
BRO,Brown & Brown,,79282,115236101,282306659
BF.B,Brown–Forman,b,14693,115637209,309760394
CHRW,C.H. Robinson,,1043277,12541W209,129308088
CDNS,Cadence,,813672,127387108,277278738
CZR,Caesars Entertainment,,1590895,12769G100,213969211
CPB,Campbell's,,16732,134429109,301727045
COF,Capital One,,927628,14040H105,417732914
CAH,Cardinal Health,,721371,14149Y108,278705430
KMX,CarMax,,1170010,143130102,161684525
CCL,Carnival,,815097,143658300,985705377
CARR,Carrier,,1783180,14448C104,858794300
CTLT,Catalent,,1596783,148806102,176842421
CAT,Caterpillar,,18230,149123101,535942980
CBOE,Cboe,,1374310,12503M108,106617841
CBRE,CBRE,a,1138118,12504L109,333295638
CDW,CDW,,1402057,12514G108,135313880
CE,Celanese,,1306830,150870103,108261626
CNC,Centene,,1071739,15135B101,583118672
CNP,CenterPoint Energy,,1130310,15189T107,628907813
CDAY,Ceridian,,1725057,15677J108,151734589
CERN,Cerner,,804753,156782104,293685795
CF,CF Industries,,1324404,125269100,209826396
CRL,Charles River,,1100682,159864107,50480813
SCHW,Charles Schwab,,316709,808513105,1813492427
CHTR,Charter Communications,a,1091667,16119P108,172812429
CVX,Chevron,,93410,166764100,1941279421
CMG,Chipotle Mexican Grill,,1058090,169656105,28067419
CB,Chubb,,896159,H1467J104,427835229
CHD,Church & Dwight,,313927,171340102,243308457
CI,Cigna,,1739940,125523100,324519042
CINF,Cincinnati Financial,,20286,172062101,160720318
CTAS,Cintas,,723254,172908105,103729043
CSCO,Cisco,,858877,17275R102,4188327221
C,Citigroup,,831001,172967424,1981772044
CFG,Citizens,,759944,174610105,423342418
CTXS,Citrix,,877890,177376100,125220179
CLX,Clorox,,21076,189054109,123013804
CME,CME Group,a,1156375,12572Q105,359395130
CMS,CMS Energy,,811156,125896100,289750337
KO,Coca-Cola,,21344,191216100,4328553880
CTSH,Cognizant,a,1058290,192446102,524810068
CL,Colgate-Palmolive,,21665,194162103,841101587
CMCSA,Comcast,a,1166691,20030N101,4524173914
CMA,Comerica,,28412,200340107,131107982
ED,Con Edison,,1047862,209115104,353971561
CAG,Conagra Brands,,23217,205887102,479762107
COP,ConocoPhillips,,1163165,20825C104,1304579260
STZ,Constellation Brands,a,16918,21036P108,164338356
CEG,Constellation Energy,,1868275,21037T109,326663937
COO,CooperCompanies,,711404,216648402,49372117
CPRT,Copart,,900075,217204106,237315631
GLW,Corning,,24741,219350105,848244416
CTVA,Corteva,,1755672,22052L104,728354723
COST,Costco,,909832,22160K105,443389779
CTRA,Coterra,,858470,127097103,813670145
CCI,Crown Castle,,1051470,22822V101,432209327
CSX,CSX,,277948,126408103,2199787874
CMI,Cummins,,26172,231021106,142433534
CVS,CVS Health,,64803,126650100,1315129200
DHI,D.R. Horton,,882184,23331A109,355165458
DHR,Danaher,,313616,235851102,715103248
DRI,Darden,,940944,237194105,127192239
DVA,DaVita,,927066,23918K108,98074257
DE,Deere & Co.,,315189,244199105,307100910
DAL,Delta Air Lines,,27904,247361702,639951628
XRAY,Dentsply Sirona,,818479,24906P109,218056954
DVN,Devon,,1090012,25179M103,668344761
DXCM,DexCom,,1093557,252131107,97014254
FANG,Diamondback,,1539838,25278X109,179093352
DLR,Digital Realty,,1297996,253868103,284137490
DFS,Discover,,1393612,254709108,288337328
DISCA,Discovery,a,1437107,25470F104,169439052
DISCK,Discovery,c,1437107,25470F302,330150918
DISH,Dish,a,1001082,25470M109,290483250
DIS,Disney,,1744489,254687106,1819318685
DG,Dollar General,,29534,256677105,230787488
DLTR,Dollar Tree,,935703,256746108,225014624
D,Dominion Energy,,715957,25746U109,810236170
DPZ,Domino's,,1286681,25754A201,36173372
DOV,Dover,,29905,260003108,144033995
DOW,Dow,,1751788,260557103,736753298
DTE,DTE,,936340,233331107,193741048
DUK,Duke Energy,,1326160,26441C204,769353136
DRE,Duke Realty,,783280,264411505,381945865
DD,DuPont,,1666700,26614N102,515037990
DXC,DXC Technology,,1688568,23355L106,247206994
EMN,Eastman,,915389,277432100,129027360
ETN,Eaton,,1551182,G29183103,398747967
EBAY,eBay,,1065088,278642103,604664779
ECL,Ecolab,,31462,278865100,286703602
EIX,Edison International,,827052,281020107,380357947
EW,Edwards Lifesciences,,1099800,28176E108,623575456
EA,Electronic Arts,,712515,285512109,281849647
EMR,Emerson,,32604,291011104,594014754
ENPH,Enphase,,1463101,29355A107,134288334
ETR,Entergy,,65984,29364G103,202331027
EOG,EOG Resources,,821189,26875P101,585285627
EPAM,EPAM,,1352010,29414B104,56813432
EFX,Equifax,,33185,294429105,122061483
EQIX,Equinix,,1101239,29444U700,90406773
EQR,Equity Residential,,906107,29476L107,375571314
ESS,Essex,,920522,297178105,65191933
EL,Estée Lauder Companies,a,1001250,518439104,232207979
ETSY,Etsy,,1370637,29786A106,126920356
RE,Everest,,1095073,G3223R108,39306715
EVRG,Evergy,,1711269,30034W106,229307676
ES,Eversource,,72741,30040W108,344219350
EXC,Exelon,,1109357,30161N101,979663685
EXPE,Expedia Group,,1324424,30212P303,148980141
EXPD,Expeditors,,746515,302130109,168472013
EXR,Extra Space Storage,,1289490,30225T102,134027940
XOM,ExxonMobil,,34088,30231G102,4233585771
FFIV,F5,,1048695,315616102,60914038
FDS,FactSet,,1013237,303075105,37801529
FAST,Fastenal,,815556,311900104,575466662
FRT,Federal Realty,,34903,313745101,78287573
FDX,FedEx,,1048911,31428X106,263951124
FITB,Fifth Third Bank,,35527,316773100,683706466
FRC,First Republic,,1132979,33616C100,179470768
FE,FirstEnergy,,1031296,337932107,563599733
FIS,FIS,,1136893,31620M106,609275816
FISV,Fiserv,,798354,337738108,655572965
FLT,Fleetcor,,1175454,339041105,79405861
FMC,FMC,,37785,302491303,125710913
F,Ford,,37996,345370860,3930858906
FTNT,Fortinet,,1262039,34959E109,162093705
FTV,Fortive,,1659166,34959J108,358842054
FBHS,Fortune Brands,,1519751,34964C106,134738016
FOXA,Fox Corporation,a,1754301,35137L105,317526831
FOX,Fox Corporation,b,1754301,35137L204,247908484
BEN,Franklin Templeton,,38777,354613101,502024834
FCX,Freeport-McMoRan,,831259,35671D857,1459442318
AJG,Gallagher,,354190,363576109,208213154
GRMN,Garmin,,1121788,H2906T109,192608541
IT,Gartner,,749251,366651107,82266039
GE,GE,,40545,369604301,1099013653
GNRC,Generac,,1474735,368736104,63465450
GD,General Dynamics,,40533,369550108,278095200
GIS,General Mills,,40704,370334104,603029869
GPC,Genuine Parts,,40987,372460105,142140488
GILD,Gilead,,882095,375558103,1254108508
GPN,Global Payments,,1123360,37940X102,285496453
GL,Globe Life,,320335,37959E102,100041611
GM,GM,,1467858,37045V100,1452796236
GS,Goldman Sachs,,886982,38141G104,336791965
GWW,Grainger,,277135,384802104,51240154
HAL,Halliburton,,45012,406216101,897617173
HIG,Hartford (The),,874766,416515104,335422228
HAS,Hasbro,,46080,418056107,138579944
HCA,HCA Healthcare,,860730,40412C101,306023771
PEAK,Healthpeak,,765880,42250P103,539211838
HSIC,Henry Schein,,1000228,806407102,137730541
HSY,Hershey's,,47111,427866108,145530383
HES,Hess,,4447,42809H107,309740676
HPE,Hewlett Packard Enterprise,,1645590,42824C109,1295364958
HLT,Hilton,,1585689,43300A203,278986283
HOLX,Hologic,,859737,436440101,250506448
HD,Home Depot,,354950,437076102,1039802818
HON,Honeywell,,773840,438516106,686448120
HRL,Hormel,,48465,440452100,543236888
HST,Host Hotels & Resorts,,1070750,44107P104,714096958
HWM,Howmet Aerospace,,4281,443201108,422361811
HPQ,HP,,47217,40434L105,1072205368
HUM,Humana,,49071,444859102,127128087
HII,Huntington Ingalls Industries,,1501585,446413106,40015462
HBAN,Huntington National Bank,,49196,446150104,1440266566
IBM,IBM,,51143,459200101,898504655
IEX,IDEX,,832101,45167R104,76082667
IDXX,Idexx Laboratories,,874716,45168D104,84438001
ITW,Illinois Tool Works,,49826,452308109,313175078
ILMN,Illumina,,1110803,452327109,156713333
INCY,Incyte,,879169,45337C102,221178853
IR,Ingersoll Rand,,1699150,45687V106,407796800
INTC,Intel,,50863,458140100,4071067796
ICE,Intercontinental Exchange,,1571949,45866F104,562369652
IFF,International Flavors & Fragrances,,51253,459506101,254619535
IP,International Paper,,51434,460146103,376517937
IPG,Interpublic Group,,51644,460690100,393881741
INTU,Intuit,,896878,461202103,282994074
ISRG,Intuitive Surgical,,1035267,46120E602,357612361
IVZ,Invesco,,914208,G491BT108,460869239
IPGP,IPG Photonics,,1111928,44980X109,53110435
IQV,IQVIA,,1478242,46266C105,190681766
IRM,Iron Mountain,,1020569,46284V101,289704841
JBHT,J.B. Hunt,,728535,445658107,104905819
JKHY,Jack Henry & Associates,,779152,426281101,73208337
J,Jacobs,,52988,469814107,129115756
JNJ,Johnson & Johnson,,200406,478160104,2630527708
JCI,Johnson Controls,,833444,G51502105,702824883
JPM,JPMorgan Chase,,19617,46625H100,2953448213
JNPR,Juniper Networks,,1043604,48203R104,323704475
K,Kellogg's,,55067,487836108,341535695
KEY,KeyCorp,,91576,493267108,929233019
KEYS,Keysight,,1601046,49338L103,182793900
KMB,Kimberly-Clark,,55785,494368103,336909010
KIM,Kimco Realty,,879101,49446R109,616603757
KMI,Kinder Morgan,,1506307,49456B101,2267464502
KLAC,KLA,,319201,482480100,150869914
KHC,Kraft Heinz,,1637459,500754106,1224337849
KR,Kroger,,56873,501044101,732663217
LHX,L3Harris,,202058,502431109,194393449
LH,LabCorp,,920148,50540R409,94520000
LRCX,Lam Research,,707549,512807108,139884408
LW,Lamb Weston,,1679273,513272104,145203600
LVS,Las Vegas Sands,,1300514,517834107,763989752
LDOS,Leidos,,1336920,525327102,140442775
LEN,Lennar,a,920760,526057104,261459880
LLY,Lilly,,59478,532457108,954130851
LNC,Lincoln Financial,,59558,534187109,175934331
LIN,Linde,,1707925,G5494J103,508995999
LYV,Live Nation Entertainment,,1335258,538034109,224640599
LKQ,LKQ Corporation,,1065696,501889208,287905675
LMT,Lockheed Martin,,936468,539830109,273087257
L,Loews Corporation,,60086,540424108,250216227
LOW,Lowe's,,60667,548661107,669720546
LUMN,Lumen,,18926,550241103,1023615197
LYB,LyondellBasell,,1489393,N53745100,330194460
MTB,M&T Bank,,36270,55261F104,128891184
MRO,Marathon Oil,,101778,565849106,750328825
MPC,Marathon Petroleum,,1510295,56585A102,586934168
MKTX,MarketAxess,,1278021,57060D108,37914090
MAR,Marriott International,a,1048286,571903202,326080648
MMC,Marsh & McLennan,,62709,571748102,503523671
MLM,Martin Marietta,,916076,573284106,62389165
MAS,Masco,,62996,574599106,241008854
MA,Mastercard,a,1141391,57636Q104,971608566
MTCH,Match Group,,891103,57667L107,284227316
MKC,McCormick,nonvoting,63754,579780206,249739725
MCD,McDonald's,,63908,580135101,744537097
MCK,McKesson,,927653,58155Q103,149829723
MDT,Medtronic,,1613103,G5960L103,1343562639
MRK,Merck,,310158,58933Y105,2527111112
FB,Meta,a,1326801,30303M102,2325667388
MET,MetLife,,1099219,59156R108,831664185
MTD,Mettler Toledo,,1037646,592688105,22847977
MGM,MGM Resorts,,789570,552953101,453543466
MCHP,Microchip,,827054,595017104,555646108
MU,Micron,,723125,595112103,1119728030
MSFT,Microsoft,,789019,594918104,7499431200
MAA,Mid-America Apartments,,912595,59522J103,115257773
MRNA,Moderna,,1682852,60770K107,404023227
MHK,Mohawk Industries,,851968,608190104,66238287
MOH,Molina Healthcare,,1179929,60855R100,58400000
TAP,Molson Coors,b,24545,60871R209,200593447
MDLZ,Mondelez International,a,1103982,609207105,1390445390
MPWR,Monolithic Power Systems,,1280452,609839105,46318174
MNST,Monster Beverage,,865752,61174X109,529262971
MCO,Moody's,,1059556,615369105,185382113
MS,Morgan Stanley,,895421,617446448,1785763306
MOS,Mosaic,,1285785,61945C103,372002935
MSI,Motorola Solutions,,68505,620076307,168442546
MSCI,MSCI,,1408198,55354G100,81661034
NDAQ,Nasdaq,,1120193,631103108,165576573
NTAP,NetApp,,1002047,64110D104,222369052
NFLX,Netflix,,1065280,64110L106,443952118
NWL,Newell Brands,,814453,651229106,425464705
NEM,Newmont,,1164727,651639106,794533552
NWSA,News Corp,a,1564708,65249B109,391563297
NWS,News Corp,b,1564708,65249B208,198836292
NEE,NextEra Energy,,753308,65339F101,1962586844
NLSN,Nielsen,,1492633,G6518L108,359339824
NKE,Nike,b,320187,654106103,1275957128
NI,NiSource,,1111711,65473P105,400110890
NDSN,Nordson,,72331,655663102,58092307
NSC,Norfolk Southern,,702165,655844108,240705460
NTRS,Northern Trust,,73124,665859104,207836649
NOC,Northrop Grumman,,1133421,666807102,156771084
NLOK,NortonLifeLock,,849399,668771108,581827803
NCLH,Norwegian Cruise Line Holdings,,1513761,G66721104,396173707
NRG,NRG Energy,,1013871,629377508,243495945
NUE,Nucor,,73309,670346105,275122708
NVDA,Nvidia,,1045810,67066G104,2504033613
NVR,NVR,,906163,62944T105,3426131
NXPI,NXP,,1413447,N6596X109,264053822
ORLY,O'Reilly Automotive,,898173,67103H107,66968831
OXY,Occidental Petroleum,,797468,674599105,934042393
ODFL,Old Dominion,,878927,679580100,114933540
OMC,Omnicom Group,,29989,681919106,210052651
OKE,Oneok,,1039684,682680103,446088823
ORCL,Oracle,,1341439,68389X105,2669843043
OGN,Organon,,1821825,68622V106,253585586
OTIS,Otis,,1781335,68902V107,424918941
PCAR,Paccar,,75362,693718108,347439052
PKG,Packaging Corporation of America,,75677,695156109,94171228
VIAC,Paramount,b,813828,92556H206,607390296
PH,Parker,,76334,701094104,128478039
PAYX,Paychex,,723531,704326107,360843789
PAYC,Paycom,,1590955,70432V102,60142014
PYPL,PayPal,,1633917,70450Y103,1168313332
PENN,Penn National Gaming,,921738,707569109,168871877
PNR,Pentair,,77360,G7S00T104,165102970
PBCT,People's United Financial,,1378946,712704105,428920705
PEP,PepsiCo,,77476,713448108,1383233071
PKI,PerkinElmer,,31791,714046109,126191915
PFE,Pfizer,,78003,717081103,5618007667
PM,Philip Morris International,,1413329,718172109,1552113486
PSX,Phillips 66,,1534701,718546104,438367584
PNW,Pinnacle West,,764622,723484101,112881999
PXD,Pioneer Natural Resources,,1038357,723787107,243467980
PNC,PNC Financial Services,,713676,693475105,419800301
POOL,Pool Corporation,,945841,73278L105,40133563
PPG,PPG Industries,,79879,693506107,236363674
PPL,PPL,,922224,69351T106,740702412
PFG,Principal,,1126328,74251V102,262352929
PG,Procter & Gamble,,80424,742718109,2397314424
PGR,Progressive,,80661,743315103,584904497
PLD,Prologis,,1045609,74340W103,739756972
PRU,Prudential,,1137774,744320102,376695652
PEG,PSEG,,788784,744573106,503518108
PTC,PTC,,857005,69370C100,117364867
PSA,Public Storage,,1393311,74460D109,175414598
PHM,PulteGroup,,822416,745867101,249686054
PVH,PVH,,78239,693656100,69422783
QRVO,Qorvo,,1604778,74736K101,108982888
QCOM,Qualcomm,,804328,747525103,1124538461
PWR,Quanta,,1050915,74762E102,142598208
DGX,Quest Diagnostics,,1022079,74834L100,120408852
RL,Ralph Lauren,a,1037038,751212101,47066696
RJF,Raymond James,,720005,754730109,206947338
RTX,Raytheon Technologies,,101829,75513E101,1493487866
O,Realty Income,,726728,756109104,514695507
REG,Regency Centers,,910606,758849103,171300596
REGN,Regeneron,,872589,75886F107,106428417
RF,Regions,,1281761,7591EP100,944926226
RSG,Republic Services,,1060391,760759100,316654624
RMD,ResMed,,943819,761152107,146093831
RHI,Robert Half,,315213,770323103,110853588
ROK,Rockwell Automation,,1024478,773903109,116192611
ROL,Rollins,,84839,775711104,492074737
ROP,Roper,,882835,776696106,105554537
ROST,Ross,,745732,778296103,352312443
RCL,Royal Caribbean Group,,884887,V7780T103,254903406
SPGI,S&P Global,,64040,78409V104,241065714
CRM,Salesforce,,1108524,79466L302,986648351
SBAC,SBA Communications,a,1034054,78410G104,108297585
SLB,Schlumberger,,87347,806857108,1403373542
STX,Seagate,,1137789,G7997R103,219925153
SEE,Sealed Air,,1012100,81211K100,148157517
SRE,Sempra Energy,,1032208,816851109,317343603
NOW,ServiceNow,,1373715,81762P102,199739837
SHW,Sherwin-Williams,,89800,824348106,260847900
SBNY,Signature Bank,,1288784,82669G104,61635072
SPG,Simon,a,1063761,828806109,328594108
SWKS,Skyworks,,4127,83088M102,166263625
SJM,Smucker,,91419,832696405,108405948
SNA,Snap-on,,91440,833034101,53530826
SEDG,SolarEdge,,1419612,83417M104,52695795
SO,Southern Company,,92122,842587107,1060116627
LUV,Southwest Airlines,,92380,844741108,592202586
SWK,Stanley Black & Decker,,93556,854502101,163199051
SBUX,Starbucks,,829224,855244109,1158544000
STT,State Street,,93751,857477103,365931209
STE,Steris,,1757898,G8473T100,100086429
SYK,Stryker,,310764,863667101,377465407
SIVB,SVB Financial,,719739,78486Q101,58762545
SYF,Synchrony,,1601712,87165B103,529550997
SNPS,Synopsys,,883241,871607107,153331598
SYY,Sysco,,96021,871829107,508706753
TMUS,T-Mobile,,1283699,872590104,1249200433
TROW,T. Rowe Price,,1113169,74144T108,226589414
TTWO,Take-Two Interactive,,946581,874054109,115383431
TPR,Tapestry,,1116132,876030107,267543951
TGT,Target,,27419,87612E106,472537960
TEL,TE Connectivity,,1385157,H84989104,325783415
TDY,Teledyne,,1094285,879360105,46949511
TFX,Teleflex,,96943,879369106,46858640
TER,Teradyne,,97210,880770102,162680504
TSLA,Tesla,,1318605,88160R101,1024333412
TXN,Texas Instruments,,97476,882508104,923541486
TXT,Textron,,217346,883203101,217907774
TMO,Thermo Fisher Scientific,,97745,883556102,392030529
TJX,TJX Companies,,109198,872540109,1187268616
TSCO,Tractor Supply,,916365,892356106,113035856
TT,Trane Technologies,,1466258,G8994E103,234832883
TDG,TransDigm,,1260221,893641100,55385432
TRV,Travelers,,86312,89417E109,243186633
TRMB,Trimble,,864749,896239100,251120529
TFC,Truist,,92230,89832Q109,1329882032
TWTR,Twitter,,1418091,90184L102,800250945
TYL,Tyler Technologies,,860731,902252105,41175470
TSN,Tyson,a,100493,902494103,292528924
USB,U.S. Bank,,36104,902973304,1483517736
UDR,UDR,,74208,902653104,314683311
ULTA,Ulta Beauty,,1403568,90384S303,53623921
UAA,Under Armour,a,1336917,904311107,188658595
UA,Under Armour,c,1336917,904311206,253131281
UNP,Union Pacific,,100885,907818108,638549676
UAL,United Airlines,,100517,910047109,324336985
UPS,United Parcel Service,b,1090727,911312106,731325008
URI,United Rentals,,1067701,911363109,72414356
UNH,UnitedHealth Group,,731766,91324P102,941223266
UHS,Universal Health Services,b,352915,913903100,69488788
VLO,Valero,,1035002,91913Y100,409106985
VTR,Ventas,,740260,92276F100,399350003
VRSN,Verisign,,1014473,92343E102,110517196
VRSK,Verisk,,1442145,92345Y106,161228671
VZ,Verizon,,732712,92343V104,4182822747
VRTX,Vertex,,875320,92532F100,254466136
VFC,VF Corporation,,103379,918204108,389930261
VTRS,Viatris,,1792044,92556V106,1209487319
V,Visa,a,1403161,92826C839,1661654240
VNO,Vornado Realty Trust,,899689,929042109,191723144
VMC,Vulcan Materials,,1396009,929160109,132756924
WAB,Wabtec,,943452,929740108,185877869
WBA,Walgreens Boots Alliance,,1618921,931427108,863297465
WMT,Walmart,,104169,931142103,2767475993
WM,Waste Management,,823768,94106L109,415964332
WAT,Waters,,1000697,941848103,60748052
WEC,WEC Energy Group,,783325,92939U106,315434531
WFC,Wells Fargo,,72971,949746101,3880265298
WELL,Welltower,,766704,95040Q104,442869600
WST,West Pharmaceutical Services,,105770,955306105,74227083
WDC,Western Digital,,106040,958102105,312519297
WRK,WestRock,,1732845,96145D105,263725006
WY,Weyerhaeuser,,106535,962166104,747339057
WHR,Whirlpool,,106640,963320106,59296456
WMB,Williams,,107263,969457100,1215343679
WTW,Willis Towers Watson,,1140536,G96629103,120728437
WYNN,Wynn Resorts,,1174922,983134107,115796413
XEL,Xcel Energy,,72903,98389B100,541833292
XYL,Xylem,,1524472,98419M100,180067465
YUM,Yum! Brands,,1041061,988498101,290755070
ZBRA,Zebra,a,877212,989207105,53206352
ZBH,Zimmer Biomet,,1136869,98956P102,209074424
ZION,Zions Bancorp,,109380,989701107,153462209
ZTS,Zoetis,,1555280,98978V103,472443679
