Symbol,Name,Class,CIK,CUSIP,shares_outstanding
MMM,3M,,66740,88579Y101,575053137
AOS,A. O. Smith,,91142,831865209,137508203
ABT,Abbott,,1800,002824100,1768444204
ABBV,AbbVie,,1551152,00287Y109,1478711129
ABMD,Abiomed,,815094,003654100,45215988
ACN,Accenture,a,1467373,G1151C101,656528589
ATVI,Activision Blizzard,,718877,00507V109,767826090
ADM,ADM,,7084,039483102,556784337
ADBE,Adobe,,796343,00724F101,483922102
ADP,ADP,,8670,053015103,433122124
AAP,Advance Auto Parts,,1158449,00751Y106,70194602
AES,AES,,874761,00130H105,663877666
AFL,Aflac,,4977,001055102,735277085
A,Agilent Technologies,,1090872,00846U101,309710634
AIG,AIG,,5272,026874784,869938202
APD,Air Products,,2969,009158106,220413427
AKAM,Akamai,,1086222,00971T101,162976015
ALK,Alaska Air Group,,766421,011659109,123207800
ALB,Albemarle,,915913,012653101,106016765
ARE,Alexandria,,1035443,015271109,114849295
ALXN,Alexion Pharmaceuticals,,899866,015351109,222000538
ALGN,Align,,1097149,016255101,79115221
ALLE,Allegion,,1579241,G0176J109,93027712
AGN,Allergan,,1578845,G0177J108,328184548
ADS,Alliance Data Systems,,1101215,018581108,47385805
LNT,Alliant Energy,,352541,018802108,240312276
ALL,Allstate,,899051,020002101,324819139
GOOGL,Alphabet,a,1652044,02079K305,299605628
GOOG,Alphabet,c,1652044,02079K107,344438585
MO,Altria,,764180,02209S103,1868118854
AMZN,Amazon,,1018724,023135106,495584027
AMCR,Amcor,,1748790,G0250X107,1623279224
AMD,AMD,,2488,007903107,1105604336
AEE,Ameren,,1002910,023608102,245951020
AAL,American Airlines Group,,6201,02376R102,439563931
AEP,American Electric Power,,4904,025537101,493908762
AXP,American Express,,4962,025816109,820150411
AMT,American Tower,,1053507,03027X100,442871051
AWK,American Water,,1410636,030420103,180742243
AMP,Ameriprise Financial,,820027,03076C106,127803178
ABC,AmerisourceBergen,,1140859,03073E105,206749133
AME,Ametek,,1037868,031100100,228515666
AMGN,Amgen,,318154,031162100,595638753
APH,Amphenol,a,820313,032095101,296733452
ADI,Analog Devices,,6281,032654105,368714765
ANSS,Ansys,,1013462,03662Q105,84158785
ANTM,Anthem,,1156039,036752103,253984681
AON,Aon,a,315293,G0403H108,234605671
APA,Apache Corporation,,6769,037411105,376009950
AIV,Apartment Investment & Management,a,922864,03748R754,148884496
AAPL,Apple,,320193,037833100,4459115384
AMAT,Applied Materials,,6951,038222105,919690180
APTV,Aptiv,,1521332,G6095L109,255546562
ARNC,Arconic,,4281,03965L100,435485328
ANET,Arista,,1596532,040413106,76469123
AIZ,Assurant,,1267238,04621X108,60815362
T,AT&T,,732717,00206R102,7305695652
ATO,Atmos Energy,,731802,049560105,118900396
ADSK,Autodesk,,769397,052769106,219736072
AZO,AutoZone,,866787,053332102,23935374
AVB,AvalonBay Communities,,915912,053484101,139660107
AVY,Avery Dennison,,8818,053611109,83707624
BKR,Baker Hughes,a,1701605,05722G100,616494695
BLL,Ball,,9389,058498106,328824616
BAC,Bank of America,,70858,060505104,9084591153
BBWI,Bath & Body Works,,701985,070830104,276418992
BAX,Baxter,,10456,071813109,509563717
BDX,Becton Dickinson,,10795,075887109,270328314
WRB,Berkley,,11544,084423102,183489774
BRK.B,Berkshire Hathaway,b,1067983,084670702,1384210724
BBY,Best Buy,,764478,086516101,262255727
BIIB,Biogen,,875045,09062X103,181379298
BLK,BlackRock,,1364742,09247X101,154441341
BK,BNY Mellon,,1390777,064058100,922421302
BA,Boeing,,12927,097023105,562776059
BKNG,Booking Holdings,,1075531,09857L108,42083944
BWA,BorgWarner,,908255,099724106,206498770
BXP,Boston Properties,,1037540,101121101,154602120
BSX,Boston Scientific,,885725,101137107,1393608714
BMY,Bristol Myers Squibb,,14272,110122108,1629355251
AVGO,Broadcom,,1730168,11135F101,397040503
BR,Broadridge,,1383312,11133T103,114519728
BF.B,Brown–Forman,b,14693,115637209,308700546
CHRW,C.H. Robinson,,1043277,12541W209,135297849
CDNS,Cadence,,813672,127387108,280589626
CPB,Campbell's,,16732,134429109,301262458
COF,Capital One,,927628,14040H105,465771117
CPRI,Capri Holdings,,1530721,G1890L107,151615546
CAH,Cardinal Health,,721371,14149Y108,294451944
KMX,CarMax,,1170010,143130102,164442615
CCL,Carnival,,815097,143658300,527112421
CAT,Caterpillar,,18230,149123101,552766330
CBOE,Cboe,,1374310,12503M108,111095811
CBRE,CBRE,a,1138118,12504L109,335279691
CDW,CDW,,1402057,12514G108,143999626
CE,Celanese,,1306830,150870103,121378051
CNC,Centene,,1071739,15135B101,413770925
CNP,CenterPoint Energy,,1130310,15189T107,502235143
CERN,Cerner,,804753,156782104,314900060
CF,CF Industries,,1324404,125269100,217716721
SCHW,Charles Schwab,,316709,808513105,1290947065
CHTR,Charter Communications,a,1091667,16119P108,214852918
CVX,Chevron,,93410,166764100,1890954212
CMG,Chipotle Mexican Grill,,1058090,169656105,27780089
CB,Chubb,,896159,H1467J104,453700665
CHD,Church & Dwight,,313927,171340102,245954480
CI,Cigna,,1739940,125523100,374153005
XEC,Cimarex Energy,,1168054,171798101,101687311
CINF,Cincinnati Financial,,20286,172062101,163365684
CTAS,Cintas,,723254,172908105,103488644
CSCO,Cisco,,858877,17275R102,4244095101
C,Citigroup,,831001,172967424,2184018532
CFG,Citizens,,759944,174610105,438978884
CTXS,Citrix,,877890,177376100,130414776
CLX,Clorox,,21076,189054109,125555301
CME,CME Group,a,1156375,12572Q105,358314044
CMS,CMS Energy,,811156,125896100,283837547
KO,Coca-Cola,,21344,191216100,4282445149
CTSH,Cognizant,a,1058290,192446102,548915891
CL,Colgate-Palmolive,,21665,194162103,857054679
CMCSA,Comcast,a,1166691,20030N101,4539759521
CMA,Comerica,,28412,200340107,145625821
ED,Con Edison,,1047862,209115104,332330859
CAG,Conagra Brands,,23217,205887102,486715560
CXO,Concho Resources,,1358071,20605P101,201044844
COP,ConocoPhillips,,1163165,20825C104,1097408590
STZ,Constellation Brands,a,16918,21036P108,167495635
COO,CooperCompanies,,711404,216648402,49382535
CPRT,Copart,,900075,217204106,232257431
GLW,Corning,,24741,219350105,771433700
CTVA,Corteva,,1755672,22052L104,748537521
COST,Costco,,909832,22160K105,439661114
CTRA,Coterra,,858470,127097103,410684920
COTY,Coty,a,1024305,222070203,756255496
CCI,Crown Castle,,1051470,22822V101,415763882
CSX,CSX,,277948,126408103,782508711
CMI,Cummins,,26172,231021106,153203601
CVS,CVS Health,,64803,126650100,1300809957
DHI,D.R. Horton,,882184,23331A109,369026259
DHR,Danaher,,313616,235851102,718104052
DRI,Darden,,940944,237194105,122415758
DVA,DaVita,,927066,23918K108,140558064
DE,Deere & Co.,,315189,244199105,314067906
DAL,Delta Air Lines,,27904,247361702,646780438
XRAY,Dentsply Sirona,,818479,24906P109,223055661
DVN,Devon,,1090012,25179M103,389401098
FANG,Diamondback,,1539838,25278X109,161387042
DLR,Digital Realty,,1297996,253868103,208575887
DFS,Discover,,1393612,254709108,314831904
DISCK,Discovery,c,1437107,25470F302,364412146
DISCA,Discovery,a,1437107,25470F104,158108842
DISH,Dish,a,1001082,25470M109,247306173
DIS,Disney,,1744489,254687106,1801961463
DG,Dollar General,,29534,256677105,256136440
DLTR,Dollar Tree,,935703,256746108,236639244
D,Dominion Energy,,715957,25746U109,820494731
DOV,Dover,,29905,260003108,145287102
DOW,Dow,,1751788,260557103,741514558
DTE,DTE,,936340,233331107,183395479
DUK,Duke Energy,,1326160,26441C204,728882673
DRE,Duke Realty,,783280,264411505,365483559
DD,DuPont,,1666700,26614N102,742400699
DXC,DXC Technology,,1688568,23355L106,258072292
ETFC,E-Trade,,1015780,269246401,230497665
EMN,Eastman,,915389,277432100,135990246
ETN,Eaton,,1551182,G29183103,413471739
EBAY,eBay,,1065088,278642103,819190849
ECL,Ecolab,,31462,278865100,288239025
EIX,Edison International,,827052,281020107,349786637
EW,Edwards Lifesciences,,1099800,28176E108,208413284
EA,Electronic Arts,,712515,285512109,292968397
EMR,Emerson,,32604,291011104,611222574
ETR,Entergy,,65984,29364G103,199007358
EOG,EOG Resources,,821189,26875P101,581449513
EFX,Equifax,,33185,294429105,121057134
EQIX,Equinix,,1101239,29444U700,85117225
EQR,Equity Residential,,906107,29476L107,371211070
ESS,Essex,,920522,297178105,65992218
EL,Estée Lauder Companies,a,1001250,518439104,222067986
RE,Everest,,1095073,G3223R108,40767090
EVRG,Evergy,,1711269,30034W106,230646286
ES,Eversource,,72741,30040W108,323705967
EXC,Exelon,,1109357,30161N101,972103165
EXPE,Expedia Group,,1324424,30212P303,138736317
EXPD,Expeditors,,746515,302130109,170466961
EXR,Extra Space Storage,,1289490,30225T102,129172045
XOM,ExxonMobil,,34088,30231G102,4231106068
FFIV,F5,,1048695,315616102,60522013
FAST,Fastenal,,815556,311900104,573515611
FRT,Federal Realty,,34903,313745101,75354851
FDX,FedEx,,1048911,31428X106,260947014
FITB,Fifth Third Bank,,35527,316773100,716908588
FRC,First Republic,,1132979,33616C100,168420776
FE,FirstEnergy,,1031296,337932107,540222371
FIS,FIS,,1136893,31620M106,614142976
FISV,Fiserv,,798354,337738108,588988971
FLT,Fleetcor,,1175454,339041105,86714159
FLIR,FLIR Systems,,354908,302445101,134568213
FLS,Flowserve,,30625,34354P105,130946802
FMC,FMC,,37785,302491303,129624201
F,Ford,,37996,345370860,3899253488
FTNT,Fortinet,,1262039,34959E109,171022329
FTV,Fortive,,1659166,34959J108,335750590
FBHS,Fortune Brands,,1519751,34964C106,139332440
FOXA,Fox Corporation,a,1754301,35137L105,354480377
FOX,Fox Corporation,b,1754301,35137L204,266173651
BEN,Franklin Templeton,,38777,354613101,499861123
FCX,Freeport-McMoRan,,831259,35671D857,1450905649
AJG,Gallagher,,354190,363576109,186518076
GPS,Gap,,39911,364760108,374803879
GRMN,Garmin,,1121788,H2906T109,198077418
IT,Gartner,,749251,366651107,89661840
GE,GE,,40545,369604301,8733478597
GD,General Dynamics,,40533,369550108,289306108
GIS,General Mills,,40704,370334104,604482096
GPC,Genuine Parts,,40987,372460105,145301650
GILD,Gilead,,882095,375558103,1265577436
GPN,Global Payments,,1123360,37940X102,257693149
GL,Globe Life,,320335,37959E102,108596671
GM,GM,,1467858,37045V100,1428600611
GS,Goldman Sachs,,886982,38141G104,355230484
GWW,Grainger,,277135,384802104,53873915
HRB,H&R Block,,12659,093671105,198956200
HAL,Halliburton,,45012,406216101,877413511
HBI,Hanesbrands,,1359841,410345102,361653167
HOG,Harley-Davidson,,793952,412822108,155176970
HIG,Hartford (The),,874766,416515104,360824235
HAS,Hasbro,,46080,418056107,126241719
HCA,HCA Healthcare,,860730,40412C101,339805952
PEAK,Healthpeak,,765880,42250P103,493673566
HP,Helmerich & Payne,,46765,423452101,108784520
HSIC,Henry Schein,,1000228,806407102,147224250
HSY,Hershey's,,47111,427866108,148444890
HES,Hess,,4447,42809H107,304703782
HPE,Hewlett Packard Enterprise,,1645590,42824C109,1300630526
HLT,Hilton,,1585689,43300A203,283090971
HFC,HollyFrontier,,48039,436106108,162300705
HOLX,Hologic,,859737,436440101,267771600
HD,Home Depot,,354950,437076102,1093253269
HON,Honeywell,,773840,438516106,714587570
HRL,Hormel,,48465,440452100,534211188
HST,Host Hotels & Resorts,,1070750,44107P104,722352195
HPQ,HP,,47217,40434L105,1467786021
HUM,Humana,,49071,444859102,132454993
HII,Huntington Ingalls Industries,,1501585,446413106,41046560
HBAN,Huntington National Bank,,49196,446150104,1032810490
IBM,IBM,,51143,459200101,885640037
IEX,IDEX,,832101,45167R104,76004380
IDXX,Idexx Laboratories,,874716,45168D104,85880568
INFO,IHS Markit,,1598014,G47567105,399077047
ITW,Illinois Tool Works,,49826,452308109,321428618
ILMN,Illumina,,1110803,452327109,147000000
INCY,Incyte,,879169,45337C102,215313716
INTC,Intel,,50863,458140100,4349342342
ICE,Intercontinental Exchange,,1571949,45866F104,557985687
IFF,International Flavors & Fragrances,,51253,459506101,106775885
IP,International Paper,,51434,460146103,392322154
IPG,Interpublic Group,,51644,460690100,387643597
INTU,Intuit,,896878,461202103,260173496
ISRG,Intuitive Surgical,,1035267,46120E602,115517228
IVZ,Invesco,,914208,G491BT108,454066701
IPGP,IPG Photonics,,1111928,44980X109,53121588
IQV,IQVIA,,1478242,46266C105,194486499
IRM,Iron Mountain,,1020569,46284V101,287132950
JBHT,J.B. Hunt,,728535,445658107,106579969
JKHY,Jack Henry & Associates,,779152,426281101,76961751
J,Jacobs,,52988,469814107,133907135
JNJ,Johnson & Johnson,,200406,478160104,2633736198
JCI,Johnson Controls,,833444,G51502105,777738278
JPM,JPMorgan Chase,,19617,46625H100,3137147968
JNPR,Juniper Networks,,1043604,48203R104,339101676
KSU,Kansas City Southern,,54480,485170302,99224341
K,Kellogg's,,55067,487836108,341102246
KEY,KeyCorp,,91576,493267108,990790129
KEYS,Keysight,,1601046,49338L103,187830931
KMB,Kimberly-Clark,,55785,494368103,343039563
KIM,Kimco Realty,,879101,49446R109,422210244
KMI,Kinder Morgan,,1506307,49456B101,2264750125
KLAC,KLA,,319201,482480100,158099633
KSS,Kohl's,,885639,500255104,158283164
KHC,Kraft Heinz,,1637459,500754106,1220784824
KR,Kroger,,56873,501044101,801485982
LHX,L3Harris,,202058,502431109,221887809
LH,LabCorp,,920148,50540R409,97314285
LRCX,Lam Research,,707549,512807108,144878984
LW,Lamb Weston,,1679273,513272104,146063367
LVS,Las Vegas Sands,,1300514,517834107,768488666
LEG,Leggett & Platt,,58492,524660107,131564885
LDOS,Leidos,,1336920,525327102,142106329
LEN,Lennar,a,920760,526057104,279462255
LLY,Lilly,,59478,532457108,961519437
LNC,Lincoln Financial,,59558,534187109,198924015
LIN,Linde,,1707925,G5494J103,538363981
LYV,Live Nation Entertainment,,1335258,538034109,213570577
LKQ,LKQ Corporation,,1065696,501889208,306959715
LMT,Lockheed Martin,,936468,539830109,282127741
L,Loews Corporation,,60086,540424108,298850722
LOW,Lowe's,,60667,548661107,770043734
LUMN,Lumen,,18926,550241103,1090418970
LYB,LyondellBasell,,1489393,N53745100,334036697
MTB,M&T Bank,,36270,55261F104,132553682
M,Macy's,,794367,55616P104,308939036
MRO,Marathon Oil,,101778,565849106,801359361
MPC,Marathon Petroleum,,1510295,56585A102,652451314
MKTX,MarketAxess,,1278021,57060D108,37772143
MAR,Marriott International,a,1048286,571903202,327629105
MMC,Marsh & McLennan,,62709,571748102,505164944
MLM,Martin Marietta,,916076,573284106,62483585
MAS,Masco,,62996,574599106,286110109
MA,Mastercard,a,1141391,57636Q104,999004501
MXIM,Maxim Integrated,,743316,57772K101,270765424
MKC,McCormick,nonvoting,63754,579780206,123576703
MCD,McDonald's,,63908,580135101,753162356
MCK,McKesson,,927653,58155Q103,180239163
MDT,Medtronic,,1613103,G5960L103,1341206050
MRK,Merck,,310158,58933Y105,2550989533
FB,Meta,a,1326801,30303M102,2406270549
MET,MetLife,,1099219,59156R108,925480417
MTD,Mettler Toledo,,1037646,592688105,24356973
MGM,MGM Resorts,,789570,552953101,517353939
MCHP,Microchip,,827054,595017104,238634086
MU,Micron,,723125,595112103,1106734700
MSFT,Microsoft,,789019,594918104,7630354653
MAA,Mid-America Apartments,,912595,59522J103,114059048
MHK,Mohawk Industries,,851968,608190104,71802886
TAP,Molson Coors,b,24545,60871R209,196243836
MDLZ,Mondelez International,a,1103982,609207105,1440488979
MNST,Monster Beverage,,865752,61174X109,540080903
MCO,Moody's,,1059556,615369105,188804347
MS,Morgan Stanley,,895421,617446448,1630483124
MOS,Mosaic,,1285785,61945C103,381339104
MSI,Motorola Solutions,,68505,620076307,170330721
MSCI,MSCI,,1408198,55354G100,84704801
MYL,Mylan N.V.,,1623613,N59465109,516046773
NDAQ,Nasdaq,,1120193,631103108,164153446
NTAP,NetApp,,1002047,64110D104,233016159
NFLX,Netflix,,1065280,64110L106,438246762
NWL,Newell Brands,,814453,651229106,423400000
NEM,Newmont,,1164727,651639106,819854741
NWS,News Corp,b,1564708,65249B208,199630240
NWSA,News Corp,a,1564708,65249B109,387465328
NEE,NextEra Energy,,753308,65339F101,488670757
NLSN,Nielsen,,1492633,G6518L108,355808775
NKE,Nike,b,320187,654106103,1246107526
NI,NiSource,,1111711,65473P105,373491119
NBL,Noble Energy,,72207,655044105,478297518
JWN,Nordstrom,,702165,655664100,260775577
NSC,Norfolk Southern,,702165,655844108,260775577
NTRS,Northern Trust,,73124,665859104,211914323
NOC,Northrop Grumman,,1133421,666807102,168688495
NLOK,NortonLifeLock,,849399,668771108,621310594
NCLH,Norwegian Cruise Line Holdings,,1513761,G66721104,213745284
NOV,Nov,,1021860,62955J103,385846664
NRG,NRG Energy,,1013871,629377508,252118939
NUE,Nucor,,73309,670346105,303200096
NVDA,Nvidia,,1045810,67066G104,610681318
NVR,NVR,,906163,62944T105,3682676
ORLY,O'Reilly Automotive,,898173,67103H107,75931022
OXY,Occidental Petroleum,,797468,674599105,891527730
ODFL,Old Dominion,,878927,679580100,79892844
OMC,Omnicom Group,,29989,681919106,217711200
OKE,Oneok,,1039684,682680103,413056516
ORCL,Oracle,,1341439,68389X105,3271297344
PCAR,Paccar,,75362,693718108,346023431
PKG,Packaging Corporation of America,,75677,695156109,94659319
VIAC,Paramount,b,813828,92556H206,351898965
PH,Parker,,76334,701094104,128464334
PAYX,Paychex,,723531,704326107,357959420
PYPL,PayPal,,1633917,70450Y103,1174710870
PNR,Pentair,,77360,G7S00T104,168092521
PBCT,People's United Financial,,1378946,712704105,399146321
PEP,PepsiCo,,77476,713448108,1394325021
PKI,PerkinElmer,,31791,714046109,111092149
PRGO,Perrigo,,1585364,G97822103,136089669
PFE,Pfizer,,78003,717081103,5532906271
PM,Philip Morris International,,1413329,718172109,1555866215
PSX,Phillips 66,,1534701,718546104,444403055
PNW,Pinnacle West,,764622,723484101,112373208
PXD,Pioneer Natural Resources,,1038357,723787107,166238786
PNC,PNC Financial Services,,713676,693475105,439587710
PPG,PPG Industries,,79879,693506107,236461359
PPL,PPL,,922224,69351T106,722759742
PFG,Principal,,1126328,74251V102,277968486
PG,Procter & Gamble,,80424,742718109,2493903869
PGR,Progressive,,80661,743315103,584636156
PLD,Prologis,,1045609,74340W103,631618354
PRU,Prudential,,1137774,744320102,402000000
PEG,PSEG,,788784,744573106,505710636
PSA,Public Storage,,1393311,74460D109,174654127
PHM,PulteGroup,,822416,745867101,271636582
PVH,PVH,,78239,693656100,73765459
QRVO,Qorvo,,1604778,74736K101,116608430
QCOM,Qualcomm,,804328,747525103,1168959792
PWR,Quanta,,1050915,74762E102,142256814
DGX,Quest Diagnostics,,1022079,74834L100,134692298
RL,Ralph Lauren,a,1037038,751212101,50444001
RJF,Raymond James,,720005,754730109,138785394
RTN,Raytheon Company,,1047122,755111507,278492296
RTX,Raytheon Technologies,,101829,75513E101,863264182
O,Realty Income,,726728,756109104,323383520
REG,Regency Centers,,910606,758849103,167561430
REGN,Regeneron,,872589,75886F107,107956529
RF,Regions,,1281761,7591EP100,977746749
RSG,Republic Services,,1060391,760759100,319542218
RMD,ResMed,,943819,761152107,143755986
RHI,Robert Half,,315213,770323103,116605959
ROK,Rockwell Automation,,1024478,773903109,115926960
ROL,Rollins,,84839,775711104,327449977
ROP,Roper,,882835,776696106,104041904
ROST,Ross,,745732,778296103,360509815
RCL,Royal Caribbean Group,,884887,V7780T103,209613824
SPGI,S&P Global,,64040,78409V104,244942857
CRM,Salesforce,,1108524,79466L302,881245283
SBAC,SBA Communications,a,1034054,78410G104,112776505
SLB,Schlumberger,,87347,806857108,1384374221
STX,Seagate,,1137789,G7997R103,264727301
SEE,Sealed Air,,1012100,81211K100,154519582
SRE,Sempra Energy,,1032208,816851109,279555102
NOW,ServiceNow,,1373715,81762P102,188588043
SHW,Sherwin-Williams,,89800,824348106,92308665
SPG,Simon,a,1063761,828806109,306873488
SWKS,Skyworks,,4127,83088M102,170942543
SLG,SL Green Realty,,1040971,78440X887,81032893
SJM,Smucker,,91419,832696405,114051720
SNA,Snap-on,,91440,833034101,54894330
SO,Southern Company,,92122,842587107,1048695920
LUV,Southwest Airlines,,92380,844741108,530423259
SWK,Stanley Black & Decker,,93556,854502101,151955744
SBUX,Starbucks,,829224,855244109,1186981308
STT,State Street,,93751,857477103,365985364
STE,Steris,,1757898,G8473T100,84748128
SYK,Stryker,,310764,863667101,374363915
SIVB,SVB Financial,,719739,78486Q101,51557764
SYF,Synchrony,,1601712,87165B103,650362424
SNPS,Synopsys,,883241,871607107,150371527
SYY,Sysco,,96021,871829107,511027575
TMUS,T-Mobile,,1283699,872590104,855286346
TROW,T. Rowe Price,,1113169,74144T108,234149257
TTWO,Take-Two Interactive,,946581,874054109,113295938
TPR,Tapestry,,1116132,876030107,279313791
TGT,Target,,27419,87612E106,509309114
TEL,TE Connectivity,,1385157,H84989104,334987824
FTI,TechnipFMC,,1681459,G87110105,446819287
TFX,Teleflex,,96943,879369106,46275123
TXN,Texas Instruments,,97476,882508104,934452396
TXT,Textron,,217346,883203101,228508135
TMO,Thermo Fisher Scientific,,97745,883556102,400974061
TIF,Tiffany & Co,,98246,886547108,120240654
TJX,TJX Companies,,109198,872540109,1205331667
TSCO,Tractor Supply,,916365,892356106,118646948
TT,Trane Technologies,,1466258,G8994E103,240010223
TDG,TransDigm,,1260221,893641100,53451700
TRV,Travelers,,86312,89417E109,258587343
TFC,Truist,,92230,89832Q109,766300301
TWTR,Twitter,,1418091,90184L102,775429176
TSN,Tyson,a,100493,902494103,295068900
USB,U.S. Bank,,36104,902973304,1566717423
UDR,UDR,,74208,902653104,290576967
ULTA,Ulta Beauty,,1403568,90384S303,58263453
UA,Under Armour,c,1336917,904311206,228845897
UAA,Under Armour,a,1336917,904311107,188186659
UNP,Union Pacific,,100885,907818108,695562065
UAL,United Airlines,,100517,910047109,253555010
UPS,United Parcel Service,b,1090727,911312106,700307853
URI,United Rentals,,1067701,911363109,75486739
UNH,UnitedHealth Group,,731766,91324P102,947507339
UHS,Universal Health Services,b,352915,913903100,80640291
UNM,Unum,,5513,91529Y106,207021338
VLO,Valero,,1035002,91913Y100,411902968
VAR,Varian Medical Systems,,203527,92220P105,90966025
VTR,Ventas,,740260,92276F100,372696503
VRSN,Verisign,,1014473,92343E102,117610042
VRSK,Verisk,,1442145,92345Y106,163765896
VZ,Verizon,,732712,92343V104,4135783998
VRTX,Vertex,,875320,92532F100,257123769
VFC,VF Corporation,,103379,918204108,399018442
V,Visa,a,1403161,92826C839,1717782204
VNO,Vornado Realty Trust,,899689,929042109,190849920
VMC,Vulcan Materials,,1396009,929160109,132335458
WAB,Wabtec,,943452,929740108,190640309
WBA,Walgreens Boots Alliance,,1618921,931427108,892628050
WMT,Walmart,,104169,931142103,2842287129
WM,Waste Management,,823768,94106L109,424239252
WAT,Waters,,1000697,941848103,65098681
WEC,WEC Energy Group,,783325,92939U106,315435597
WCG,WellCare,,1279363,94946T106,50322819
WFC,Wells Fargo,,72971,949746101,4275974012
WELL,Welltower,,766704,95040Q104,405670222
WDC,Western Digital,,106040,958102105,296819449
WU,Western Union,,1365135,959802109,420767388
WRK,WestRock,,1732845,96145D105,257710190
WY,Weyerhaeuser,,106535,962166104,745090930
WHR,Whirlpool,,106640,963320106,63268182
WMB,Williams,,107263,969457100,1212040410
WTW,Willis Towers Watson,,1140536,G96629103,128711747
WYNN,Wynn Resorts,,1174922,983134107,107445502
XEL,Xcel Energy,,72903,98389B100,522378650
XRX,Xerox,,108772,98421M106,217960668
XLNX,Xilinx,,743988,983919101,251617372
XYL,Xylem,,1524472,98419M100,180064652
YUM,Yum! Brands,,1041061,988498101,302914296
ZBRA,Zebra,a,877212,989207105,53968611
ZBH,Zimmer Biomet,,1136869,98956P102,205562484
ZION,Zions Bancorp,,109380,989701107,172724432
ZTS,Zoetis,,1555280,98978V103,476755698
