Symbol,Name,Class,CIK,CUSIP,shares_outstanding
MMM,3M,,66740,88579Y101,576813155
AOS,A. O. Smith,,91142,831865209,135411055
ABT,Abbott,,1800,002824100,1772341672
ABBV,AbbVie,,1551152,00287Y109,1765276791
ABMD,Abiomed,,815094,003654100,45150832
ACN,Accenture,a,1467373,G1151C101,659247699
ATVI,Activision Blizzard,,718877,00507V109,772593720
ADM,ADM,,7084,039483102,556147040
ADBE,Adobe,,796343,00724F101,479618904
ADP,ADP,,8670,053015103,429180355
AAP,Advance Auto Parts,,1158449,00751Y106,68428662
AES,AES,,874761,00130H105,665131148
AFL,Aflac,,4977,001055102,704745713
A,Agilent Technologies,,1090872,00846U101,307841298
AIG,AIG,,5272,026874784,861493209
APD,Air Products,,2969,009158106,220992194
AKAM,Akamai,,1086222,00971T101,162759708
ALK,Alaska Air Group,,766421,011659109,123655585
ALB,Albemarle,,915913,012653101,106422687
ARE,Alexandria,,1035443,015271109,133408147
ALXN,Alexion Pharmaceuticals,,899866,015351109,218946216
ALGN,Align,,1097149,016255101,78833589
ALLE,Allegion,,1579241,G0176J109,92081744
LNT,Alliant Energy,,352541,018802108,249759398
ALL,Allstate,,899051,020002101,305880802
GOOGL,Alphabet,a,1652044,02079K305,300600186
GOOG,Alphabet,c,1652044,02079K107,330818527
MO,Altria,,764180,02209S103,1858413735
AMZN,Amazon,,1018724,023135106,501542900
AMCR,Amcor,,1748790,G0250X107,1568481519
AMD,AMD,,2488,007903107,1195154295
AEE,Ameren,,1002910,023608102,247163561
AAL,American Airlines Group,,6201,02376R102,508618585
AEP,American Electric Power,,4904,025537101,496317306
AXP,American Express,,4962,025816109,805193263
AMT,American Tower,,1053507,03027X100,444050213
AWK,American Water,,1410636,030420103,181249861
AMP,Ameriprise Financial,,820027,03076C106,118741511
ABC,AmerisourceBergen,,1140859,03073E105,204212198
AME,Ametek,,1037868,031100100,229950272
AMGN,Amgen,,318154,031162100,583088219
APH,Amphenol,a,820313,032095101,298975238
ADI,Analog Devices,,6281,032654105,369372849
ANSS,Ansys,,1013462,03662Q105,85851121
ANTM,Anthem,,1156039,036752103,249381752
AON,Aon,a,315293,G0403H108,229616563
APA,Apache Corporation,,6769,037411105,377471534
AAPL,Apple,,320193,037833100,14624386000
AMAT,Applied Materials,,6951,038222105,913809425
APTV,Aptiv,,1521332,G6095L109,270025374
ANET,Arista,,1596532,040413106,75774750
AIZ,Assurant,,1267238,04621X108,59061998
T,AT&T,,732717,00206R102,7125652173
ATO,Atmos Energy,,731802,049560105,124906700
ADSK,Autodesk,,769397,052769106,219486917
AZO,AutoZone,,866787,053332102,23202586
AVB,AvalonBay Communities,,915912,053484101,139995486
AVY,Avery Dennison,,8818,053611109,83429928
BKR,Baker Hughes,a,1701605,05722G100,680307549
BLL,Ball,,9389,058498106,326922187
BAC,Bank of America,,70858,060505104,8655129283
BBWI,Bath & Body Works,,701985,070830104,277966220
BAX,Baxter,,10456,071813109,509684061
BDX,Becton Dickinson,,10795,075887109,289989005
WRB,Berkley,,11544,084423102,178151718
BRK.B,Berkshire Hathaway,b,1067983,084670702,1380280461
BBY,Best Buy,,764478,086516101,258873469
BIO,Bio-Rad,a,12208,090572207,24701554
BIIB,Biogen,,875045,09062X103,154904337
BLK,BlackRock,,1364742,09247X101,152501264
BK,BNY Mellon,,1390777,064058100,886132825
BA,Boeing,,12927,097023105,564510116
BKNG,Booking Holdings,,1075531,09857L108,40952841
BWA,BorgWarner,,908255,099724106,233871670
BXP,Boston Properties,,1037540,101121101,155649922
BSX,Boston Scientific,,885725,101137107,1431496728
BMY,Bristol Myers Squibb,,14272,110122108,2259688291
AVGO,Broadcom,,1730168,11135F101,405279102
BR,Broadridge,,1383312,11133T103,115477348
BF.B,Brown–Forman,b,14693,115637209,309401094
CHRW,C.H. Robinson,,1043277,12541W209,135592224
CDNS,Cadence,,813672,127387108,278931969
CPB,Campbell's,,16732,134429109,302384895
COF,Capital One,,927628,14040H105,457384610
CAH,Cardinal Health,,721371,14149Y108,293080915
KMX,CarMax,,1170010,143130102,164076032
CCL,Carnival,,815097,143658300,717989834
CARR,Carrier,,1783180,14448C104,866681591
CTLT,Catalent,,1596783,148806102,164413513
CAT,Caterpillar,,18230,149123101,543239242
CBOE,Cboe,,1374310,12503M108,108230746
CBRE,CBRE,a,1138118,12504L109,335414607
CDW,CDW,,1402057,12514G108,142882027
CE,Celanese,,1306830,150870103,117208649
CNC,Centene,,1071739,15135B101,579736380
CNP,CenterPoint Energy,,1130310,15189T107,544820554
CERN,Cerner,,804753,156782104,306297770
CF,CF Industries,,1324404,125269100,213902649
SCHW,Charles Schwab,,316709,808513105,1620318195
CHTR,Charter Communications,a,1091667,16119P108,199929737
CVX,Chevron,,93410,166764100,1867322843
CMG,Chipotle Mexican Grill,,1058090,169656105,27976694
CB,Chubb,,896159,H1467J104,451369653
CHD,Church & Dwight,,313927,171340102,248096197
CI,Cigna,,1739940,125523100,362577240
CINF,Cincinnati Financial,,20286,172062101,160885934
CTAS,Cintas,,723254,172908105,104613140
CSCO,Cisco,,858877,17275R102,4230094393
C,Citigroup,,831001,172967424,2081958647
CFG,Citizens,,759944,174610105,426990734
CTXS,Citrix,,877890,177376100,123231286
CLX,Clorox,,21076,189054109,126089355
CME,CME Group,a,1156375,12572Q105,358927509
CMS,CMS Energy,,811156,125896100,286329262
KO,Coca-Cola,,21344,191216100,4296995998
CTSH,Cognizant,a,1058290,192446102,536645354
CL,Colgate-Palmolive,,21665,194162103,857171345
CMCSA,Comcast,a,1166691,20030N101,4565800274
CMA,Comerica,,28412,200340107,139072733
ED,Con Edison,,1047862,209115104,334732836
CAG,Conagra Brands,,23217,205887102,488538151
CXO,Concho Resources,,1358071,20605P101,196413232
COP,ConocoPhillips,,1163165,20825C104,1072739736
STZ,Constellation Brands,a,16918,21036P108,169511028
COO,CooperCompanies,,711404,216648402,51920048
CPRT,Copart,,900075,217204106,235983626
GLW,Corning,,24741,219350105,763439189
CTVA,Corteva,,1755672,22052L104,746187318
COST,Costco,,909832,22160K105,441228027
CTRA,Coterra,,858470,127097103,398579881
CCI,Crown Castle,,1051470,22822V101,428052387
CSX,CSX,,277948,126408103,764777975
CMI,Cummins,,26172,231021106,147999233
CVS,CVS Health,,64803,126650100,1308847999
DHI,D.R. Horton,,882184,23331A109,364122932
DHR,Danaher,,313616,235851102,710196514
DRI,Darden,,940944,237194105,130219663
DVA,DaVita,,927066,23918K108,115186813
DE,Deere & Co.,,315189,244199105,313368258
DAL,Delta Air Lines,,27904,247361702,637735631
XRAY,Dentsply Sirona,,818479,24906P109,218532863
DVN,Devon,,1090012,25179M103,382572527
DXCM,DexCom,,1093557,252131107,95961742
FANG,Diamondback,,1539838,25278X109,157922040
DLR,Digital Realty,,1297996,253868103,275746120
DFS,Discover,,1393612,254709108,306478156
DISCA,Discovery,a,1437107,25470F104,160285892
DISCK,Discovery,c,1437107,25470F302,328768053
DISH,Dish,a,1001082,25470M109,287347643
DIS,Disney,,1744489,254687106,1808957504
DG,Dollar General,,29534,256677105,247428810
DLTR,Dollar Tree,,935703,256746108,236456616
D,Dominion Energy,,715957,25746U109,820361786
DPZ,Domino's,,1286681,25754A201,39398651
DOV,Dover,,29905,260003108,144082589
DOW,Dow,,1751788,260557103,741744910
DTE,DTE,,936340,233331107,193549714
DUK,Duke Energy,,1326160,26441C204,735775456
DRE,Duke Realty,,783280,264411505,371518917
DD,DuPont,,1666700,26614N102,733842584
DXC,DXC Technology,,1688568,23355L106,254338041
EMN,Eastman,,915389,277432100,135466609
ETN,Eaton,,1551182,G29183103,398616304
EBAY,eBay,,1065088,278642103,692466550
ECL,Ecolab,,31462,278865100,285444526
EIX,Edison International,,827052,281020107,378444795
EW,Edwards Lifesciences,,1099800,28176E108,622896478
EA,Electronic Arts,,712515,285512109,289554198
EMR,Emerson,,32604,291011104,597883798
ETR,Entergy,,65984,29364G103,200225300
EOG,EOG Resources,,821189,26875P101,583004307
EFX,Equifax,,33185,294429105,121622570
EQIX,Equinix,,1101239,29444U700,88922181
EQR,Equity Residential,,906107,29476L107,372239984
ESS,Essex,,920522,297178105,65206418
EL,Estée Lauder Companies,a,1001250,518439104,226147721
ETSY,Etsy,,1370637,29786A106,124087009
RE,Everest,,1095073,G3223R108,39967869
EVRG,Evergy,,1711269,30034W106,226830348
ES,Eversource,,72741,30040W108,342769959
EXC,Exelon,,1109357,30161N101,975560848
EXPE,Expedia Group,,1324424,30212P303,135880494
EXPD,Expeditors,,746515,302130109,168665465
EXR,Extra Space Storage,,1289490,30225T102,129178977
XOM,ExxonMobil,,34088,30231G102,4228234105
FFIV,F5,,1048695,315616102,61428550
FAST,Fastenal,,815556,311900104,573992297
FRT,Federal Realty,,34903,313745101,75644109
FDX,FedEx,,1048911,31428X106,263061626
FITB,Fifth Third Bank,,35527,316773100,712357694
FRC,First Republic,,1132979,33616C100,172179117
FE,FirstEnergy,,1031296,337932107,542584986
FIS,FIS,,1136893,31620M106,620203534
FISV,Fiserv,,798354,337738108,670212785
FLT,Fleetcor,,1175454,339041105,83636845
FLIR,FLIR Systems,,354908,302445101,131138065
FLS,Flowserve,,30625,34354P105,130226252
FMC,FMC,,37785,302491303,129755083
F,Ford,,37996,345370860,3907565166
FTNT,Fortinet,,1262039,34959E109,162161578
FTV,Fortive,,1659166,34959J108,337167125
FBHS,Fortune Brands,,1519751,34964C106,138782924
FOX,Fox Corporation,b,1754301,35137L204,259000756
FOXA,Fox Corporation,a,1754301,35137L105,339755016
BEN,Franklin Templeton,,38777,354613101,501694345
FCX,Freeport-McMoRan,,831259,35671D857,1452642404
AJG,Gallagher,,354190,363576109,192322000
GPS,Gap,,39911,364760108,373775593
GRMN,Garmin,,1121788,H2906T109,191237445
IT,Gartner,,749251,366651107,89268382
GE,GE,,40545,369604301,8759801434
GD,General Dynamics,,40533,369550108,286960920
GIS,General Mills,,40704,370334104,611350579
GPC,Genuine Parts,,40987,372460105,144289376
GILD,Gilead,,882095,375558103,1253594993
GPN,Global Payments,,1123360,37940X102,299309683
GL,Globe Life,,320335,37959E102,105251779
GM,GM,,1467858,37045V100,1431263623
GS,Goldman Sachs,,886982,38141G104,344069486
GWW,Grainger,,277135,384802104,53667003
HAL,Halliburton,,45012,406216101,882972858
HBI,Hanesbrands,,1359841,410345102,348272430
HIG,Hartford (The),,874766,416515104,358289195
HAS,Hasbro,,46080,418056107,137028273
HCA,HCA Healthcare,,860730,40412C101,338272280
PEAK,Healthpeak,,765880,42250P103,538346068
HSIC,Henry Schein,,1000228,806407102,142773665
HSY,Hershey's,,47111,427866108,147494000
HES,Hess,,4447,42809H107,307078152
HPE,Hewlett Packard Enterprise,,1645590,42824C109,1288489391
HLT,Hilton,,1585689,43300A203,277400656
HFC,HollyFrontier,,48039,436106108,162016631
HOLX,Hologic,,859737,436440101,257785795
HD,Home Depot,,354950,437076102,1076522560
HON,Honeywell,,773840,438516106,701686826
HRL,Hormel,,48465,440452100,539710228
HST,Host Hotels & Resorts,,1070750,44107P104,705305987
HWM,Howmet Aerospace,,4281,443201108,434602756
HPQ,HP,,47217,40434L105,1332253904
HUM,Humana,,49071,444859102,132340919
HII,Huntington Ingalls Industries,,1501585,446413106,40492459
HBAN,Huntington National Bank,,49196,446150104,1017310587
IBM,IBM,,51143,459200101,891051916
IEX,IDEX,,832101,45167R104,75657937
IDXX,Idexx Laboratories,,874716,45168D104,85227136
INFO,IHS Markit,,1598014,G47567105,397938621
ITW,Illinois Tool Works,,49826,452308109,316516380
ILMN,Illumina,,1110803,452327109,146000000
INCY,Incyte,,879169,45337C102,218900281
IR,Ingersoll Rand,,1699150,45687V106,417452410
INTC,Intel,,50863,458140100,4097054054
ICE,Intercontinental Exchange,,1571949,45866F104,555941005
IFF,International Flavors & Fragrances,,51253,459506101,106933085
IP,International Paper,,51434,460146103,393094777
IPG,Interpublic Group,,51644,460690100,390015250
INTU,Intuit,,896878,461202103,262222007
ISRG,Intuitive Surgical,,1035267,46120E602,117463111
IVZ,Invesco,,914208,G491BT108,459333274
IPGP,IPG Photonics,,1111928,44980X109,53284332
IQV,IQVIA,,1478242,46266C105,191640813
IRM,Iron Mountain,,1020569,46284V101,288163500
JBHT,J.B. Hunt,,728535,445658107,105678955
JKHY,Jack Henry & Associates,,779152,426281101,76436620
J,Jacobs,,52988,469814107,129853097
JNJ,Johnson & Johnson,,200406,478160104,2632604386
JCI,Johnson Controls,,833444,G51502105,729147405
JPM,JPMorgan Chase,,19617,46625H100,3048196556
JNPR,Juniper Networks,,1043604,48203R104,330392617
KSU,Kansas City Southern,,54480,485170302,93683715
K,Kellogg's,,55067,487836108,343718626
KEY,KeyCorp,,91576,493267108,976316761
KEYS,Keysight,,1601046,49338L103,186820798
KMB,Kimberly-Clark,,55785,494368103,340296792
KIM,Kimco Realty,,879101,49446R109,432500246
KMI,Kinder Morgan,,1506307,49456B101,2263728654
KLAC,KLA,,319201,482480100,154679954
KHC,Kraft Heinz,,1637459,500754106,1222610921
KR,Kroger,,56873,501044101,772161858
LHX,L3Harris,,202058,502431109,212184389
LH,LabCorp,,920148,50540R409,97400000
LRCX,Lam Research,,707549,512807108,144555475
LW,Lamb Weston,,1679273,513272104,146335179
LVS,Las Vegas Sands,,1300514,517834107,763822131
LEG,Leggett & Platt,,58492,524660107,132480691
LDOS,Leidos,,1336920,525327102,142283172
LEN,Lennar,a,920760,526057104,275102475
LLY,Lilly,,59478,532457108,956548596
LNC,Lincoln Financial,,59558,534187109,193258912
LIN,Linde,,1707925,G5494J103,524862162
LYV,Live Nation Entertainment,,1335258,538034109,217162198
LKQ,LKQ Corporation,,1065696,501889208,304327906
LMT,Lockheed Martin,,936468,539830109,279742164
L,Loews Corporation,,60086,540424108,276342232
LOW,Lowe's,,60667,548661107,746631928
LUMN,Lumen,,18926,550241103,1097269766
LYB,LyondellBasell,,1489393,N53745100,333893640
MTB,M&T Bank,,36270,55261F104,128288332
MRO,Marathon Oil,,101778,565849106,789408111
MPC,Marathon Petroleum,,1510295,56585A102,650665489
MKTX,MarketAxess,,1278021,57060D108,37965899
MAR,Marriott International,a,1048286,571903202,324326046
MMC,Marsh & McLennan,,62709,571748102,507016172
MLM,Martin Marietta,,916076,573284106,62272713
MAS,Masco,,62996,574599106,261674327
MA,Mastercard,a,1141391,57636Q104,989579170
MXIM,Maxim Integrated,,743316,57772K101,267154289
MKC,McCormick,nonvoting,63754,579780206,153964970
MCD,McDonald's,,63908,580135101,745100026
MCK,McKesson,,927653,58155Q103,160582091
MDT,Medtronic,,1613103,G5960L103,1344756667
MRK,Merck,,310158,58933Y105,2529758483
FB,Meta,a,1326801,30303M102,2404050653
MET,MetLife,,1099219,59156R108,902576342
MTD,Mettler Toledo,,1037646,592688105,23796483
MGM,MGM Resorts,,789570,552953101,493717404
MCHP,Microchip,,827054,595017104,257678407
MU,Micron,,723125,595112103,1113015935
MSFT,Microsoft,,789019,594918104,7562388040
MAA,Mid-America Apartments,,912595,59522J103,114368444
MHK,Mohawk Industries,,851968,608190104,71197400
TAP,Molson Coors,b,24545,60871R209,199354251
MDLZ,Mondelez International,a,1103982,609207105,1429585650
MNST,Monster Beverage,,865752,61174X109,527739507
MCO,Moody's,,1059556,615369105,187798913
MS,Morgan Stanley,,895421,617446448,1730016314
MOS,Mosaic,,1285785,61945C103,379090013
MSI,Motorola Solutions,,68505,620076307,169568813
MSCI,MSCI,,1408198,55354G100,83066303
NDAQ,Nasdaq,,1120193,631103108,164105540
NTAP,NetApp,,1002047,64110D104,222488711
NFLX,Netflix,,1065280,64110L106,441786534
NWL,Newell Brands,,814453,651229106,424300000
NEM,Newmont,,1164727,651639106,803285527
NWS,News Corp,b,1564708,65249B208,199630240
NWSA,News Corp,a,1564708,65249B109,390264208
NEE,NextEra Energy,,753308,65339F101,489767218
NLSN,Nielsen,,1492633,G6518L108,356996140
NKE,Nike,b,320187,654106103,1254992462
NI,NiSource,,1111711,65473P105,383154156
NSC,Norfolk Southern,,702165,655844108,253997554
NTRS,Northern Trust,,73124,665859104,208120922
NOC,Northrop Grumman,,1133421,666807102,166715525
NLOK,NortonLifeLock,,849399,668771108,591577557
NCLH,Norwegian Cruise Line Holdings,,1513761,G66721104,275630068
NOV,Nov,,1021860,62955J103,388269303
NRG,NRG Energy,,1013871,629377508,244187092
NUE,Nucor,,73309,670346105,301927446
NVDA,Nvidia,,1045810,67066G104,618010989
NVR,NVR,,906163,62944T105,3713973
ORLY,O'Reilly Automotive,,898173,67103H107,73052332
OXY,Occidental Petroleum,,797468,674599105,931191997
ODFL,Old Dominion,,878927,679580100,117331447
OMC,Omnicom Group,,29989,681919106,214954212
OKE,Oneok,,1039684,682680103,444354454
ORCL,Oracle,,1341439,68389X105,2989818417
OTIS,Otis,,1781335,68902V107,433193480
PCAR,Paccar,,75362,693718108,346343908
PKG,Packaging Corporation of America,,75677,695156109,94832242
VIAC,Paramount,b,813828,92556H206,564519965
PH,Parker,,76334,701094104,128796332
PAYX,Paychex,,723531,704326107,359492375
PAYC,Paycom,,1590955,70432V102,58518802
PYPL,PayPal,,1633917,70450Y103,1172177546
PNR,Pentair,,77360,G7S00T104,166341541
PBCT,People's United Financial,,1378946,712704105,424835434
PEP,PepsiCo,,77476,713448108,1381868220
PKI,PerkinElmer,,31791,714046109,111909442
PRGO,Perrigo,,1585364,G97822103,136487285
PFE,Pfizer,,78003,717081103,5557829885
PM,Philip Morris International,,1413329,718172109,1557308717
PSX,Phillips 66,,1534701,718546104,436799059
PNW,Pinnacle West,,764622,723484101,112585541
PXD,Pioneer Natural Resources,,1038357,723787107,164355773
PNC,PNC Financial Services,,713676,693475105,423850832
POOL,Pool Corporation,,945841,73278L105,40133769
PPG,PPG Industries,,79879,693506107,236201949
PPL,PPL,,922224,69351T106,768812092
PFG,Principal,,1126328,74251V102,274677501
PG,Procter & Gamble,,80424,742718109,2479712135
PGR,Progressive,,80661,743315103,585595802
PLD,Prologis,,1045609,74340W103,739103000
PRU,Prudential,,1137774,744320102,395652173
PEG,PSEG,,788784,744573106,505826667
PSA,Public Storage,,1393311,74460D109,174814912
PHM,PulteGroup,,822416,745867101,268108496
PVH,PVH,,78239,693656100,71095266
QRVO,Qorvo,,1604778,74736K101,114108208
QCOM,Qualcomm,,804328,747525103,1130051422
PWR,Quanta,,1050915,74762E102,138580926
DGX,Quest Diagnostics,,1022079,74834L100,134685400
RL,Ralph Lauren,a,1037038,751212101,48202410
RJF,Raymond James,,720005,754730109,137042748
RTX,Raytheon Technologies,,101829,75513E101,1520779228
O,Realty Income,,726728,756109104,349006530
REG,Regency Centers,,910606,758849103,169675142
REGN,Regeneron,,872589,75886F107,104775414
RF,Regions,,1281761,7591EP100,960338038
RSG,Republic Services,,1060391,760759100,318644216
RMD,ResMed,,943819,761152107,144910259
RHI,Robert Half,,315213,770323103,113990774
ROK,Rockwell Automation,,1024478,773903109,116123635
ROL,Rollins,,84839,775711104,327750821
ROP,Roper,,882835,776696106,104817328
ROST,Ross,,745732,778296103,356236894
RCL,Royal Caribbean Group,,884887,V7780T103,221043893
SPGI,S&P Global,,64040,78409V104,240705494
CRM,Salesforce,,1108524,79466L302,911785714
SBAC,SBA Communications,a,1034054,78410G104,111401216
SLB,Schlumberger,,87347,806857108,1391987310
STX,Seagate,,1137789,G7997R103,257102377
SEE,Sealed Air,,1012100,81211K100,155302735
SRE,Sempra Energy,,1032208,816851109,288768473
NOW,ServiceNow,,1373715,81762P102,195064130
SHW,Sherwin-Williams,,89800,824348106,90826953
SPG,Simon,a,1063761,828806109,305944731
SWKS,Skyworks,,4127,83088M102,166432470
SLG,SL Green Realty,,1040971,78440X887,72845041
SJM,Smucker,,91419,832696405,114082546
SNA,Snap-on,,91440,833034101,54265474
SO,Southern Company,,92122,842587107,1056240783
LUV,Southwest Airlines,,92380,844741108,590168469
SWK,Stanley Black & Decker,,93556,854502101,160118680
SBUX,Starbucks,,829224,855244109,1172030841
STT,State Street,,93751,857477103,352697499
STE,Steris,,1757898,G8473T100,85231720
SYK,Stryker,,310764,863667101,375788647
SIVB,SVB Financial,,719739,78486Q101,51784393
SYF,Synchrony,,1601712,87165B103,583785650
SNPS,Synopsys,,883241,871607107,152222778
SYY,Sysco,,96021,871829107,509158771
TMUS,T-Mobile,,1283699,872590104,1239996851
TROW,T. Rowe Price,,1113169,74144T108,226601057
TTWO,Take-Two Interactive,,946581,874054109,114843503
TPR,Tapestry,,1116132,876030107,277072800
TGT,Target,,27419,87612E106,500684399
TEL,TE Connectivity,,1385157,H84989104,330487758
FTI,TechnipFMC,,1681459,G87110105,449383981
TDY,Teledyne,,1094285,879360105,36877546
TFX,Teleflex,,96943,879369106,46551119
TER,Teradyne,,97210,880770102,166049079
TSLA,Tesla,,1318605,88160R101,774071177
TXN,Texas Instruments,,97476,882508104,917634691
TXT,Textron,,217346,883203101,228718106
TMO,Thermo Fisher Scientific,,97745,883556102,396277856
TIF,Tiffany & Co,,98246,886547108,121396355
TJX,TJX Companies,,109198,872540109,1200079079
TSCO,Tractor Supply,,916365,892356106,116492464
TT,Trane Technologies,,1466258,G8994E103,239980932
TDG,TransDigm,,1260221,893641100,54367937
TRV,Travelers,,86312,89417E109,253286045
TFC,Truist,,92230,89832Q109,1348112779
TWTR,Twitter,,1418091,90184L102,794002456
TYL,Tyler Technologies,,860731,902252105,40297044
TSN,Tyson,a,100493,902494103,294131033
USB,U.S. Bank,,36104,902973304,1506411950
UDR,UDR,,74208,902653104,294659655
ULTA,Ulta Beauty,,1403568,90384S303,56328810
UA,Under Armour,c,1336917,904311206,231621537
UAA,Under Armour,a,1336917,904311107,188533637
UNP,Union Pacific,,100885,907818108,674797314
UAL,United Airlines,,100517,910047109,290989879
UPS,United Parcel Service,b,1090727,911312106,713359544
URI,United Rentals,,1067701,911363109,72119910
UNH,UnitedHealth Group,,731766,91324P102,949331216
UHS,Universal Health Services,b,352915,913903100,77716098
UNM,Unum,,5513,91529Y106,203630869
VLO,Valero,,1035002,91913Y100,407781147
VAR,Varian Medical Systems,,203527,92220P105,91177898
VTR,Ventas,,740260,92276F100,374000305
VRSN,Verisign,,1014473,92343E102,114248822
VRSK,Verisk,,1442145,92345Y106,162520340
VZ,Verizon,,732712,92343V104,4138093926
VRTX,Vertex,,875320,92532F100,260149921
VFC,VF Corporation,,103379,918204108,389906526
VTRS,Viatris,,1792044,92556V106,532989729
V,Visa,a,1403161,92826C839,1689821732
VNT,Vontier,,1786842,928881101,168378906
VNO,Vornado Realty Trust,,899689,929042109,191259787
VMC,Vulcan Materials,,1396009,929160109,132495379
WAB,Wabtec,,943452,929740108,190319427
WBA,Walgreens Boots Alliance,,1618921,931427108,865922387
WMT,Walmart,,104169,931142103,2832329384
WM,Waste Management,,823768,94106L109,422560976
WAT,Waters,,1000697,941848103,62015570
WEC,WEC Energy Group,,783325,92939U106,315434531
WFC,Wells Fargo,,72971,949746101,4130680568
WELL,Welltower,,766704,95040Q104,417303671
WST,West Pharmaceutical Services,,105770,955306105,73908783
WDC,Western Digital,,106040,958102105,303504808
WU,Western Union,,1365135,959802109,411084507
WRK,WestRock,,1732845,96145D105,261561744
WY,Weyerhaeuser,,106535,962166104,746376714
WHR,Whirlpool,,106640,963320106,62499602
WMB,Williams,,107263,969457100,1213576736
WTW,Willis Towers Watson,,1140536,G96629103,128891475
WYNN,Wynn Resorts,,1174922,983134107,107863886
XEL,Xcel Energy,,72903,98389B100,525429949
XRX,Xerox,,108772,98421M106,202190764
XLNX,Xilinx,,743988,983919101,244977131
XYL,Xylem,,1524472,98419M100,180160069
YUM,Yum! Brands,,1041061,988498101,300978681
ZBRA,Zebra,a,877212,989207105,53323102
ZBH,Zimmer Biomet,,1136869,98956P102,207220636
ZION,Zions Bancorp,,109380,989701107,164001752
ZTS,Zoetis,,1555280,98978V103,475225878
