Symbol,Name,Class,CIK,CUSIP,shares_outstanding
MMM,3M,,66740,88579Y101,578649645
AOS,A. O. Smith,,91142,831865209,133611475
ABT,Abbott,,1800,002824100,1772861335
ABBV,AbbVie,,1551152,00287Y109,1766886360
ABMD,Abiomed,,815094,003654100,45346312
ACN,Accenture,a,1467373,G1151C101,664802004
ATVI,Activision Blizzard,,718877,00507V109,777495618
ADM,ADM,,7084,039483102,559167167
ADBE,Adobe,,796343,00724F101,476373626
ADP,ADP,,8670,053015103,423884499
AAP,Advance Auto Parts,,1158449,00751Y106,64510058
AES,AES,,874761,00130H105,666400302
AFL,Aflac,,4977,001055102,672801168
A,Agilent Technologies,,1090872,00846U101,303153516
AIG,AIG,,5272,026874784,856300229
APD,Air Products,,2969,009158106,221364106
AKAM,Akamai,,1086222,00971T101,162892088
ALK,Alaska Air Group,,766421,011659109,124976910
ALB,Albemarle,,915913,012653101,116870548
ARE,Alexandria,,1035443,015271109,151508544
ALGN,Align,,1097149,016255101,79054136
ALLE,Allegion,,1579241,G0176J109,89758121
LNT,Alliant Energy,,352541,018802108,250256501
ALL,Allstate,,899051,020002101,296689024
GOOG,Alphabet,c,1652044,02079K107,320955762
GOOGL,Alphabet,a,1652044,02079K305,301006677
MO,Altria,,764180,02209S103,1845591760
AMZN,Amazon,,1018724,023135106,505928770
AMCR,Amcor,,1748790,G0250X107,1539992052
AMD,AMD,,2488,007903107,1213507443
AEE,Ameren,,1002910,023608102,256603966
AAL,American Airlines Group,,6201,02376R102,646322995
AEP,American Electric Power,,4904,025537101,500124728
AXP,American Express,,4962,025816109,796382478
AMT,American Tower,,1053507,03027X100,452526890
AWK,American Water,,1410636,030420103,181487558
AMP,Ameriprise Financial,,820027,03076C106,114481400
ABC,AmerisourceBergen,,1140859,03073E105,206960542
AME,Ametek,,1037868,031100100,231108039
AMGN,Amgen,,318154,031162100,569903873
APH,Amphenol,a,820313,032095101,598009999
ADI,Analog Devices,,6281,032654105,368429752
ANSS,Ansys,,1013462,03662Q105,87217409
ANTM,Anthem,,1156039,036752103,243995730
AON,Aon,a,315293,G0403H108,225714213
APA,APA Corporation,,1841666,03743Q108,378004598
AAPL,Apple,,320193,037833100,16559582538
AMAT,Applied Materials,,6951,038222105,906936460
APTV,Aptiv,,1521332,G6095L109,270492303
ANET,Arista,,1596532,040413106,76583496
AIZ,Assurant,,1267238,04621X108,59410783
T,AT&T,,732717,00206R102,7140000000
ATO,Atmos Energy,,731802,049560105,130750319
ADSK,Autodesk,,769397,052769106,219959640
AZO,AutoZone,,866787,053332102,21438724
AVB,AvalonBay Communities,,915912,053484101,139612545
AVY,Avery Dennison,,8818,053611109,82926855
BKR,Baker Hughes,a,1701605,05722G100,818278993
BLL,Ball,,9389,058498106,327182205
BAC,Bank of America,,70858,060505104,8465256181
BBWI,Bath & Body Works,,701985,070830104,272443861
BAX,Baxter,,10456,071813109,500653771
BDX,Becton Dickinson,,10795,075887109,287230051
WRB,Berkley,,11544,084423102,177481768
BRK.B,Berkshire Hathaway,b,1067983,084670702,1325713876
BBY,Best Buy,,764478,086516101,249057447
BIO,Bio-Rad,a,12208,090572207,24700794
TECH,Bio-Techne,,842023,09073M104,38989910
BIIB,Biogen,,875045,09062X103,149401231
BLK,BlackRock,,1364742,09247X101,152310787
BK,BNY Mellon,,1390777,064058100,863308921
BA,Boeing,,12927,097023105,585827504
BKNG,Booking Holdings,,1075531,09857L108,41057601
BWA,BorgWarner,,908255,099724106,239809791
BXP,Boston Properties,,1037540,101121101,156133711
BSX,Boston Scientific,,885725,101137107,1422850498
BMY,Bristol Myers Squibb,,14272,110122108,2222231467
AVGO,Broadcom,,1730168,11135F101,410737299
BR,Broadridge,,1383312,11133T103,116153958
BRO,Brown & Brown,,79282,115236101,281678649
BF.B,Brown–Forman,b,14693,115637209,309669487
CHRW,C.H. Robinson,,1043277,12541W209,132118677
CDNS,Cadence,,813672,127387108,276845274
CZR,Caesars Entertainment,,1590895,12769G100,211852620
CPB,Campbell's,,16732,134429109,302657096
COF,Capital One,,927628,14040H105,446201893
CAH,Cardinal Health,,721371,14149Y108,290339327
KMX,CarMax,,1170010,143130102,162892694
CCL,Carnival,,815097,143658300,974652259
CARR,Carrier,,1783180,14448C104,867945556
CTLT,Catalent,,1596783,148806102,170579503
CAT,Caterpillar,,18230,149123101,547474676
CBOE,Cboe,,1374310,12503M108,106639621
CBRE,CBRE,a,1138118,12504L109,335715565
CDW,CDW,,1402057,12514G108,138417995
CE,Celanese,,1306830,150870103,111398859
CNC,Centene,,1071739,15135B101,582985877
CNP,CenterPoint Energy,,1130310,15189T107,589390746
CDAY,Ceridian,,1725057,15677J108,149662871
CERN,Cerner,,804753,156782104,297364476
CF,CF Industries,,1324404,125269100,214881372
CRL,Charles River,,1100682,159864107,50358694
SCHW,Charles Schwab,,316709,808513105,1808144666
CHTR,Charter Communications,a,1091667,16119P108,183875435
CVX,Chevron,,93410,166764100,1933847550
CMG,Chipotle Mexican Grill,,1058090,169656105,28108607
CB,Chubb,,896159,H1467J104,440785738
CHD,Church & Dwight,,313927,171340102,245449491
CI,Cigna,,1739940,125523100,341142465
CINF,Cincinnati Financial,,20286,172062101,161160132
CTAS,Cintas,,723254,172908105,102990167
CSCO,Cisco,,858877,17275R102,4215537197
C,Citigroup,,831001,172967424,2027227626
CFG,Citizens,,759944,174610105,426042798
CTXS,Citrix,,877890,177376100,124213718
CLX,Clorox,,21076,189054109,123252005
CME,CME Group,a,1156375,12572Q105,359128358
CMS,CMS Energy,,811156,125896100,289626426
KO,Coca-Cola,,21344,191216100,4315356760
CTSH,Cognizant,a,1058290,192446102,526115681
CL,Colgate-Palmolive,,21665,194162103,843540471
CMCSA,Comcast,a,1166691,20030N101,4580339876
CMA,Comerica,,28412,200340107,135655124
ED,Con Edison,,1047862,209115104,349705790
CAG,Conagra Brands,,23217,205887102,480305925
COP,ConocoPhillips,,1163165,20825C104,1339195669
STZ,Constellation Brands,a,16918,21036P108,168088603
COO,CooperCompanies,,711404,216648402,49267688
CPRT,Copart,,900075,217204106,236744218
GLW,Corning,,24741,219350105,853497069
CTVA,Corteva,,1755672,22052L104,735178362
COST,Costco,,909832,22160K105,442002374
CTRA,Coterra,,858470,127097103,399586284
CCI,Crown Castle,,1051470,22822V101,432193905
CSX,CSX,,277948,126408103,2238044308
CMI,Cummins,,26172,231021106,143749767
CVS,CVS Health,,64803,126650100,1318626925
DHI,D.R. Horton,,882184,23331A109,358720534
DHR,Danaher,,313616,235851102,713783610
DRI,Darden,,940944,237194105,130491134
DVA,DaVita,,927066,23918K108,105256842
DE,Deere & Co.,,315189,244199105,310743458
DAL,Delta Air Lines,,27904,247361702,639912092
XRAY,Dentsply Sirona,,818479,24906P109,218462157
DVN,Devon,,1090012,25179M103,676975824
DXCM,DexCom,,1093557,252131107,96738025
FANG,Diamondback,,1539838,25278X109,181034475
DLR,Digital Realty,,1297996,253868103,282199879
DFS,Discover,,1393612,254709108,300980743
DISCA,Discovery,a,1437107,25470F104,168980937
DISCK,Discovery,c,1437107,25470F302,330146263
DISH,Dish,a,1001082,25470M109,289304099
DIS,Disney,,1744489,254687106,1817049635
DG,Dollar General,,29534,256677105,234964659
DLTR,Dollar Tree,,935703,256746108,229245408
D,Dominion Energy,,715957,25746U109,807866379
DPZ,Domino's,,1286681,25754A201,37230245
DOV,Dover,,29905,260003108,143955754
DOW,Dow,,1751788,260557103,745785168
DTE,DTE,,936340,233331107,193751288
DUK,Duke Energy,,1326160,26441C204,769296331
DRE,Duke Realty,,783280,264411505,377271190
DD,DuPont,,1666700,26614N102,526342988
DXC,DXC Technology,,1688568,23355L106,253314136
EMN,Eastman,,915389,277432100,135788661
ETN,Eaton,,1551182,G29183103,398598901
EBAY,eBay,,1065088,278642103,662240939
ECL,Ecolab,,31462,278865100,286085576
EIX,Edison International,,827052,281020107,379638829
EW,Edwards Lifesciences,,1099800,28176E108,622842111
EA,Electronic Arts,,712515,285512109,285408239
EMR,Emerson,,32604,291011104,597820879
ENPH,Enphase,,1463101,29355A107,134905422
ETR,Entergy,,65984,29364G103,200854195
EOG,EOG Resources,,821189,26875P101,583777978
EFX,Equifax,,33185,294429105,121822469
EQIX,Equinix,,1101239,29444U700,89694063
EQR,Equity Residential,,906107,29476L107,374334075
ESS,Essex,,920522,297178105,65023616
EL,Estée Lauder Companies,a,1001250,518439104,232529530
ETSY,Etsy,,1370637,29786A106,126755916
RE,Everest,,1095073,G3223R108,39948390
EVRG,Evergy,,1711269,30034W106,229287502
ES,Eversource,,72741,30040W108,343581657
EXC,Exelon,,1109357,30161N101,977825435
EXPE,Expedia Group,,1324424,30212P303,144281177
EXPD,Expeditors,,746515,302130109,169515534
EXR,Extra Space Storage,,1289490,30225T102,133780774
XOM,ExxonMobil,,34088,30231G102,4233562653
FFIV,F5,,1048695,315616102,60074688
FAST,Fastenal,,815556,311900104,574699840
FRT,Federal Realty,,34903,313745101,77763820
FDX,FedEx,,1048911,31428X106,267082955
FITB,Fifth Third Bank,,35527,316773100,695326217
FRC,First Republic,,1132979,33616C100,176610328
FE,FirstEnergy,,1031296,337932107,544190414
FIS,FIS,,1136893,31620M106,618620875
FISV,Fiserv,,798354,337738108,663408583
FLT,Fleetcor,,1175454,339041105,82834011
FMC,FMC,,37785,302491303,128701334
F,Ford,,37996,345370860,3923089476
FTNT,Fortinet,,1262039,34959E109,163319332
FTV,Fortive,,1659166,34959J108,352656569
FBHS,Fortune Brands,,1519751,34964C106,138013319
FOX,Fox Corporation,b,1754301,35137L204,252136531
FOXA,Fox Corporation,a,1754301,35137L105,324817717
BEN,Franklin Templeton,,38777,354613101,503306030
FCX,Freeport-McMoRan,,831259,35671D857,1467199939
AJG,Gallagher,,354190,363576109,206630626
GPS,Gap,,39911,364760108,376960629
GRMN,Garmin,,1121788,H2906T109,192275126
IT,Gartner,,749251,366651107,84475794
GE,GE,,40545,369604301,8781273795
GNRC,Generac,,1474735,368736104,63065914
GD,General Dynamics,,40533,369550108,279709346
GIS,General Mills,,40704,370334104,606976876
GPC,Genuine Parts,,40987,372460105,143489359
GILD,Gilead,,882095,375558103,1253935049
GPN,Global Payments,,1123360,37940X102,294226309
GL,Globe Life,,320335,37959E102,102145329
GM,GM,,1467858,37045V100,1451492396
GS,Goldman Sachs,,886982,38141G104,337750069
GWW,Grainger,,277135,384802104,52074756
HAL,Halliburton,,45012,406216101,890346859
HBI,Hanesbrands,,1359841,410345102,349138323
HIG,Hartford (The),,874766,416515104,350230766
HAS,Hasbro,,46080,418056107,137648737
HCA,HCA Healthcare,,860730,40412C101,323261319
PEAK,Healthpeak,,765880,42250P103,538954059
HSIC,Henry Schein,,1000228,806407102,139990768
HSY,Hershey's,,47111,427866108,145678138
HES,Hess,,4447,42809H107,309659367
HPE,Hewlett Packard Enterprise,,1645590,42824C109,1306650085
HLT,Hilton,,1585689,43300A203,278646119
HOLX,Hologic,,859737,436440101,254181341
HD,Home Depot,,354950,437076102,1059612401
HON,Honeywell,,773840,438516106,690444939
HRL,Hormel,,48465,440452100,542233791
HST,Host Hotels & Resorts,,1070750,44107P104,711026547
HWM,Howmet Aerospace,,4281,443201108,430934561
HPQ,HP,,47217,40434L105,1169470654
HUM,Humana,,49071,444859102,128510265
HII,Huntington Ingalls Industries,,1501585,446413106,40171906
HBAN,Huntington National Bank,,49196,446150104,1471518914
IBM,IBM,,51143,459200101,896289334
IEX,IDEX,,832101,45167R104,75980629
IDXX,Idexx Laboratories,,874716,45168D104,85138744
INFO,IHS Markit,,1598014,G47567105,398684503
ITW,Illinois Tool Works,,49826,452308109,314977868
ILMN,Illumina,,1110803,452327109,146478571
INCY,Incyte,,879169,45337C102,220554717
IR,Ingersoll Rand,,1699150,45687V106,419969661
INTC,Intel,,50863,458140100,4057329670
ICE,Intercontinental Exchange,,1571949,45866F104,563039647
IFF,International Flavors & Fragrances,,51253,459506101,249014768
IP,International Paper,,51434,460146103,391073208
IPG,Interpublic Group,,51644,460690100,393577222
INTU,Intuit,,896878,461202103,273193296
ISRG,Intuitive Surgical,,1035267,46120E602,118688101
IVZ,Invesco,,914208,G491BT108,461392435
IPGP,IPG Photonics,,1111928,44980X109,53528359
IQV,IQVIA,,1478242,46266C105,191624297
IRM,Iron Mountain,,1020569,46284V101,289211897
JBHT,J.B. Hunt,,728535,445658107,105201250
JKHY,Jack Henry & Associates,,779152,426281101,74128160
J,Jacobs,,52988,469814107,130283681
JNJ,Johnson & Johnson,,200406,478160104,2632723123
JCI,Johnson Controls,,833444,G51502105,712273593
JPM,JPMorgan Chase,,19617,46625H100,2988583627
JNPR,Juniper Networks,,1043604,48203R104,325976663
KSU,Kansas City Southern,,54480,485170302,90961265
K,Kellogg's,,55067,487836108,340862135
KEY,KeyCorp,,91576,493267108,961034718
KEYS,Keysight,,1601046,49338L103,184214565
KMB,Kimberly-Clark,,55785,494368103,336887158
KIM,Kimco Realty,,879101,49446R109,433500358
KMI,Kinder Morgan,,1506307,49456B101,2266030918
KLAC,KLA,,319201,482480100,152856855
KHC,Kraft Heinz,,1637459,500754106,1223308835
KR,Kroger,,56873,501044101,746934499
LHX,L3Harris,,202058,502431109,202319988
LH,LabCorp,,920148,50540R409,96903225
LRCX,Lam Research,,707549,512807108,142224877
LW,Lamb Weston,,1679273,513272104,146209968
LVS,Las Vegas Sands,,1300514,517834107,763983682
LEG,Leggett & Platt,,58492,524660107,133278539
LDOS,Leidos,,1336920,525327102,141522153
LEN,Lennar,a,920760,526057104,273798769
LLY,Lilly,,59478,532457108,957387075
LNC,Lincoln Financial,,59558,534187109,188838656
LIN,Linde,,1707925,G5494J103,516453047
LYV,Live Nation Entertainment,,1335258,538034109,218893545
LKQ,LKQ Corporation,,1065696,501889208,296697563
LMT,Lockheed Martin,,936468,539830109,277141410
L,Loews Corporation,,60086,540424108,259283795
LOW,Lowe's,,60667,548661107,701329580
LUMN,Lumen,,18926,550241103,1105259523
LYB,LyondellBasell,,1489393,N53745100,334463930
MTB,M&T Bank,,36270,55261F104,128669607
MRO,Marathon Oil,,101778,565849106,788313343
MPC,Marathon Petroleum,,1510295,56585A102,643123893
MKTX,MarketAxess,,1278021,57060D108,37995854
MAR,Marriott International,a,1048286,571903202,325651270
MMC,Marsh & McLennan,,62709,571748102,507007133
MLM,Martin Marietta,,916076,573284106,62374925
MAS,Masco,,62996,574599106,247235737
MA,Mastercard,a,1141391,57636Q104,980038253
MTCH,Match Group,,891103,57667L107,274559397
MKC,McCormick,nonvoting,63754,579780206,249244395
MCD,McDonald's,,63908,580135101,746792011
MCK,McKesson,,927653,58155Q103,154732139
MDT,Medtronic,,1613103,G5960L103,1344069901
MRK,Merck,,310158,58933Y105,2531612493
FB,Meta,a,1326801,30303M102,2387039038
MET,MetLife,,1099219,59156R108,863205618
MTD,Mettler Toledo,,1037646,592688105,23118614
MGM,MGM Resorts,,789570,552953101,485092664
MCHP,Microchip,,827054,595017104,273860242
MU,Micron,,723125,595112103,1125393467
MSFT,Microsoft,,789019,594918104,7519632818
MAA,Mid-America Apartments,,912595,59522J103,114791408
MRNA,Moderna,,1682852,60770K107,402924617
MHK,Mohawk Industries,,851968,608190104,69245550
TAP,Molson Coors,b,24545,60871R209,200562248
MDLZ,Mondelez International,a,1103982,609207105,1399635583
MPWR,Monolithic Power Systems,,1280452,609839105,45857978
MNST,Monster Beverage,,865752,61174X109,528775575
MCO,Moody's,,1059556,615369105,186210989
MS,Morgan Stanley,,895421,617446448,1836834291
MOS,Mosaic,,1285785,61945C103,379859008
MSI,Motorola Solutions,,68505,620076307,169384922
MSCI,MSCI,,1408198,55354G100,82437757
NDAQ,Nasdaq,,1120193,631103108,166246762
NTAP,NetApp,,1002047,64110D104,223349832
NFLX,Netflix,,1065280,64110L106,442604545
NWL,Newell Brands,,814453,651229106,425370329
NEM,Newmont,,1164727,651639106,799513898
NWSA,News Corp,a,1564708,65249B109,391201646
NWS,News Corp,b,1564708,65249B208,199630240
NEE,NextEra Energy,,753308,65339F101,1961753569
NLSN,Nielsen,,1492633,G6518L108,358796819
NKE,Nike,b,320187,654106103,1276615291
NI,NiSource,,1111711,65473P105,392353017
NSC,Norfolk Southern,,702165,655844108,247008137
NTRS,Northern Trust,,73124,665859104,208391981
NOC,Northrop Grumman,,1133421,666807102,160361925
NLOK,NortonLifeLock,,849399,668771108,580787172
NCLH,Norwegian Cruise Line Holdings,,1513761,G66721104,369996433
NRG,NRG Energy,,1013871,629377508,244767562
NUE,Nucor,,73309,670346105,293938376
NVDA,Nvidia,,1045810,67066G104,625000000
NVR,NVR,,906163,62944T105,3588590
NXPI,NXP,,1413447,N6596X109,268492824
ORLY,O'Reilly Automotive,,898173,67103H107,69254345
OXY,Occidental Petroleum,,797468,674599105,933731165
ODFL,Old Dominion,,878927,679580100,115867033
OMC,Omnicom Group,,29989,681919106,214526049
OKE,Oneok,,1039684,682680103,445626660
ORCL,Oracle,,1341439,68389X105,2782921759
OGN,Organon,,1821825,68622V106,253523135
OTIS,Otis,,1781335,68902V107,427215632
PCAR,Paccar,,75362,693718108,347167789
PKG,Packaging Corporation of America,,75677,695156109,94992829
VIAC,Paramount,b,813828,92556H206,605728611
PH,Parker,,76334,701094104,129089504
PAYX,Paychex,,723531,704326107,359836007
PAYC,Paycom,,1590955,70432V102,60121741
PYPL,PayPal,,1633917,70450Y103,1174945265
PENN,Penn National Gaming,,921738,707569109,156633272
PNR,Pentair,,77360,G7S00T104,165866821
PBCT,People's United Financial,,1378946,712704105,427841659
PEP,PepsiCo,,77476,713448108,1382076912
PKI,PerkinElmer,,31791,714046109,112104807
PFE,Pfizer,,78003,717081103,5602635893
PM,Philip Morris International,,1413329,718172109,1558539982
PSX,Phillips 66,,1534701,718546104,437988063
PNW,Pinnacle West,,764622,723484101,112774296
PXD,Pioneer Natural Resources,,1038357,723787107,243958924
PNC,PNC Financial Services,,713676,693475105,424968034
POOL,Pool Corporation,,945841,73278L105,40102368
PPG,PPG Industries,,79879,693506107,237353663
PPL,PPL,,922224,69351T106,769545206
PFG,Principal,,1126328,74251V102,269308632
PG,Procter & Gamble,,80424,742718109,2432882686
PGR,Progressive,,80661,743315103,585164204
PLD,Prologis,,1045609,74340W103,739388670
PRU,Prudential,,1137774,744320102,388782608
PEG,PSEG,,788784,744573106,505554602
PTC,PTC,,857005,69370C100,117191174
PSA,Public Storage,,1393311,74460D109,175146631
PHM,PulteGroup,,822416,745867101,260318574
PVH,PVH,,78239,693656100,71266235
QRVO,Qorvo,,1604778,74736K101,111704624
QCOM,Qualcomm,,804328,747525103,1128000000
PWR,Quanta,,1050915,74762E102,139226863
DGX,Quest Diagnostics,,1022079,74834L100,123667765
RL,Ralph Lauren,a,1037038,751212101,48481900
RJF,Raymond James,,720005,754730109,137280549
RTX,Raytheon Technologies,,101829,75513E101,1507957341
O,Realty Income,,726728,756109104,384039593
REG,Regency Centers,,910606,758849103,169869075
REGN,Regeneron,,872589,75886F107,105008609
RF,Regions,,1281761,7591EP100,957150696
RSG,Republic Services,,1060391,760759100,318550116
RMD,ResMed,,943819,761152107,145616146
RHI,Robert Half,,315213,770323103,112182644
ROK,Rockwell Automation,,1024478,773903109,116026282
ROL,Rollins,,84839,775711104,492087552
ROP,Roper,,882835,776696106,105360884
ROST,Ross,,745732,778296103,356233672
RCL,Royal Caribbean Group,,884887,V7780T103,254653891
SPGI,S&P Global,,64040,78409V104,240973626
CRM,Salesforce,,1108524,79466L302,945433333
SBAC,SBA Communications,a,1034054,78410G104,109488337
SLB,Schlumberger,,87347,806857108,1398431903
STX,Seagate,,1137789,G7997R103,228043778
SEE,Sealed Air,,1012100,81211K100,150622246
SRE,Sempra Energy,,1032208,816851109,313335785
NOW,ServiceNow,,1373715,81762P102,198092307
SHW,Sherwin-Williams,,89800,824348106,263331540
SPG,Simon,a,1063761,828806109,328610286
SWKS,Skyworks,,4127,83088M102,165131111
SJM,Smucker,,91419,832696405,108347714
SNA,Snap-on,,91440,833034101,53990961
SO,Southern Company,,92122,842587107,1058823666
LUV,Southwest Airlines,,92380,844741108,591573880
SWK,Stanley Black & Decker,,93556,854502101,162595244
SBUX,Starbucks,,829224,855244109,1178906593
STT,State Street,,93751,857477103,344534251
STE,Steris,,1757898,G8473T100,92657727
SYK,Stryker,,310764,863667101,377092443
SIVB,SVB Financial,,719739,78486Q101,55698638
SYF,Synchrony,,1601712,87165B103,571913019
SNPS,Synopsys,,883241,871607107,152542396
SYY,Sysco,,96021,871829107,511900798
TMUS,T-Mobile,,1283699,872590104,1247613047
TROW,T. Rowe Price,,1113169,74144T108,226912492
TTWO,Take-Two Interactive,,946581,874054109,116264081
TPR,Tapestry,,1116132,876030107,279315748
TGT,Target,,27419,87612E106,491858927
TEL,TE Connectivity,,1385157,H84989104,328559707
TDY,Teledyne,,1094285,879360105,43529536
TFX,Teleflex,,96943,879369106,46780072
TER,Teradyne,,97210,880770102,165440923
TSLA,Tesla,,1318605,88160R101,983343980
TXN,Texas Instruments,,97476,882508104,923265303
TXT,Textron,,217346,883203101,224431430
TMO,Thermo Fisher Scientific,,97745,883556102,393401711
TJX,TJX Companies,,109198,872540109,1204795190
TSCO,Tractor Supply,,916365,892356106,114590442
TT,Trane Technologies,,1466258,G8994E103,238014541
TDG,TransDigm,,1260221,893641100,55039002
TRV,Travelers,,86312,89417E109,249839689
TRMB,Trimble,,864749,896239100,251360840
TFC,Truist,,92230,89832Q109,1334940610
TWTR,Twitter,,1418091,90184L102,798008789
TYL,Tyler Technologies,,860731,902252105,40806098
TSN,Tyson,a,100493,902494103,294813841
USB,U.S. Bank,,36104,902973304,1485076706
UDR,UDR,,74208,902653104,296843231
ULTA,Ulta Beauty,,1403568,90384S303,54591602
UA,Under Armour,c,1336917,904311206,241265178
UAA,Under Armour,a,1336917,904311107,188637091
UNP,Union Pacific,,100885,907818108,654398240
UAL,United Airlines,,100517,910047109,323606753
UPS,United Parcel Service,b,1090727,911312106,727032842
URI,United Rentals,,1067701,911363109,72386579
UNH,UnitedHealth Group,,731766,91324P102,943184699
UHS,Universal Health Services,b,352915,913903100,76604074
VLO,Valero,,1035002,91913Y100,408806744
VTR,Ventas,,740260,92276F100,378336863
VRSN,Verisign,,1014473,92343E102,112013493
VRSK,Verisk,,1442145,92345Y106,161602807
VZ,Verizon,,732712,92343V104,4140115475
VRTX,Vertex,,875320,92532F100,259281596
VFC,VF Corporation,,103379,918204108,392467471
VTRS,Viatris,,1792044,92556V106,1209036477
V,Visa,a,1403161,92826C839,1688740987
VNO,Vornado Realty Trust,,899689,929042109,191559699
VMC,Vulcan Materials,,1396009,929160109,132674871
WAB,Wabtec,,943452,929740108,189024675
WBA,Walgreens Boots Alliance,,1618921,931427108,864982446
WMT,Walmart,,104169,931142103,2798051493
WM,Waste Management,,823768,94106L109,421358871
WAT,Waters,,1000697,941848103,61478234
WEC,WEC Energy Group,,783325,92939U106,315434531
WFC,Wells Fargo,,72971,949746101,4112583464
WELL,Welltower,,766704,95040Q104,421232990
WST,West Pharmaceutical Services,,105770,955306105,73946026
WDC,Western Digital,,106040,958102105,307714191
WU,Western Union,,1365135,959802109,407337481
WRK,WestRock,,1732845,96145D105,266771441
WY,Weyerhaeuser,,106535,962166104,749615175
WHR,Whirlpool,,106640,963320106,62688784
WMB,Williams,,107263,969457100,1214894056
WTW,Willis Towers Watson,,1140536,G96629103,129021000
WYNN,Wynn Resorts,,1174922,983134107,115667334
XEL,Xcel Energy,,72903,98389B100,538378556
XLNX,Xilinx,,743988,983919101,247108703
XYL,Xylem,,1524472,98419M100,180121636
YUM,Yum! Brands,,1041061,988498101,296389831
ZBRA,Zebra,a,877212,989207105,53436286
ZBH,Zimmer Biomet,,1136869,98956P102,208734440
ZION,Zions Bancorp,,109380,989701107,162616924
ZTS,Zoetis,,1555280,98978V103,474224388
