period,cik,class,shares_outstanding
2017-09-30,1001082,a,227838057
2017-12-31,1001082,a,227992924
2018-03-31,1001082,a,228596228
2018-06-30,1001082,a,229040568
2018-09-30,1001082,a,229186675
2018-12-31,1001082,a,229363996
2019-03-31,1001082,a,230282168
2019-06-30,1001082,a,231318077
2019-09-30,1001082,a,247306173
2019-12-31,1001082,a,272263790
2020-03-31,1001082,a,285318624
2020-06-30,1001082,a,286483397
2020-09-30,1001082,a,287347643
2020-12-31,1001082,a,287657680
2021-03-31,1001082,a,288564266
2021-06-30,1001082,a,289304099
2021-09-30,1001082,a,290099059
2021-12-31,1001082,a,290483250
2017-09-30,1001082,b,238435208
2017-12-31,1001082,b,238435208
2018-03-31,1001082,b,238435208
2018-06-30,1001082,b,238435208
2018-09-30,1001082,b,238435208
2018-12-31,1001082,b,238435208
2019-03-31,1001082,b,238435208
2019-06-30,1001082,b,238435208
2019-09-30,1001082,b,238435208
2019-12-31,1001082,b,238435208
2020-03-31,1001082,b,238435208
2020-06-30,1001082,b,238435208
2020-09-30,1001082,b,238435208
2020-12-31,1001082,b,238435208
2021-03-31,1001082,b,238435208
2021-06-30,1001082,b,238435208
2021-09-30,1001082,b,238435208
2021-12-31,1001082,b,238435208
