period,cik,class,shares_outstanding
2017-09-30,1002910,,242634798
2017-12-31,1002910,,242634798
2018-03-31,1002910,,243298871
2018-06-30,1002910,,243905658
2018-09-30,1002910,,244206813
2018-12-31,1002910,,244519544
2019-03-31,1002910,,245263374
2019-06-30,1002910,,245731612
2019-09-30,1002910,,245951020
2019-12-31,1002910,,246161478
2020-03-31,1002910,,246663932
2020-06-30,1002910,,247013964
2020-09-30,1002910,,247163561
2020-12-31,1002910,,251328249
2021-03-31,1002910,,254804015
2021-06-30,1002910,,256603966
2021-09-30,1002910,,257454862
2021-12-31,1002910,,257684411
