period,cik,class,shares_outstanding
2017-09-30,1004980,,514001451
2017-12-31,1004980,,514788786
2018-03-31,1004980,,515982850
2018-06-30,1004980,,516976618
2018-09-30,1004980,,518266065
2018-12-31,1004980,,523562210
