period,cik,class,shares_outstanding
2017-09-30,1014473,,98881775
2017-12-31,1014473,,97651177
2018-03-31,1014473,,97040241
2018-06-30,1014473,,116169487
2018-09-30,1014473,,121114827
2018-12-31,1014473,,120134044
2019-03-31,1014473,,119335241
2019-06-30,1014473,,118550202
2019-09-30,1014473,,117610042
2019-12-31,1014473,,116762913
2020-03-31,1014473,,115765314
2020-06-30,1014473,,114989334
2020-09-30,1014473,,114248822
2020-12-31,1014473,,113469968
2021-03-31,1014473,,112747182
2021-06-30,1014473,,112013493
2021-09-30,1014473,,111265252
2021-12-31,1014473,,110517196
