period,cik,class,shares_outstanding
2017-09-30,101829,,798572126
2017-12-31,101829,,799463921
2018-03-31,101829,,800054712
2018-06-30,101829,,800092913
2018-09-30,101829,,800974517
2018-12-31,101829,,845940121
2019-03-31,101829,,862282218
2019-06-30,101829,,862825347
2019-09-30,101829,,863264182
2019-12-31,101829,,864778238
2020-03-31,101829,,866146427
2020-06-30,101829,,1397718795
2020-09-30,101829,,1520779228
2020-12-31,101829,,1519251884
2021-03-31,101829,,1515161808
2021-06-30,101829,,1507957341
2021-09-30,101829,,1496898397
2021-12-31,101829,,1493487866
