period,cik,class,shares_outstanding
2017-09-30,1020569,,266349465
2017-12-31,1020569,,278585186
2018-03-31,1020569,,285740226
2018-06-30,1020569,,286094589
2018-09-30,1020569,,286203371
2018-12-31,1020569,,286313516
2019-03-31,1020569,,286733513
2019-06-30,1020569,,287044498
2019-09-30,1020569,,287132950
2019-12-31,1020569,,287269022
2020-03-31,1020569,,287677290
2020-06-30,1020569,,288054968
2020-09-30,1020569,,288163500
2020-12-31,1020569,,288307434
2021-03-31,1020569,,288593860
2021-06-30,1020569,,289211897
2021-09-30,1020569,,289520096
2021-12-31,1020569,,289704841
