period,cik,class,shares_outstanding
2017-09-30,1022079,,136314593
2017-12-31,1022079,,135828580
2018-03-31,1022079,,135782327
2018-06-30,1022079,,136535989
2018-09-30,1022079,,136178502
2018-12-31,1022079,,134803177
2019-03-31,1022079,,134354333
2019-06-30,1022079,,134627911
2019-09-30,1022079,,134692298
2019-12-31,1022079,,133826512
2020-03-31,1022079,,133672781
2020-06-30,1022079,,134202268
2020-09-30,1022079,,134685400
2020-12-31,1022079,,133843271
2021-03-31,1022079,,131247114
2021-06-30,1022079,,123667765
2021-09-30,1022079,,122588855
2021-12-31,1022079,,120408852
