period,cik,class,shares_outstanding
2017-09-30,1024305,a,749140654
2017-12-31,1024305,a,749729242
2018-03-31,1024305,a,750290601
2018-06-30,1024305,a,750679359
2018-09-30,1024305,a,750958964
2018-12-31,1024305,a,751192376
2019-03-31,1024305,a,751347314
2019-06-30,1024305,a,752872368
2019-09-30,1024305,a,756255496
2019-12-31,1024305,a,759674284
2020-03-31,1024305,a,762149259
2020-06-30,1024305,a,764114652
