period,cik,class,shares_outstanding
2017-09-30,1024478,,128465522
2017-12-31,1024478,,127796582
2018-03-31,1024478,,125604897
2018-06-30,1024478,,123191397
2018-09-30,1024478,,121329483
2018-12-31,1024478,,119562656
2019-03-31,1024478,,118375171
2019-06-30,1024478,,117022523
2019-09-30,1024478,,115926960
2019-12-31,1024478,,116173212
2020-03-31,1024478,,115827912
2020-06-30,1024478,,115965394
2020-09-30,1024478,,116123635
2020-12-31,1024478,,116155468
2021-03-31,1024478,,116077565
2021-06-30,1024478,,116026282
2021-09-30,1024478,,115993289
2021-12-31,1024478,,116192611
