period,cik,class,shares_outstanding
2017-09-30,1031296,,444851986
2017-12-31,1031296,,467594557
2018-03-31,1031296,,476886953
2018-06-30,1031296,,483859286
2018-09-30,1031296,,511054213
2018-12-31,1031296,,525285358
2019-03-31,1031296,,531420442
2019-06-30,1031296,,532085680
2019-09-30,1031296,,540222371
2019-12-31,1031296,,540609271
2020-03-31,1031296,,541736365
2020-06-30,1031296,,542106466
2020-09-30,1031296,,542584986
2020-12-31,1031296,,543052517
2021-03-31,1031296,,543888816
2021-06-30,1031296,,544190414
2021-09-30,1031296,,544417162
2021-12-31,1031296,,563599733
