period,cik,class,shares_outstanding
2017-09-30,1032208,,251220641
2017-12-31,1032208,,253518193
2018-03-31,1032208,,259856933
2018-06-30,1032208,,270040890
2018-09-30,1032208,,273587846
2018-12-31,1032208,,273859912
2019-03-31,1032208,,274223740
2019-06-30,1032208,,274495226
2019-09-30,1032208,,279555102
2019-12-31,1032208,,287533388
2020-03-31,1032208,,292419851
2020-06-30,1032208,,290474669
2020-09-30,1032208,,288768473
2020-12-31,1032208,,295782972
2021-03-31,1032208,,302682357
2021-06-30,1032208,,313335785
2021-09-30,1032208,,319334150
2021-12-31,1032208,,317343603
