period,cik,class,shares_outstanding
2017-09-30,1035267,,97233074
2017-12-31,1035267,,112245170
2018-03-31,1035267,,113128994
2018-06-30,1035267,,113661856
2018-09-30,1035267,,114115699
2018-12-31,1035267,,114430320
2019-03-31,1035267,,115263192
2019-06-30,1035267,,115289903
2019-09-30,1035267,,115517228
2019-12-31,1035267,,115905430
2020-03-31,1035267,,116509760
2020-06-30,1035267,,116937529
2020-09-30,1035267,,117463111
2020-12-31,1035267,,117690286
2021-03-31,1035267,,118283129
2021-06-30,1035267,,118688101
2021-09-30,1035267,,317925445
2021-12-31,1035267,,357612361
