period,cik,class,shares_outstanding
2017-09-30,1037038,a,55389558
2017-12-31,1037038,a,55403341
2018-03-31,1037038,a,55549731
2018-06-30,1037038,a,55418644
2018-09-30,1037038,a,54796943
2018-12-31,1037038,a,53399296
2019-03-31,1037038,a,52421769
2019-06-30,1037038,a,51963725
2019-09-30,1037038,a,50444001
2019-12-31,1037038,a,49168916
2020-03-31,1037038,a,48290473
2020-06-30,1037038,a,47986870
2020-09-30,1037038,a,48202410
2020-12-31,1037038,a,48232301
2021-03-31,1037038,a,48244487
2021-06-30,1037038,a,48481900
2021-09-30,1037038,a,48701023
2021-12-31,1037038,a,47066696
2017-09-30,1037038,b,25881276
2017-12-31,1037038,b,25881276
2018-03-31,1037038,b,25881276
2018-06-30,1037038,b,25881276
2018-09-30,1037038,b,25881276
2018-12-31,1037038,b,25881276
2019-03-31,1037038,b,25881276
2019-06-30,1037038,b,25556603
2019-09-30,1037038,b,25049644
2019-12-31,1037038,b,24881276
2020-03-31,1037038,b,24881276
2020-06-30,1037038,b,24881276
2020-09-30,1037038,b,24881276
2020-12-31,1037038,b,24881276
2021-03-31,1037038,b,24881276
2021-06-30,1037038,b,24881276
2021-09-30,1037038,b,24881276
2021-12-31,1037038,b,24881276
