period,cik,class,shares_outstanding
2017-09-30,1038357,,170142938
2017-12-31,1038357,,170242546
2018-03-31,1038357,,170371363
2018-06-30,1038357,,170411835
2018-09-30,1038357,,170437341
2018-12-31,1038357,,169365983
2019-03-31,1038357,,168397685
2019-06-30,1038357,,167664111
2019-09-30,1038357,,166238786
2019-12-31,1038357,,165682580
2020-03-31,1038357,,165272824
2020-06-30,1038357,,164513626
2020-09-30,1038357,,164355773
2020-12-31,1038357,,190967916
2021-03-31,1038357,,230078860
2021-06-30,1038357,,243958924
2021-09-30,1038357,,244085185
2021-12-31,1038357,,243467980
