period,cik,class,shares_outstanding
2017-09-30,1043604,,376997616
2017-12-31,1043604,,358006508
2018-03-31,1043604,,346699723
2018-06-30,1043604,,346470908
2018-09-30,1043604,,345020122
2018-12-31,1043604,,346683423
2019-03-31,1043604,,345913721
2019-06-30,1043604,,345229092
2019-09-30,1043604,,339101676
2019-12-31,1043604,,332389509
2020-03-31,1043604,,331020144
2020-06-30,1043604,,331611922
2020-09-30,1043604,,330392617
2020-12-31,1043604,,328797809
2021-03-31,1043604,,327902813
2021-06-30,1043604,,325976663
2021-09-30,1043604,,325172100
2021-12-31,1043604,,323704475
