period,cik,class,shares_outstanding
2017-09-30,1045609,,532020774
2017-12-31,1045609,,532665200
2018-03-31,1045609,,533181545
2018-06-30,1045609,,533291615
2018-09-30,1045609,,609439483
2018-12-31,1045609,,630046034
2019-03-31,1045609,,630665469
2019-06-30,1045609,,631061800
2019-09-30,1045609,,631618354
2019-12-31,1045609,,703403880
2020-03-31,1045609,,738636313
2020-06-30,1045609,,738715159
2020-09-30,1045609,,739103000
2020-12-31,1045609,,739402390
2021-03-31,1045609,,739687909
2021-06-30,1045609,,739388670
2021-09-30,1045609,,739307791
2021-12-31,1045609,,739756972
