period,cik,class,shares_outstanding
2017-09-30,1047122,,289393461
2017-12-31,1047122,,288734250
2018-03-31,1047122,,287680628
2018-06-30,1047122,,285784835
2018-09-30,1047122,,284749626
2018-12-31,1047122,,283136625
2019-03-31,1047122,,280649057
2019-06-30,1047122,,278871923
2019-09-30,1047122,,278492296
2019-12-31,1047122,,278455250
