period,cik,class,shares_outstanding
2017-09-30,1048695,,62907832
2017-12-31,1048695,,62091392
2018-03-31,1048695,,61346818
2018-06-30,1048695,,60909483
2018-09-30,1048695,,60708134
2018-12-31,1048695,,59906070
2019-03-31,1048695,,59611531
2019-06-30,1048695,,59986685
2019-09-30,1048695,,60522013
2019-12-31,1048695,,60800056
2020-03-31,1048695,,60864030
2020-06-30,1048695,,61075854
2020-09-30,1048695,,61428550
2020-12-31,1048695,,61633146
2021-03-31,1048695,,60308445
2021-06-30,1048695,,60074688
2021-09-30,1048695,,60866166
2021-12-31,1048695,,60914038
