period,cik,class,shares_outstanding
2017-09-30,1051470,,406272112
2017-12-31,1051470,,406605273
2018-03-31,1051470,,411151776
2018-06-30,1051470,,414833621
2018-09-30,1051470,,414846524
2018-12-31,1051470,,415222232
2019-03-31,1051470,,415659892
2019-06-30,1051470,,415750537
2019-09-30,1051470,,415763882
2019-12-31,1051470,,416226379
2020-03-31,1051470,,416748458
2020-06-30,1051470,,418685009
2020-09-30,1051470,,428052387
2020-12-31,1051470,,431305990
2021-03-31,1051470,,431818750
2021-06-30,1051470,,432193905
2021-09-30,1051470,,432200670
2021-12-31,1051470,,432209327
