period,cik,class,shares_outstanding
2017-09-30,1059556,,191098913
2017-12-31,1059556,,191001086
2018-03-31,1059556,,191890000
2018-06-30,1059556,,191900000
2018-09-30,1059556,,191603260
2018-12-31,1059556,,191303260
2019-03-31,1059556,,189618888
2019-06-30,1059556,,189204395
2019-09-30,1059556,,188804347
2019-12-31,1059556,,187764227
2020-03-31,1059556,,187498333
2020-06-30,1059556,,187697802
2020-09-30,1059556,,187798913
2020-12-31,1059556,,187282113
2021-03-31,1059556,,187198305
2021-06-30,1059556,,186210989
2021-09-30,1059556,,185903260
2021-12-31,1059556,,185382113
