period,cik,class,shares_outstanding
2017-09-30,106040,,295402785
2017-12-31,106040,,296956078
2018-03-31,106040,,298650672
2018-06-30,106040,,294853099
2018-09-30,106040,,290212789
2018-12-31,106040,,290380745
2019-03-31,106040,,292266388
2019-06-30,106040,,294699310
2019-09-30,106040,,296819449
2019-12-31,106040,,298352882
2020-03-31,106040,,299396616
2020-06-30,106040,,301166706
2020-09-30,106040,,303504808
2020-12-31,106040,,305486585
2021-03-31,106040,,306334317
2021-06-30,106040,,307714191
2021-09-30,106040,,310448677
2021-12-31,106040,,312519297
