period,cik,class,shares_outstanding
2017-09-30,106535,,754331278
2017-12-31,106535,,755650872
2018-03-31,106535,,756728412
2018-06-30,106535,,757504016
2018-09-30,106535,,751343205
2018-12-31,106535,,747441422
2019-03-31,106535,,745305222
2019-06-30,106535,,744893270
2019-09-30,106535,,745090930
2019-12-31,106535,,745393467
2020-03-31,106535,,745977000
2020-06-30,106535,,746248230
2020-09-30,106535,,746376714
2020-12-31,106535,,747255619
2021-03-31,106535,,748707610
2021-06-30,106535,,749615175
2021-09-30,106535,,749256142
2021-12-31,106535,,747339057
