period,cik,class,shares_outstanding
2017-09-30,1065088,,1049380530
2017-12-31,1065088,,1021362949
2018-03-31,1065088,,999149930
2018-06-30,1065088,,990445839
2018-09-30,1065088,,970462173
2018-12-31,1065088,,929046535
2019-03-31,1065088,,882988552
2019-06-30,1065088,,845004323
2019-09-30,1065088,,819190849
2019-12-31,1065088,,801064891
2020-03-31,1065088,,720139893
2020-06-30,1065088,,700180236
2020-09-30,1065088,,692466550
2020-12-31,1065088,,683440268
2021-03-31,1065088,,680999392
2021-06-30,1065088,,662240939
2021-09-30,1065088,,634125243
2021-12-31,1065088,,604664779
