period,cik,class,shares_outstanding
2017-09-30,1067701,,84568140
2017-12-31,1067701,,84462147
2018-03-31,1067701,,83764826
2018-06-30,1067701,,82906769
2018-09-30,1067701,,81391969
2018-12-31,1067701,,79930407
2019-03-31,1067701,,78808288
2019-06-30,1067701,,77419727
2019-09-30,1067701,,75486739
2019-12-31,1067701,,74583600
2020-03-31,1067701,,72765181
2020-06-30,1067701,,72070805
2020-09-30,1067701,,72119910
2020-12-31,1067701,,72181377
2021-03-31,1067701,,72325071
2021-06-30,1067701,,72386579
2021-09-30,1067701,,72393207
2021-12-31,1067701,,72414356
