period,cik,class,shares_outstanding
2017-09-30,107263,,826713956
2017-12-31,107263,,827062870
2018-03-31,107263,,827485286
2018-06-30,107263,,827849672
2018-09-30,107263,,1084420395
2018-12-31,107263,,1210791869
2019-03-31,107263,,1211445993
2019-06-30,107263,,1211939263
2019-09-30,107263,,1212040410
2019-12-31,107263,,1212295322
2020-03-31,107263,,1212890416
2020-06-30,107263,,1213435326
2020-09-30,107263,,1213576736
2020-12-31,107263,,1213698016
2021-03-31,107263,,1214339760
2021-06-30,107263,,1214894056
2021-09-30,107263,,1215007182
2021-12-31,107263,,1215343679
