period,cik,class,shares_outstanding
2017-09-30,1086222,,170060302
2017-12-31,1086222,,169591661
2018-03-31,1086222,,170322872
2018-06-30,1086222,,169974706
2018-09-30,1086222,,165565237
2018-12-31,1086222,,163042469
2019-03-31,1086222,,163654698
2019-06-30,1086222,,164616701
2019-09-30,1086222,,162976015
2019-12-31,1086222,,161739027
2020-03-31,1086222,,162072555
2020-06-30,1086222,,162534597
2020-09-30,1086222,,162759708
2020-12-31,1086222,,163010935
2021-03-31,1086222,,163105977
2021-06-30,1086222,,162892088
2021-09-30,1086222,,162610657
2021-12-31,1086222,,161375192
