period,cik,class,shares_outstanding
2017-09-30,1087423,,176947183
2017-12-31,1087423,,177010324
2018-03-31,1087423,,177552486
2018-06-30,1087423,,177389841
2018-09-30,1087423,,176063053
2018-12-31,1087423,,176733946
2019-03-31,1087423,,177547655
