period,cik,class,shares_outstanding
2017-09-30,1090012,,525520879
2017-12-31,1090012,,525891071
2018-03-31,1090012,,524132857
2018-06-30,1090012,,511848351
2018-09-30,1090012,,476230769
2018-12-31,1090012,,448444642
2019-03-31,1090012,,421140000
2019-06-30,1090012,,407006122
2019-09-30,1090012,,389401098
2019-12-31,1090012,,383322857
2020-03-31,1090012,,382759740
2020-06-30,1090012,,382774725
2020-09-30,1090012,,382572527
2020-12-31,1090012,,576233333
2021-03-31,1090012,,675814285
2021-06-30,1090012,,676975824
2021-09-30,1090012,,677000000
2021-12-31,1090012,,668344761
