period,cik,class,shares_outstanding
2017-09-30,1091667,a,248711230
2017-12-31,1091667,a,238615889
2018-03-31,1091667,a,237475033
2018-06-30,1091667,a,231925464
2018-09-30,1091667,a,228949716
2018-12-31,1091667,a,225392544
2019-03-31,1091667,a,223429693
2019-06-30,1091667,a,221498877
2019-09-30,1091667,a,214852918
2019-12-31,1091667,a,210028182
2020-03-31,1091667,a,206496203
2020-06-30,1091667,a,204916300
2020-09-30,1091667,a,199929737
2020-12-31,1091667,a,193797776
2021-03-31,1091667,a,188722435
2021-06-30,1091667,a,183875435
2021-09-30,1091667,a,179340324
2021-12-31,1091667,a,172812429
2017-09-30,1091667,b,1
2017-12-31,1091667,b,1
2018-03-31,1091667,b,1
2018-06-30,1091667,b,1
2018-09-30,1091667,b,1
2018-12-31,1091667,b,1
2019-03-31,1091667,b,1
2019-06-30,1091667,b,1
2019-09-30,1091667,b,1
2019-12-31,1091667,b,1
2020-03-31,1091667,b,1
2020-06-30,1091667,b,1
2020-09-30,1091667,b,1
2020-12-31,1091667,b,1
2021-03-31,1091667,b,1
2021-06-30,1091667,b,1
2021-09-30,1091667,b,1
2021-12-31,1091667,b,1
