period,cik,class,shares_outstanding
2017-09-30,1103982,a,1498465931
2017-12-31,1103982,a,1489777899
2018-03-31,1103982,a,1479154850
2018-06-30,1103982,a,1468687759
2018-09-30,1103982,a,1457341443
2018-12-31,1103982,a,1447424315
2019-03-31,1103982,a,1441635881
2019-06-30,1103982,a,1441641734
2019-09-30,1103982,a,1440488979
2019-12-31,1103982,a,1435189982
2020-03-31,1103982,a,1429094700
2020-06-30,1103982,a,1428098156
2020-09-30,1103982,a,1429585650
2020-12-31,1103982,a,1418064516
2021-03-31,1103982,a,1406826462
2021-06-30,1103982,a,1399635583
2021-09-30,1103982,a,1395843145
2021-12-31,1103982,a,1390445390
