period,cik,class,shares_outstanding
2017-09-30,1109357,,960844162
2017-12-31,1109357,,964983997
2018-03-31,1109357,,965378002
2018-06-30,1109357,,965900934
2018-09-30,1109357,,966997756
2018-12-31,1109357,,969034079
2019-03-31,1109357,,970934388
2019-06-30,1109357,,971577577
2019-09-30,1109357,,972103165
2019-12-31,1109357,,973744423
2020-03-31,1109357,,974406376
2020-06-30,1109357,,974502839
2020-09-30,1109357,,975560848
2020-12-31,1109357,,976138687
2021-03-31,1109357,,977161041
2021-06-30,1109357,,977825435
2021-09-30,1109357,,978312513
2021-12-31,1109357,,979663685
