period,cik,class,shares_outstanding
2017-09-30,1116132,,283778392
2017-12-31,1116132,,284731949
2018-03-31,1116132,,286914549
2018-06-30,1116132,,287959963
2018-09-30,1116132,,289231242
2018-12-31,1116132,,289926005
2019-03-31,1116132,,290089092
2019-06-30,1116132,,287989800
2019-09-30,1116132,,279313791
2019-12-31,1116132,,276003213
2020-03-31,1116132,,276079345
2020-06-30,1116132,,276194582
2020-09-30,1116132,,277072800
2020-12-31,1116132,,277728766
2021-03-31,1116132,,278589265
2021-06-30,1116132,,279315748
2021-09-30,1116132,,276725700
2021-12-31,1116132,,267543951
