period,cik,class,shares_outstanding
2017-09-30,1121788,,198077418
2017-12-31,1121788,,198077418
2018-03-31,1121788,,198077418
2018-06-30,1121788,,130667972307
2018-09-30,1121788,,198077418000
2018-12-31,1121788,,85522196751
2019-03-31,1121788,,198077418
2019-06-30,1121788,,198077418
2019-09-30,1121788,,198077418
2019-12-31,1121788,,193806098
2020-03-31,1121788,,190899814
2020-06-30,1121788,,191177115
2020-09-30,1121788,,191237445
2020-12-31,1121788,,191440187
2021-03-31,1121788,,191948101
2021-06-30,1121788,,192275126
2021-09-30,1121788,,192322001
2021-12-31,1121788,,192608541
