period,cik,class,shares_outstanding
2017-09-30,1133421,,174082163
2017-12-31,1133421,,174085155
2018-03-31,1133421,,174310893
2018-06-30,1133421,,174183591
2018-09-30,1133421,,173730415
2018-12-31,1133421,,170852198
2019-03-31,1133421,,169784327
2019-06-30,1133421,,169330371
2019-09-30,1133421,,168688495
2019-12-31,1133421,,167893024
2020-03-31,1133421,,166968184
2020-06-30,1133421,,166710687
2020-09-30,1133421,,166715525
2020-12-31,1133421,,166717746
2021-03-31,1133421,,162669381
2021-06-30,1133421,,160361925
2021-09-30,1133421,,158986631
2021-12-31,1133421,,156771084
