period,cik,class,shares_outstanding
2017-09-30,1136869,,202384890
2017-12-31,1136869,,202861601
2018-03-31,1136869,,203218244
2018-06-30,1136869,,203416716
2018-09-30,1136869,,203834584
2018-12-31,1136869,,204243249
2019-03-31,1136869,,204642574
2019-06-30,1136869,,205129352
2019-09-30,1136869,,205562484
2019-12-31,1136869,,206128625
2020-03-31,1136869,,206650316
2020-06-30,1136869,,206984802
2020-09-30,1136869,,207220636
2020-12-31,1136869,,207641752
2021-03-31,1136869,,208290640
2021-06-30,1136869,,208734440
2021-09-30,1136869,,208886727
2021-12-31,1136869,,209074424
