period,cik,class,shares_outstanding
2017-09-30,1136893,,333362224
2017-12-31,1136893,,332114700
2018-03-31,1136893,,331071875
2018-06-30,1136893,,329568004
2018-09-30,1136893,,327927522
2018-12-31,1136893,,324982105
2019-03-31,1136893,,323321797
2019-06-30,1136893,,504024762
2019-09-30,1136893,,614142976
2019-12-31,1136893,,615501182
2020-03-31,1136893,,617107178
2020-06-30,1136893,,618907545
2020-09-30,1136893,,620203534
2020-12-31,1136893,,620857471
2021-03-31,1136893,,620594532
2021-06-30,1136893,,618620875
2021-09-30,1136893,,612231506
2021-12-31,1136893,,609275816
