period,cik,class,shares_outstanding
2017-09-30,1137774,,425043478
2017-12-31,1137774,,422695652
2018-03-31,1137774,,420696629
2018-06-30,1137774,,418043478
2018-09-30,1137774,,414391304
2018-12-31,1137774,,410391304
2019-03-31,1137774,,407044943
2019-06-30,1137774,,403391304
2019-09-30,1137774,,402000000
2019-12-31,1137774,,398739130
2020-03-31,1137774,,395688888
2020-06-30,1137774,,395000000
2020-09-30,1137774,,395652173
2020-12-31,1137774,,396652173
2021-03-31,1137774,,395044943
2021-06-30,1137774,,388782608
2021-09-30,1137774,,380782608
2021-12-31,1137774,,376695652
