period,cik,class,shares_outstanding
2017-09-30,1140536,,132845893
2017-12-31,1140536,,132130609
2018-03-31,1140536,,132022528
2018-06-30,1140536,,131157697
2018-09-30,1140536,,130230770
2018-12-31,1140536,,129498201
2019-03-31,1140536,,129174036
2019-06-30,1140536,,129076806
2019-09-30,1140536,,128711747
2019-12-31,1140536,,128651463
2020-03-31,1140536,,128728520
2020-06-30,1140536,,128820653
2020-09-30,1140536,,128891475
2020-12-31,1140536,,128942223
2021-03-31,1140536,,128974245
2021-06-30,1140536,,129021000
2021-09-30,1140536,,125951742
2021-12-31,1140536,,120728437
