period,cik,class,shares_outstanding
2017-09-30,1156039,,257470323
2017-12-31,1156039,,256076762
2018-03-31,1156039,,255548271
2018-06-30,1156039,,260070497
2018-09-30,1156039,,258944587
2018-12-31,1156039,,257579575
2019-03-31,1156039,,257151817
2019-06-30,1156039,,256084010
2019-09-30,1156039,,253984681
2019-12-31,1156039,,252744817
2020-03-31,1156039,,252180806
2020-06-30,1156039,,251660542
2020-09-30,1156039,,249381752
2020-12-31,1156039,,246195786
2021-03-31,1156039,,244855519
2021-06-30,1156039,,243995730
2021-09-30,1156039,,242896127
2021-12-31,1156039,,241745089
