period,cik,class,shares_outstanding
2017-09-30,1158449,,73881679
2017-12-31,1158449,,73938898
2018-03-31,1158449,,74002669
2018-06-30,1158449,,74056284
2018-09-30,1158449,,73428764
2018-12-31,1158449,,72256955
2019-03-31,1158449,,71700662
2019-06-30,1158449,,71564089
2019-09-30,1158449,,70194602
2019-12-31,1158449,,69248117
2020-03-31,1158449,,69170433
2020-06-30,1158449,,69119992
2020-09-30,1158449,,68428662
2020-12-31,1158449,,66632923
2021-03-31,1158449,,65489344
2021-06-30,1158449,,64510058
2021-09-30,1158449,,62693329
2021-12-31,1158449,,61699038
