period,cik,class,shares_outstanding
2017-09-30,1166691,a,4664757895
2017-12-31,1166691,a,4635381726
2018-03-31,1166691,a,4607976244
2018-06-30,1166691,a,4572875632
2018-09-30,1166691,a,4540412878
2018-12-31,1166691,a,4516774040
2019-03-31,1166691,a,4528931358
2019-06-30,1166691,a,4535469892
2019-09-30,1166691,a,4539759521
2019-12-31,1166691,a,4543549135
2020-03-31,1166691,a,4554527302
2020-06-30,1166691,a,4558612201
2020-09-30,1166691,a,4565800274
2020-12-31,1166691,a,4571153829
2021-03-31,1166691,a,4584423480
2021-06-30,1166691,a,4580339876
2021-09-30,1166691,a,4559704911
2021-12-31,1166691,a,4524173914
2017-09-30,1166691,b,9444375
2017-12-31,1166691,b,9444375
2018-03-31,1166691,b,9444375
2018-06-30,1166691,b,9444375
2018-09-30,1166691,b,9444375
2018-12-31,1166691,b,9444375
2019-03-31,1166691,b,9444375
2019-06-30,1166691,b,9444375
2019-09-30,1166691,b,9444375
2019-12-31,1166691,b,9444375
2020-03-31,1166691,b,9444375
2020-06-30,1166691,b,9444375
2020-09-30,1166691,b,9444375
2020-12-31,1166691,b,9444375
2021-03-31,1166691,b,9444375
2021-06-30,1166691,b,9444375
2021-09-30,1166691,b,9444375
2021-12-31,1166691,b,9444375
