period,cik,class,shares_outstanding
2018-03-31,1175454,,89685525
2018-06-30,1175454,,88781138
2018-09-30,1175454,,110489328
2018-12-31,1175454,,100804830
2019-03-31,1175454,,86112194
2019-06-30,1175454,,86489074
2019-09-30,1175454,,86714159
2019-12-31,1175454,,85967148
2020-03-31,1175454,,84421977
2020-06-30,1175454,,83964132
2020-09-30,1175454,,83636845
2020-12-31,1175454,,83409975
2021-03-31,1175454,,83367571
2021-06-30,1175454,,82834011
2021-09-30,1175454,,81702746
2021-12-31,1175454,,79405861
