period,cik,class,shares_outstanding
2017-09-30,1260221,,51940636
2017-12-31,1260221,,52111806
2018-03-31,1260221,,52350665
2018-06-30,1260221,,52559727
2018-09-30,1260221,,52705124
2018-12-31,1260221,,52843223
2019-03-31,1260221,,53080305
2019-06-30,1260221,,53279578
2019-09-30,1260221,,53451700
2019-12-31,1260221,,53621812
2020-03-31,1260221,,53949247
2020-06-30,1260221,,54170451
2020-09-30,1260221,,54367937
2020-12-31,1260221,,54614997
2021-03-31,1260221,,54825826
2021-06-30,1260221,,55039002
2021-09-30,1260221,,55199659
2021-12-31,1260221,,55385432
