period,cik,class,shares_outstanding
2018-09-30,1262039,,169941249
2018-12-31,1262039,,170508871
2019-03-31,1262039,,170701878
2019-06-30,1262039,,170919801
2019-09-30,1262039,,171022329
2019-12-31,1262039,,171866025
2020-03-31,1262039,,166615937
2020-06-30,1262039,,161767216
2020-09-30,1262039,,162161578
2020-12-31,1262039,,162831022
2021-03-31,1262039,,163266629
2021-06-30,1262039,,163319332
2021-09-30,1262039,,163431985
2021-12-31,1262039,,162093705
