period,cik,class,shares_outstanding
2017-09-30,1281761,,1173868686
2017-12-31,1281761,,1141268403
2018-03-31,1281761,,1122849180
2018-06-30,1281761,,1111105220
2018-09-30,1281761,,1061762526
2018-12-31,1281761,,1025568048
2019-03-31,1281761,,1015441851
2019-06-30,1281761,,1004055255
2019-09-30,1281761,,977746749
2019-12-31,1281761,,960840896
2020-03-31,1281761,,958591187
2020-06-30,1281761,,959976652
2020-09-30,1281761,,960338038
2020-12-31,1281761,,960562062
2021-03-31,1281761,,960988447
2021-06-30,1281761,,957150696
2021-09-30,1281761,,953757370
2021-12-31,1281761,,944926226
