period,cik,class,shares_outstanding
2017-09-30,1324404,,233255728
2017-12-31,1324404,,233280918
2018-03-31,1324404,,233336105
2018-06-30,1324404,,233430746
2018-09-30,1324404,,231703474
2018-12-31,1324404,,225609147
2019-03-31,1324404,,221695697
2019-06-30,1324404,,219233035
2019-09-30,1324404,,217716721
2019-12-31,1324404,,216595811
2020-03-31,1324404,,214681175
2020-06-30,1324404,,213848147
2020-09-30,1324404,,213902649
2020-12-31,1324404,,214076713
2021-03-31,1324404,,214386440
2021-06-30,1324404,,214881372
2021-09-30,1324404,,214701916
2021-12-31,1324404,,209826396
