period,cik,class,shares_outstanding
2017-09-30,1326801,a,2380222395
2017-12-31,1326801,a,2392254515
2018-03-31,1326801,a,2397839182
2018-06-30,1326801,a,2408231640
2018-09-30,1326801,a,2405084741
2018-12-31,1326801,a,2390757725
2019-03-31,1326801,a,2397885652
2019-06-30,1326801,a,2405000345
2019-09-30,1326801,a,2406270549
2019-12-31,1326801,a,2405938402
2020-03-31,1326801,a,2404876283
2020-06-30,1326801,a,2404354043
2020-09-30,1326801,a,2404050653
2020-12-31,1326801,a,2405074483
2021-03-31,1326801,a,2398526581
2021-06-30,1326801,a,2387039038
2021-09-30,1326801,a,2370415181
2021-12-31,1326801,a,2325667388
2017-09-30,1326801,b,525076382
2017-12-31,1326801,b,513012612
2018-03-31,1326801,b,499752283
2018-06-30,1326801,b,480941067
2018-09-30,1326801,b,472520116
2018-12-31,1326801,b,469339909
2019-03-31,1326801,b,456466469
2019-06-30,1326801,b,448299752
2019-09-30,1326801,b,445795401
2019-12-31,1326801,b,444857821
2020-03-31,1326801,b,444593146
2020-06-30,1326801,b,444538436
2020-09-30,1326801,b,444378490
2020-12-31,1326801,b,442752857
2021-03-31,1326801,b,440157184
2021-06-30,1326801,b,436630605
2021-09-30,1326801,b,420236296
2021-12-31,1326801,b,413621662
