period,cik,class,shares_outstanding
2017-09-30,1326160,,699975339
2017-12-31,1326160,,700062214
2018-03-31,1326160,,700991765
2018-06-30,1326160,,709378341
2018-09-30,1326160,,712695702
2018-12-31,1326160,,722094943
2019-03-31,1326160,,727686072
2019-06-30,1326160,,728408326
2019-09-30,1326160,,728882673
2019-12-31,1326160,,731830105
2020-03-31,1326160,,734325341
2020-06-30,1326160,,735230537
2020-09-30,1326160,,735775456
2020-12-31,1326160,,757287920
2021-03-31,1326160,,769025510
2021-06-30,1326160,,769296331
2021-09-30,1326160,,769341363
2021-12-31,1326160,,769353136
