period,cik,class,shares_outstanding
2019-09-30,1335258,,213570577
2019-12-31,1335258,,214174685
2020-03-31,1335258,,214937230
2020-06-30,1335258,,216589884
2020-09-30,1335258,,217162198
2020-12-31,1335258,,217614312
2021-03-31,1335258,,218394083
2021-06-30,1335258,,218893545
2021-09-30,1335258,,222891959
2021-12-31,1335258,,224640599
