period,cik,class,shares_outstanding
2019-09-30,1336920,,142106329
2019-12-31,1336920,,141462852
2020-03-31,1336920,,141810496
2020-06-30,1336920,,142147464
2020-09-30,1336920,,142283172
2020-12-31,1336920,,142073616
2021-03-31,1336920,,141603216
2021-06-30,1336920,,141522153
2021-09-30,1336920,,140689592
2021-12-31,1336920,,140442775
