period,cik,class,shares_outstanding
2017-09-30,1339947,a,49431240
2017-12-31,1339947,a,49431181
2018-03-31,1339947,a,49431181
2018-06-30,1339947,a,49430986
2018-09-30,1339947,a,49430905
2018-12-31,1339947,a,49430902
2019-03-31,1339947,a,49430727
2019-06-30,1339947,a,49430562
2019-09-30,1339947,a,49430498
2017-09-30,1339947,b,352789121
2017-12-31,1339947,b,352881700
2018-03-31,1339947,b,352961541
2018-06-30,1339947,b,353298228
2018-09-30,1339947,b,353436277
2018-12-31,1339947,b,353569417
2019-03-31,1339947,b,353642696
2019-06-30,1339947,b,353853380
2019-09-30,1339947,b,353972768
