period,cik,class,shares_outstanding
2017-09-30,1365135,,460928057
2017-12-31,1365135,,459295946
2018-03-31,1365135,,460196846
2018-06-30,1365135,,451602582
2018-09-30,1365135,,444304393
2018-12-31,1365135,,438826981
2019-03-31,1365135,,432822347
2019-06-30,1365135,,426163512
2019-09-30,1365135,,420767388
2019-12-31,1365135,,415734841
2020-03-31,1365135,,411809354
2020-06-30,1365135,,410969477
2020-09-30,1365135,,411084507
2020-12-31,1365135,,411006142
2021-03-31,1365135,,409961094
2021-06-30,1365135,,407337481
2021-09-30,1365135,,403437929
