period,cik,class,shares_outstanding
2020-06-30,1370637,,119077748
2020-09-30,1370637,,124087009
2020-12-31,1370637,,126067143
2021-03-31,1370637,,126636126
2021-06-30,1370637,,126755916
2021-09-30,1370637,,126713509
2021-12-31,1370637,,126920356
