period,cik,class,shares_outstanding
2017-09-30,1378946,,345666548
2017-12-31,1378946,,346729465
2018-03-31,1378946,,347552397
2018-06-30,1378946,,348373103
2018-09-30,1378946,,367372232
2018-12-31,1378946,,377505751
2019-03-31,1378946,,389670478
2019-06-30,1378946,,398605109
2019-09-30,1378946,,399146321
2019-12-31,1378946,,418822201
2020-03-31,1378946,,428361902
2020-06-30,1378946,,424735515
2020-09-30,1378946,,424835434
2020-12-31,1378946,,425222434
2021-03-31,1378946,,426697510
2021-06-30,1378946,,427841659
2021-09-30,1378946,,427997318
2021-12-31,1378946,,428920705
