period,cik,class,shares_outstanding
2017-09-30,1385157,,352282453
2017-12-31,1385157,,351327730
2018-03-31,1385157,,350385330
2018-06-30,1385157,,348846496
2018-09-30,1385157,,344988861
2018-12-31,1385157,,339972909
2019-03-31,1385157,,337352621
2019-06-30,1385157,,336146817
2019-09-30,1385157,,334987824
2019-12-31,1385157,,334248681
2020-03-31,1385157,,331027605
2020-06-30,1385157,,329986113
2020-09-30,1385157,,330487758
2020-12-31,1385157,,330845096
2021-03-31,1385157,,330377301
2021-06-30,1385157,,328559707
2021-09-30,1385157,,326896126
2021-12-31,1385157,,325783415
