period,cik,class,shares_outstanding
2017-09-30,1393612,,366141034
2017-12-31,1393612,,358452766
2018-03-31,1393612,,351289031
2018-06-30,1393612,,344602537
2018-09-30,1393612,,337950685
2018-12-31,1393612,,331566725
2019-03-31,1393612,,325525458
2019-06-30,1393612,,319869295
2019-09-30,1393612,,314831904
2019-12-31,1393612,,310622701
2020-03-31,1393612,,307109054
2020-06-30,1393612,,306390042
2020-09-30,1393612,,306478156
2020-12-31,1393612,,306616308
2021-03-31,1393612,,305585149
2021-06-30,1393612,,300980743
2021-09-30,1393612,,294691487
2021-12-31,1393612,,288337328
