period,cik,class,shares_outstanding
2017-09-30,1403161,a,1819077410
2017-12-31,1403161,a,1806425151
2018-03-31,1403161,a,1790278986
2018-06-30,1403161,a,1778851921
2018-09-30,1403161,a,1765970095
2018-12-31,1403161,a,1753425411
2019-03-31,1403161,a,1741651954
2019-06-30,1403161,a,1729612481
2019-09-30,1403161,a,1717782204
2019-12-31,1403161,a,1708184351
2020-03-31,1403161,a,1693156467
2020-06-30,1403161,a,1686332238
2020-09-30,1403161,a,1689821732
2020-12-31,1403161,a,1694888083
2021-03-31,1403161,a,1692942166
2021-06-30,1403161,a,1688740987
2021-09-30,1403161,a,1676569990
2021-12-31,1403161,a,1661654240
2017-09-30,1403161,b,245513385
2017-12-31,1403161,b,245513385
2018-03-31,1403161,b,245513385
2018-06-30,1403161,b,245513385
2018-09-30,1403161,b,245513385
2018-12-31,1403161,b,245513385
2019-03-31,1403161,b,245513385
2019-06-30,1403161,b,245513385
2019-09-30,1403161,b,245513385
2019-12-31,1403161,b,245513385
2020-03-31,1403161,b,245513385
2020-06-30,1403161,b,245513385
2020-09-30,1403161,b,245513385
2020-12-31,1403161,b,245513385
2021-03-31,1403161,b,245513385
2021-06-30,1403161,b,245513385
2021-09-30,1403161,b,245513385
2021-12-31,1403161,b,245513385
2017-09-30,1403161,c,12846989
2017-12-31,1403161,c,12493419
2018-03-31,1403161,c,12278092
2018-06-30,1403161,c,12116099
2018-09-30,1403161,c,11842980
2018-12-31,1403161,c,11693375
2019-03-31,1403161,c,11594072
2019-06-30,1403161,c,11459657
2019-09-30,1403161,c,11239277
2019-12-31,1403161,c,11022474
2020-03-31,1403161,c,10902968
2020-06-30,1403161,c,10863324
2020-09-30,1403161,c,10754941
2020-12-31,1403161,c,10685342
2021-03-31,1403161,c,10653553
2021-06-30,1403161,c,10308280
2021-09-30,1403161,c,10133811
2021-12-31,1403161,c,10229967
