period,cik,class,shares_outstanding
2018-03-31,1408198,,89392275
2018-06-30,1408198,,88891787
2018-09-30,1408198,,88270228
2018-12-31,1408198,,85879984
2019-03-31,1408198,,84541591
2019-06-30,1408198,,84692705
2019-09-30,1408198,,84704801
2019-12-31,1408198,,84768325
2020-03-31,1408198,,83976740
2020-06-30,1408198,,83627151
2020-09-30,1408198,,83066303
2020-12-31,1408198,,82684408
2021-03-31,1408198,,82465781
2021-06-30,1408198,,82437757
2021-09-30,1408198,,82445741
2021-12-31,1408198,,81661034
