period,cik,class,shares_outstanding
2017-09-30,1413329,,1553198769
2017-12-31,1413329,,1553221158
2018-03-31,1413329,,1554109678
2018-06-30,1413329,,1554498110
2018-09-30,1413329,,1554519590
2018-12-31,1413329,,1554565193
2019-03-31,1413329,,1555456826
2019-06-30,1413329,,1555830489
2019-09-30,1413329,,1555866215
2019-12-31,1413329,,1555900225
2020-03-31,1413329,,1556777458
2020-06-30,1413329,,1557245744
2020-09-30,1413329,,1557308717
2020-12-31,1413329,,1557410668
2021-03-31,1413329,,1558236295
2021-06-30,1413329,,1558539982
2021-09-30,1413329,,1557296586
2021-12-31,1413329,,1552113486
