period,cik,class,shares_outstanding
2017-09-30,1437107,a,153981729
2017-12-31,1437107,a,154889675
2018-03-31,1437107,a,155850242
2018-06-30,1437107,a,156178637
2018-09-30,1437107,a,156569870
2018-12-31,1437107,a,156894360
2019-03-31,1437107,a,157542490
2019-06-30,1437107,a,157986256
2019-09-30,1437107,a,158108842
2019-12-31,1437107,a,158388746
2020-03-31,1437107,a,159535279
2020-06-30,1437107,a,160155705
2020-09-30,1437107,a,160285892
2020-12-31,1437107,a,161663116
2021-03-31,1437107,a,167090202
2021-06-30,1437107,a,168980937
2021-09-30,1437107,a,169176848
2021-12-31,1437107,a,169439052
2017-09-30,1437107,b,6512379
2017-12-31,1437107,b,6512379
2018-03-31,1437107,b,6512379
2018-06-30,1437107,b,6512378
2018-09-30,1437107,b,6512378
2018-12-31,1437107,b,6512378
2019-03-31,1437107,b,6512378
2019-06-30,1437107,b,6512378
2019-09-30,1437107,b,6512378
2019-12-31,1437107,b,6512378
2020-03-31,1437107,b,6512378
2020-06-30,1437107,b,6512378
2020-09-30,1437107,b,6512378
2020-12-31,1437107,b,6512378
2021-03-31,1437107,b,6512378
2021-06-30,1437107,b,6512378
2021-09-30,1437107,b,6512378
2017-09-30,1437107,c,218534775
2017-12-31,1437107,c,219224571
2018-03-31,1437107,c,294743661
2018-06-30,1437107,c,359634106
2018-09-30,1437107,c,360043660
2018-12-31,1437107,c,360244749
2019-03-31,1437107,c,360438986
2019-06-30,1437107,c,369706638
2019-09-30,1437107,c,364412146
2019-12-31,1437107,c,357852055
2020-03-31,1437107,c,345388850
2020-06-30,1437107,c,340168275
2020-09-30,1437107,c,328768053
2020-12-31,1437107,c,320556537
2021-03-31,1437107,c,327148376
2021-06-30,1437107,c,330146263
2021-09-30,1437107,c,330146263
2021-12-31,1437107,c,330150918
