period,cik,class,shares_outstanding
2017-09-30,1442145,,164650036
2017-12-31,1442145,,164879717
2018-03-31,1442145,,165163747
2018-06-30,1442145,,164877883
2018-09-30,1442145,,164646331
2018-12-31,1442145,,163975589
2019-03-31,1442145,,163605433
2019-06-30,1442145,,163553412
2019-09-30,1442145,,163765896
2019-12-31,1442145,,163402006
2020-03-31,1442145,,162598575
2020-06-30,1442145,,162341320
2020-09-30,1442145,,162520340
2020-12-31,1442145,,162699698
2021-03-31,1442145,,162401372
2021-06-30,1442145,,161602807
2021-09-30,1442145,,161223713
2021-12-31,1442145,,161228671
