period,cik,class,shares_outstanding
2017-12-31,1467373,a,648639124
2018-03-31,1467373,a,672642919
2018-06-30,1467373,a,672695441
2018-09-30,1467373,a,664572758
2018-12-31,1467373,a,666859710
2019-03-31,1467373,a,670742072
2019-06-30,1467373,a,669707626
2019-09-30,1467373,a,656528589
2019-12-31,1467373,a,658394403
2020-03-31,1467373,a,662292157
2020-06-30,1467373,a,662975444
2020-09-30,1467373,a,659247699
2020-12-31,1467373,a,662187207
2021-03-31,1467373,a,665464118
2021-06-30,1467373,a,664802004
2021-09-30,1467373,a,656911028
2021-12-31,1467373,a,659429701
2017-12-31,1467373,x,15982188
2018-03-31,1467373,x,664761
2018-06-30,1467373,x,662988
2018-09-30,1467373,x,652120
2018-12-31,1467373,x,650821
2019-03-31,1467373,x,648416
2019-06-30,1467373,x,633384
2019-09-30,1467373,x,611755
2019-12-31,1467373,x,592020
2020-03-31,1467373,x,587316
2020-06-30,1467373,x,576353
2020-09-30,1467373,x,531861
2020-12-31,1467373,x,525325
2021-03-31,1467373,x,519597
2021-06-30,1467373,x,515191
2021-09-30,1467373,x,512708
2021-12-31,1467373,x,507000
