period,cik,class,shares_outstanding
2017-09-30,14693,b,215242732
2017-12-31,14693,b,247460125
2018-03-31,14693,b,311904136
2018-06-30,14693,b,312082661
2018-09-30,14693,b,310060540
2018-12-31,14693,b,307981726
2019-03-31,14693,b,308126231
2019-06-30,14693,b,308389533
2019-09-30,14693,b,308700546
2019-12-31,14693,b,308952616
2020-03-31,14693,b,309131863
2020-06-30,14693,b,309248290
2020-09-30,14693,b,309401094
2020-12-31,14693,b,309521070
2021-03-31,14693,b,309605846
2021-06-30,14693,b,309669487
2021-09-30,14693,b,309724540
2021-12-31,14693,b,309760394
