period,cik,class,shares_outstanding
2017-09-30,1534701,,506792338
2017-12-31,1534701,,502669052
2018-03-31,1534701,,466436952
2018-06-30,1534701,,464279712
2018-09-30,1534701,,461159419
2018-12-31,1534701,,456529277
2019-03-31,1534701,,453574249
2019-06-30,1534701,,448596746
2019-09-30,1534701,,444403055
2019-12-31,1534701,,440723691
2020-03-31,1534701,,436720892
2020-06-30,1534701,,436696418
2020-09-30,1534701,,436799059
2020-12-31,1534701,,436894849
2021-03-31,1534701,,437851627
2021-06-30,1534701,,437988063
2021-09-30,1534701,,438099067
2021-12-31,1534701,,438367584
