period,cik,class,shares_outstanding
2017-09-30,1551182,,440645652
2017-12-31,1551182,,440304065
2018-03-31,1551182,,437349152
2018-06-30,1551182,,433343956
2018-09-30,1551182,,433398913
2018-12-31,1551182,,426149593
2019-03-31,1551182,,423108474
2019-06-30,1551182,,420034065
2019-09-30,1551182,,413471739
2019-12-31,1551182,,413400000
2020-03-31,1551182,,400223333
2020-06-30,1551182,,400098901
2020-09-30,1551182,,398616304
2020-12-31,1551182,,398230081
2021-03-31,1551182,,398493220
2021-06-30,1551182,,398598901
2021-09-30,1551182,,398600000
2021-12-31,1551182,,398747967
