period,cik,class,shares_outstanding
2017-09-30,1551152,,1595795217
2017-12-31,1551152,,1590819594
2018-03-31,1551152,,1587243852
2018-06-30,1551152,,1538729709
2018-09-30,1551152,,1507714195
2018-12-31,1551152,,1486736639
2019-03-31,1551152,,1477193035
2019-06-30,1551152,,1478435435
2019-09-30,1551152,,1478711129
2019-12-31,1551152,,1479042445
2020-03-31,1551152,,1477573865
2020-06-30,1551152,,1670960887
2020-09-30,1551152,,1765276791
2020-12-31,1551152,,1765745767
2021-03-31,1551152,,1766108787
2021-06-30,1551152,,1766886360
2021-09-30,1551152,,1767679055
2021-12-31,1551152,,1768468648
