period,cik,class,shares_outstanding
2017-09-30,1578845,,333113279
2017-12-31,1578845,,331254552
2018-03-31,1578845,,335710068
2018-06-30,1578845,,339318840
2018-09-30,1578845,,337948209
2018-12-31,1578845,,334394084
2019-03-31,1578845,,329749849
2019-06-30,1578845,,327940391
2019-09-30,1578845,,328184548
2019-12-31,1578845,,328692443
2020-03-31,1578845,,329480488
