period,cik,class,shares_outstanding
2017-09-30,1585364,,140860175
2017-12-31,1585364,,140836281
2018-03-31,1585364,,139647855
2018-06-30,1585364,,137459326
2018-09-30,1585364,,136221218
2018-12-31,1585364,,135865101
2019-03-31,1585364,,135933881
2019-06-30,1585364,,136030987
2019-09-30,1585364,,136089669
2019-12-31,1585364,,136118750
2020-03-31,1585364,,136228158
2020-06-30,1585364,,136421080
2020-09-30,1585364,,136487285
2020-12-31,1585364,,134750936
2021-03-31,1585364,,133303200
