period,cik,class,shares_outstanding
2017-09-30,1598014,,398636840
2017-12-31,1598014,,397823229
2018-03-31,1598014,,397278794
2018-06-30,1598014,,392693803
2018-09-30,1598014,,394924615
2018-12-31,1598014,,397333704
2019-03-31,1598014,,400174213
2019-06-30,1598014,,401033457
2019-09-30,1598014,,399077047
2019-12-31,1598014,,393014568
2020-03-31,1598014,,398229428
2020-06-30,1598014,,397297909
2020-09-30,1598014,,397938621
2020-12-31,1598014,,396606385
2021-03-31,1598014,,398553305
2021-06-30,1598014,,398684503
2021-09-30,1598014,,398898187
2021-12-31,1598014,,399078411
