period,cik,class,shares_outstanding
2018-09-30,1601046,,187490909
2018-12-31,1601046,,187727432
2019-03-31,1601046,,188048106
2019-06-30,1601046,,187968953
2019-09-30,1601046,,187830931
2019-12-31,1601046,,188256254
2020-03-31,1601046,,187281342
2020-06-30,1601046,,187071896
2020-09-30,1601046,,186820798
2020-12-31,1601046,,186069473
2021-03-31,1601046,,185343969
2021-06-30,1601046,,184214565
2021-09-30,1601046,,183843430
2021-12-31,1601046,,182793900
