period,cik,class,shares_outstanding
2017-09-30,1604778,,127181332
2017-12-31,1604778,,126671450
2018-03-31,1604778,,126491754
2018-06-30,1604778,,125944289
2018-09-30,1604778,,125115961
2018-12-31,1604778,,123464961
2019-03-31,1604778,,120641531
2019-06-30,1604778,,118263247
2019-09-30,1604778,,116608430
2019-12-31,1604778,,115808347
2020-03-31,1604778,,115102389
2020-06-30,1604778,,114419842
2020-09-30,1604778,,114108208
2020-12-31,1604778,,113488819
2021-03-31,1604778,,112862176
2021-06-30,1604778,,111704624
2021-09-30,1604778,,110515871
2021-12-31,1604778,,108982888
