period,cik,class,shares_outstanding
2017-09-30,1623613,,536376482
2017-12-31,1623613,,525415671
2018-03-31,1623613,,515113386
2018-06-30,1623613,,515520257
2018-09-30,1623613,,515608394
2018-12-31,1623613,,515799098
2019-03-31,1623613,,515678428
2019-06-30,1623613,,515737522
2019-09-30,1623613,,516046773
2019-12-31,1623613,,516156030
2020-03-31,1623613,,516635082
2020-06-30,1623613,,516946046
2020-09-30,1623613,,532989729
