period,cik,class,shares_outstanding
2017-09-30,1633917,,1202014218
2017-12-31,1633917,,1200716450
2018-03-31,1633917,,1190870528
2018-06-30,1633917,,1184529658
2018-09-30,1633917,,1179433712
2018-12-31,1633917,,1174763999
2019-03-31,1633917,,1174491052
2019-06-30,1633917,,1176292469
2019-09-30,1633917,,1174710870
2019-12-31,1633917,,1173332464
2020-03-31,1633917,,1173620805
2020-06-30,1633917,,1173502711
2020-09-30,1633917,,1172177546
2020-12-31,1633917,,1171342227
2021-03-31,1633917,,1173517931
2021-06-30,1633917,,1174945265
2021-09-30,1633917,,1174964164
2021-12-31,1633917,,1168313332
