period,cik,class,shares_outstanding
2017-09-30,1637459,,1218398773
2017-12-31,1637459,,1218668268
2018-03-31,1637459,,1219032770
2018-06-30,1637459,,1219224020
2018-09-30,1637459,,1219377402
2018-12-31,1637459,,1219580764
2019-03-31,1637459,,1219786010
2019-06-30,1637459,,1219960209
2019-09-30,1637459,,1220784824
2019-12-31,1637459,,1221308538
2020-03-31,1637459,,1221686691
2020-06-30,1637459,,1222365588
2020-09-30,1637459,,1222610921
2020-12-31,1637459,,1222953728
2021-03-31,1637459,,1223157485
2021-06-30,1637459,,1223308835
2021-09-30,1637459,,1224725956
2021-12-31,1637459,,1224337849
