period,cik,class,shares_outstanding
2017-12-31,1666700,,2332838011
2018-03-31,1666700,,2323655680
2018-06-30,1666700,,2312041157
2018-09-30,1666700,,2298811836
2018-12-31,1666700,,2268494843
2019-03-31,1666700,,2249304714
2019-06-30,1666700,,1288363096
2019-09-30,1666700,,742400699
2019-12-31,1666700,,739961218
2020-03-31,1666700,,736006128
2020-06-30,1666700,,733817355
2020-09-30,1666700,,733842584
2020-12-31,1666700,,616393250
2021-03-31,1666700,,534475842
2021-06-30,1666700,,526342988
2021-09-30,1666700,,519899930
2021-12-31,1666700,,515037990
