period,cik,class,shares_outstanding
2019-12-31,1699150,,204963648
2020-03-31,1699150,,305869350
2020-06-30,1699150,,416870166
2020-09-30,1699150,,417452410
2020-12-31,1699150,,418259674
2021-03-31,1699150,,419190665
2021-06-30,1699150,,419969661
2021-09-30,1699150,,411432639
2021-12-31,1699150,,407796800
