period,cik,class,shares_outstanding
2017-09-30,1701605,a,428144090
2017-12-31,1701605,a,424562124
2018-03-31,1701605,a,419187361
2018-06-30,1701605,a,413009349
2018-09-30,1701605,a,412057728
2018-12-31,1701605,a,477189145
2019-03-31,1701605,a,515335622
2019-06-30,1701605,a,516164351
2019-09-30,1701605,a,616494695
2019-12-31,1701605,a,652216814
2020-03-31,1701605,a,654648209
2020-06-30,1701605,a,656069938
2020-09-30,1701605,a,680307549
2020-12-31,1701605,a,711499235
2021-03-31,1701605,a,760219170
2021-06-30,1701605,a,818278993
2021-09-30,1701605,a,862674700
2021-12-31,1701605,a,925066679
2017-09-30,1701605,b,717110722
2017-12-31,1701605,b,710568845
2018-03-31,1701605,b,701008739
2018-06-30,1701605,b,690133301
2018-09-30,1701605,b,687743095
2018-12-31,1701605,b,582533920
2019-03-31,1701605,b,521543095
2019-06-30,1701605,b,521543095
2019-09-30,1701605,b,413456656
2019-12-31,1701605,b,377427869
2020-03-31,1701605,b,377427854
2020-06-30,1701605,b,377427844
2020-09-30,1701605,b,354668255
2020-12-31,1701605,b,326816462
2021-03-31,1701605,b,281008674
2021-06-30,1701605,b,224062508
2021-09-30,1701605,b,174976640
2021-12-31,1701605,b,105504906
