period,cik,class,shares_outstanding
2018-09-30,1711269,,247536045
2018-12-31,1711269,,258506456
2019-03-31,1711269,,244337828
2019-06-30,1711269,,237834046
2019-09-30,1711269,,230646286
2019-12-31,1711269,,227264874
2020-03-31,1711269,,226701564
2020-06-30,1711269,,226796921
2020-09-30,1711269,,226830348
2020-12-31,1711269,,226893421
2021-03-31,1711269,,228238939
2021-06-30,1711269,,229287502
2021-09-30,1711269,,229301096
2021-12-31,1711269,,229307676
