period,cik,class,shares_outstanding
2018-06-30,1730168,,426070380
2018-09-30,1730168,,411478625
2018-12-31,1730168,,403504338
2019-03-31,1730168,,396555655
2019-06-30,1730168,,397626528
2019-09-30,1730168,,397040503
2019-12-31,1730168,,398473286
2020-03-31,1730168,,400606862
2020-06-30,1730168,,402974266
2020-09-30,1730168,,405279102
2020-12-31,1730168,,407289424
2021-03-31,1730168,,408990935
2021-06-30,1730168,,410737299
2021-09-30,1730168,,412072369
2021-12-31,1730168,,411157977
