period,cik,class,shares_outstanding
2018-12-31,1732845,,254815801
2019-03-31,1732845,,256645138
2019-06-30,1732845,,257275885
2019-09-30,1732845,,257710190
2019-12-31,1732845,,258319627
2020-03-31,1732845,,259051244
2020-06-30,1732845,,259531589
2020-09-30,1732845,,261561744
2020-12-31,1732845,,263259056
2021-03-31,1732845,,265430767
2021-06-30,1732845,,266771441
2021-09-30,1732845,,265707911
2021-12-31,1732845,,263725006
