period,cik,class,shares_outstanding
2019-06-30,1744489,,1800788222
2019-09-30,1744489,,1801961463
2019-12-31,1744489,,1804254089
2020-03-31,1744489,,1805993743
2020-06-30,1744489,,1806800742
2020-09-30,1744489,,1808957504
2020-12-31,1744489,,1813091689
2021-03-31,1744489,,1816272126
2021-06-30,1744489,,1817049635
2021-09-30,1744489,,1817408916
2021-12-31,1744489,,1819318685
