period,cik,class,shares_outstanding
2019-06-30,1748790,,832471166
2019-09-30,1748790,,1623279224
2019-12-31,1748790,,1610724803
2020-03-31,1748790,,1586939317
2020-06-30,1748790,,1571567720
2020-09-30,1748790,,1568481519
2020-12-31,1748790,,1564434665
2021-03-31,1748790,,1549556294
2021-06-30,1748790,,1539992052
2021-09-30,1748790,,1535535524
2021-12-31,1748790,,1520777497
