period,cik,class,shares_outstanding
2019-06-30,1751788,,743304008
2019-09-30,1751788,,741514558
2019-12-31,1751788,,741631340
2020-03-31,1751788,,740746615
2020-06-30,1751788,,741117157
2020-09-30,1751788,,741744910
2020-12-31,1751788,,743351880
2021-03-31,1751788,,746937325
2021-06-30,1751788,,745785168
2021-09-30,1751788,,739681340
2021-12-31,1751788,,736753298
