period,cik,class,shares_outstanding
2019-06-30,1755672,,576071574
2019-09-30,1755672,,748537521
2019-12-31,1755672,,749034263
2020-03-31,1755672,,748755819
2020-06-30,1755672,,748501208
2020-09-30,1755672,,746187318
2020-12-31,1755672,,744412448
2021-03-31,1755672,,739639717
2021-06-30,1755672,,735178362
2021-09-30,1755672,,731860510
2021-12-31,1755672,,728354723
