period,cik,class,shares_outstanding
2019-09-30,1757898,,84748128
2019-12-31,1757898,,84801556
2020-03-31,1757898,,84866204
2020-06-30,1757898,,84991481
2020-09-30,1757898,,85231720
2020-12-31,1757898,,85341874
2021-03-31,1757898,,85361257
2021-06-30,1757898,,92657727
2021-09-30,1757898,,99917377
2021-12-31,1757898,,100086429
