period,cik,class,shares_outstanding
2020-06-30,1792044,,100
2020-09-30,1792044,,100
2020-12-31,1792044,,580328236
2021-03-31,1792044,,1207974502
2021-06-30,1792044,,1209036477
2021-09-30,1792044,,1209353817
2021-12-31,1792044,,1209487319
