period,cik,class,shares_outstanding
2017-09-30,18230,,594890529
2017-12-31,18230,,597596509
2018-03-31,18230,,597901798
2018-06-30,18230,,594364723
2018-09-30,18230,,590152566
2018-12-31,18230,,575701042
2019-03-31,18230,,571744949
2019-06-30,18230,,562689334
2019-09-30,18230,,552766330
2019-12-31,18230,,550110607
2020-03-31,18230,,542040861
2020-06-30,18230,,541511464
2020-09-30,18230,,543239242
2020-12-31,18230,,545281612
2021-03-31,18230,,547736200
2021-06-30,18230,,547474676
2021-09-30,18230,,541012576
2021-12-31,18230,,535942980
