period,cik,class,shares_outstanding
2017-09-30,19617,,3470260781
2017-12-31,19617,,3441784074
2018-03-31,19617,,3405237626
2018-06-30,19617,,3361366445
2018-09-30,19617,,3325796305
2018-12-31,19617,,3287553985
2019-03-31,19617,,3244486000
2019-06-30,19617,,3197995845
2019-09-30,19617,,3137147968
2019-12-31,19617,,3090238940
2020-03-31,19617,,3047472105
2020-06-30,19617,,3047598095
2020-09-30,19617,,3048196556
2020-12-31,19617,,3050647021
2021-03-31,19617,,3027541303
2021-06-30,19617,,2988583627
2021-09-30,19617,,2955623553
2021-12-31,19617,,2953448213
