period,cik,class,shares_outstanding
2017-09-30,20286,,164049436
2017-12-31,20286,,164023205
2018-03-31,20286,,164090797
2018-06-30,20286,,162996980
2018-09-30,20286,,162718930
2018-12-31,20286,,162855852
2019-03-31,20286,,163132518
2019-06-30,20286,,163308528
2019-09-30,20286,,163365684
2019-12-31,20286,,162965843
2020-03-31,20286,,161478855
2020-06-30,20286,,160839946
2020-09-30,20286,,160885934
2020-12-31,20286,,161072288
2021-03-31,20286,,161136742
2021-06-30,20286,,161160132
2021-09-30,20286,,161151583
2021-12-31,20286,,160720318
