period,cik,class,shares_outstanding
2017-09-30,21076,,128968663
2017-12-31,21076,,129303895
2018-03-31,21076,,129485779
2018-06-30,21076,,128484078
2018-09-30,21076,,127747320
2018-12-31,21076,,128059647
2019-03-31,21076,,127528898
2019-06-30,21076,,126181317
2019-09-30,21076,,125555301
2019-12-31,21076,,125192151
2020-03-31,21076,,125761220
2020-06-30,21076,,126134019
2020-09-30,21076,,126089355
2020-12-31,21076,,125851809
2021-03-31,21076,,124655882
2021-06-30,21076,,123252005
2021-09-30,21076,,122850792
2021-12-31,21076,,123013804
