period,cik,class,shares_outstanding
2017-09-30,21344,,4261890225
2017-12-31,21344,,4263738581
2018-03-31,21344,,4259520175
2018-06-30,21344,,4253568007
2018-09-30,21344,,4255493169
2018-12-31,21344,,4267439778
2019-03-31,21344,,4269329855
2019-06-30,21344,,4273522123
2019-09-30,21344,,4282445149
2019-12-31,21344,,4287837891
2020-03-31,21344,,4293253670
2020-06-30,21344,,4295311153
2020-09-30,21344,,4296995998
2020-12-31,21344,,4304221505
2021-03-31,21344,,4310733070
2021-06-30,21344,,4315356760
2021-09-30,21344,,4318653500
2021-12-31,21344,,4328553880
