period,cik,class,shares_outstanding
2017-09-30,23217,,405656040
2017-12-31,23217,,397992693
2018-03-31,23217,,392789884
2018-06-30,23217,,390955772
2018-09-30,23217,,426824222
2018-12-31,23217,,485746866
2019-03-31,23217,,485976144
2019-06-30,23217,,486179751
2019-09-30,23217,,486715560
2019-12-31,23217,,486917655
2020-03-31,23217,,487124127
2020-06-30,23217,,487263912
2020-09-30,23217,,488538151
2020-12-31,23217,,485638368
2021-03-31,23217,,480042477
2021-06-30,23217,,480305925
2021-09-30,23217,,479692489
