period,cik,class,shares_outstanding
2017-09-30,24545,b,195216597
2017-12-31,24545,b,195357464
2018-03-31,24545,b,195531227
2018-06-30,24545,b,195607996
2018-09-30,24545,b,195636732
2018-12-31,24545,b,195898409
2019-03-31,24545,b,196140966
2019-06-30,24545,b,196218755
