period,cik,class,shares_outstanding
2017-09-30,27904,,713093324
2017-12-31,27904,,708489886
2018-03-31,27904,,702553377
2018-06-30,27904,,691453812
2018-09-30,27904,,685680794
2018-12-31,27904,,680685019
2019-03-31,27904,,655402470
2019-06-30,27904,,650253318
2019-09-30,27904,,646780438
2019-12-31,27904,,641823779
2020-03-31,27904,,637873835
2020-06-30,27904,,637856520
2020-09-30,27904,,637735631
2020-12-31,27904,,638039383
2021-03-31,27904,,639635713
2021-06-30,27904,,639912092
2021-09-30,27904,,640012742
2021-12-31,27904,,639951628
