period,cik,class,shares_outstanding
2017-09-30,29905,,155782973
2017-12-31,29905,,154772545
2018-03-31,29905,,154614449
2018-06-30,29905,,148795960
2018-09-30,29905,,146513458
2018-12-31,29905,,145347149
2019-03-31,29905,,145261816
2019-06-30,29905,,145423479
2019-09-30,29905,,145287102
2019-12-31,29905,,144616743
2020-03-31,29905,,144028652
2020-06-30,29905,,143966136
2020-09-30,29905,,144082589
2020-12-31,29905,,143787084
2021-03-31,29905,,143871667
2021-06-30,29905,,143955754
2021-09-30,29905,,143981264
2021-12-31,29905,,144033995
