period,cik,class,shares_outstanding
2017-09-30,310764,,374235736
2017-12-31,310764,,374536842
2018-03-31,310764,,373726715
2018-06-30,310764,,373987421
2018-09-30,310764,,374185146
2018-12-31,310764,,373060772
2019-03-31,310764,,373790670
2019-06-30,310764,,374100381
2019-09-30,310764,,374363915
2019-12-31,310764,,374520935
2020-03-31,310764,,375365088
2020-06-30,310764,,375603314
2020-09-30,310764,,375788647
2020-12-31,310764,,376094201
2021-03-31,310764,,376738596
2021-06-30,310764,,377092443
2021-09-30,310764,,377238396
2021-12-31,310764,,377465407
