period,cik,class,shares_outstanding
2017-09-30,313616,,695464430
2017-12-31,313616,,696903635
2018-03-31,313616,,698353264
2018-06-30,313616,,699572979
2018-09-30,313616,,700738723
2018-12-31,313616,,701553875
2019-03-31,313616,,713078054
2019-06-30,313616,,717162749
2019-09-30,313616,,718104052
2019-12-31,313616,,703783728
2020-03-31,313616,,697031534
2020-06-30,313616,,706627567
2020-09-30,313616,,710196514
2020-12-31,313616,,711600724
2021-03-31,313616,,713017875
2021-06-30,313616,,713783610
2021-09-30,313616,,714457781
2021-12-31,313616,,715103248
