period,cik,class,shares_outstanding
2017-09-30,315293,,251324728
2017-12-31,315293,,247759498
2018-03-31,315293,,245258724
2018-06-30,315293,,243252291
2018-09-30,315293,,241361608
2018-12-31,315293,,240350765
2019-03-31,315293,,240324883
2019-06-30,315293,,237178964
2019-09-30,315293,,234605671
2019-12-31,315293,,232608782
2020-03-31,315293,,231284880
2020-06-30,315293,,231457607
2020-09-30,315293,,229616563
2020-12-31,315293,,227159346
2021-03-31,315293,,225791719
2021-06-30,315293,,225714213
2021-09-30,315293,,222057982
2021-12-31,315293,,216739186
