period,cik,class,shares_outstanding
2017-09-30,318154,,726655141
2017-12-31,318154,,722469041
2018-03-31,318154,,678151132
2018-06-30,318154,,650285746
2018-09-30,318154,,639783739
2018-12-31,318154,,627775271
2019-03-31,318154,,613995666
2019-06-30,318154,,602512886
2019-09-30,318154,,595638753
2019-12-31,318154,,591375832
2020-03-31,318154,,588786457
2020-06-30,318154,,586398223
2020-09-30,318154,,583088219
2020-12-31,318154,,579130247
2021-03-31,318154,,575442256
2021-06-30,318154,,569903873
2021-09-30,318154,,564727518
2021-12-31,318154,,559559283
