period,cik,class,shares_outstanding
2017-09-30,319201,,156728290
2017-12-31,319201,,156632664
2018-03-31,319201,,155987166
2018-06-30,319201,,156087365
2018-09-30,319201,,153698003
2018-12-31,319201,,151721296
2019-03-31,319201,,159366135
2019-06-30,319201,,159775579
2019-09-30,319201,,158099633
2019-12-31,319201,,156974410
2020-03-31,319201,,155433887
2020-06-30,319201,,155366240
2020-09-30,319201,,154679954
2020-12-31,319201,,154144681
2021-03-31,319201,,153450478
2021-06-30,319201,,152856855
2021-09-30,319201,,151854965
2021-12-31,319201,,150869914
