period,cik,class,shares_outstanding
2017-09-30,320335,,115750653
2017-12-31,320335,,114688523
2018-03-31,320335,,113779896
2018-06-30,320335,,112993772
2018-09-30,320335,,111933175
2018-12-31,320335,,110830130
2019-03-31,320335,,110071509
2019-06-30,320335,,109399528
2019-09-30,320335,,108596671
2019-12-31,320335,,107893196
2020-03-31,320335,,106907435
2020-06-30,320335,,106488071
2020-09-30,320335,,105251779
2020-12-31,320335,,103893400
2021-03-31,320335,,103150042
2021-06-30,320335,,102145329
2021-09-30,320335,,101207342
2021-12-31,320335,,100041611
