period,cik,class,shares_outstanding
2017-09-30,32604,,641193673
2017-12-31,32604,,637266192
2018-03-31,32604,,631743724
2018-06-30,32604,,629030615
2018-09-30,32604,,626961016
2018-12-31,32604,,618633333
2019-03-31,32604,,614884915
2019-06-30,32604,,615075417
2019-09-30,32604,,611222574
2019-12-31,32604,,610906369
2020-03-31,32604,,597714729
2020-06-30,32604,,597561331
2020-09-30,32604,,597883798
2020-12-31,32604,,599337426
2021-03-31,32604,,599705587
2021-06-30,32604,,597820879
2021-09-30,32604,,595654471
2021-12-31,32604,,594014754
