period,cik,class,shares_outstanding
2017-09-30,34088,,4237106074
2017-12-31,34088,,4237369519
2018-03-31,34088,,4233895923
2018-06-30,34088,,4233810612
2018-09-30,34088,,4233807204
2018-12-31,34088,,4234543501
2019-03-31,34088,,4231156770
2019-06-30,34088,,4231106157
2019-09-30,34088,,4231106068
2019-12-31,34088,,4231908551
2020-03-31,34088,,4228277576
2020-06-30,34088,,4228233045
2020-09-30,34088,,4228234105
2020-12-31,34088,,4232117554
2021-03-31,34088,,4233537971
2021-06-30,34088,,4233562653
2021-09-30,34088,,4233566796
2021-12-31,34088,,4233585771
