period,cik,class,shares_outstanding
2017-09-30,352541,,231202817
2017-12-31,352541,,231316797
2018-03-31,352541,,231479701
2018-06-30,352541,,233747731
2018-09-30,352541,,235912930
2018-12-31,352541,,236038565
2019-03-31,352541,,237372037
2019-06-30,352541,,237519682
2019-09-30,352541,,240312276
2019-12-31,352541,,243811358
2020-03-31,352541,,249429208
2020-06-30,352541,,249642806
2020-09-30,352541,,249759398
2020-12-31,352541,,249849729
2021-03-31,352541,,250130255
2021-06-30,352541,,250256501
2021-09-30,352541,,250359668
2021-12-31,352541,,250448009
