period,cik,class,shares_outstanding
2017-09-30,352915,a,6595308
2017-12-31,352915,a,6595308
2018-03-31,352915,a,6583442
2018-06-30,352915,a,6577100
2018-09-30,352915,a,6577100
2018-12-31,352915,a,6577100
2019-03-31,352915,a,6577100
2019-06-30,352915,a,6577100
2019-09-30,352915,a,6577100
2019-12-31,352915,a,6577100
2020-03-31,352915,a,6577100
2020-06-30,352915,a,6577100
2020-09-30,352915,a,6577100
2020-12-31,352915,a,6577100
2021-03-31,352915,a,6577100
2021-06-30,352915,a,6577100
2021-09-30,352915,a,6577100
2021-12-31,352915,a,6577100
2017-09-30,352915,b,87890673
2017-12-31,352915,b,87213705
2018-03-31,352915,b,87093980
2018-06-30,352915,b,86457177
2018-09-30,352915,b,85544737
2018-12-31,352915,b,84128224
2019-03-31,352915,b,83107211
2019-06-30,352915,b,81805832
2019-09-30,352915,b,80640291
2019-12-31,352915,b,79769364
2020-03-31,352915,b,78290574
2020-06-30,352915,b,77689547
2020-09-30,352915,b,77716098
2020-12-31,352915,b,77797662
2021-03-31,352915,b,77925152
2021-06-30,352915,b,76604074
2021-09-30,352915,b,74078127
2021-12-31,352915,b,69488788
2017-09-30,352915,c,663940
2017-12-31,352915,c,663940
2018-03-31,352915,c,662472
2018-06-30,352915,c,661688
2018-09-30,352915,c,661688
2018-12-31,352915,c,661688
2019-03-31,352915,c,661688
2019-06-30,352915,c,661688
2019-09-30,352915,c,661688
2019-12-31,352915,c,661688
2020-03-31,352915,c,661688
2020-06-30,352915,c,661688
2020-09-30,352915,c,661688
2020-12-31,352915,c,661688
2021-03-31,352915,c,661688
2021-06-30,352915,c,661688
2021-09-30,352915,c,661688
2021-12-31,352915,c,661688
2017-09-30,352915,d,21207
2017-12-31,352915,d,20703
2018-03-31,352915,d,19349
2018-06-30,352915,d,18673
2018-09-30,352915,d,18659
2018-12-31,352915,d,18653
2019-03-31,352915,d,18600
2019-06-30,352915,d,18562
2019-09-30,352915,d,18527
2019-12-31,352915,d,18445
2020-03-31,352915,d,18411
2020-06-30,352915,d,18411
2020-09-30,352915,d,18306
2020-12-31,352915,d,18211
2021-03-31,352915,d,18191
2021-06-30,352915,d,18037
2021-09-30,352915,d,17956
2021-12-31,352915,d,15783
