period,cik,class,shares_outstanding
2017-09-30,37996,,3901331191
2017-12-31,37996,,3902176668
2018-03-31,37996,,3911017509
2018-06-30,37996,,3914696106
2018-09-30,37996,,3908770683
2018-12-31,37996,,3907500168
2019-03-31,37996,,3915874808
2019-06-30,37996,,3918925862
2019-09-30,37996,,3899253488
2019-12-31,37996,,3894068091
2020-03-31,37996,,3902583814
2020-06-30,37996,,3907166301
2020-09-30,37996,,3907565166
2020-12-31,37996,,3907761005
2021-03-31,37996,,3917092542
2021-06-30,37996,,3923089476
2021-09-30,37996,,3925016091
2021-12-31,37996,,3930858906
2017-09-30,37996,b,70852076
2017-12-31,37996,b,70852076
2018-03-31,37996,b,70852076
2018-06-30,37996,b,70852076
2018-09-30,37996,b,70852076
2018-12-31,37996,b,70852076
2019-03-31,37996,b,70852076
2019-06-30,37996,b,70852076
2019-09-30,37996,b,70852076
2019-12-31,37996,b,70852076
2020-03-31,37996,b,70852076
2020-06-30,37996,b,70852076
2020-09-30,37996,b,70852076
2020-12-31,37996,b,70852076
2021-03-31,37996,b,70852076
2021-06-30,37996,b,70852076
2021-09-30,37996,b,70852076
2021-12-31,37996,b,70852076
