period,cik,class,shares_outstanding
2017-09-30,39911,,390600660
2017-12-31,39911,,389031690
2018-03-31,39911,,388907880
2018-06-30,39911,,386441403
2018-09-30,39911,,383520941
2018-12-31,39911,,380532973
2019-03-31,39911,,378450235
2019-06-30,39911,,377135113
2019-09-30,39911,,374803879
2019-12-31,39911,,372585866
2020-03-31,39911,,371798083
2020-06-30,39911,,373510504
2020-09-30,39911,,373775593
2020-12-31,39911,,374337526
2021-03-31,39911,,375615664
2021-06-30,39911,,376960629
2021-09-30,39911,,374890763
