period,cik,class,shares_outstanding
2017-09-30,40533,,298602199
2017-12-31,40533,,297335541
2018-03-31,40533,,297030258
2018-06-30,40533,,296297959
2018-09-30,40533,,296151202
2018-12-31,40533,,290098004
2019-03-31,40533,,288861893
2019-06-30,40533,,288844426
2019-09-30,40533,,289306108
2019-12-31,40533,,289554450
2020-03-31,40533,,286865286
2020-06-30,40533,,286932872
2020-09-30,40533,,286960920
2020-12-31,40533,,286444354
2021-03-31,40533,,282888809
2021-06-30,40533,,279709346
2021-09-30,40533,,279236833
2021-12-31,40533,,278095200
