period,cik,class,shares_outstanding
2017-09-30,40704,,568465267
2017-12-31,40704,,569277412
2018-03-31,40704,,574963784
2018-06-30,40704,,594030646
2018-09-30,40704,,596341985
2018-12-31,40704,,597248497
2019-03-31,40704,,599452325
2019-06-30,40704,,602462317
2019-09-30,40704,,604482096
2019-12-31,40704,,605107385
2020-03-31,40704,,606908061
2020-06-30,40704,,610092136
2020-09-30,40704,,611350579
2020-12-31,40704,,611128107
2021-03-31,40704,,609521128
2021-06-30,40704,,606976876
2021-09-30,40704,,605282712
2021-12-31,40704,,603029869
