period,cik,class,shares_outstanding
2017-09-30,4127,,183371374
2017-12-31,4127,,182709947
2018-03-31,4127,,182209240
2018-06-30,4127,,179695340
2018-09-30,4127,,178032282
2018-12-31,4127,,175344279
2019-03-31,4127,,173175723
2019-06-30,4127,,172058403
2019-09-30,4127,,170942543
2019-12-31,4127,,170222181
2020-03-31,4127,,167818138
2020-06-30,4127,,166991045
2020-09-30,4127,,166432470
2020-12-31,4127,,165277505
2021-03-31,4127,,165041758
2021-06-30,4127,,165131111
2021-09-30,4127,,165284574
