period,cik,class,shares_outstanding
2017-09-30,42582,,246386199
2017-12-31,42582,,241891354
2018-03-31,42582,,239837401
2018-06-30,42582,,237046658
2018-09-30,42582,,233053586
2018-12-31,42582,,232408817
