period,cik,class,shares_outstanding
2017-09-30,46765,,108595664
2017-12-31,46765,,108764854
2018-03-31,46765,,108876506
2018-06-30,46765,,108922165
2018-09-30,46765,,109000578
2018-12-31,46765,,109286214
2019-03-31,46765,,109412475
2019-06-30,46765,,109429682
2019-09-30,46765,,108784520
2019-12-31,46765,,108727036
2020-03-31,46765,,107837649
