period,cik,class,shares_outstanding
2017-09-30,47217,,930077657
2017-12-31,47217,,879492280
2018-03-31,47217,,1621262016
2018-06-30,47217,,1592183855
2018-09-30,47217,,1568188507
2018-12-31,47217,,1546660840
2019-03-31,47217,,1517813933
2019-06-30,47217,,1490392976
2019-09-30,47217,,1467786021
2019-12-31,47217,,1443586635
2020-03-31,47217,,1431124132
2020-06-30,47217,,1393135036
2020-09-30,47217,,1332253904
2020-12-31,47217,,1271682991
2021-03-31,47217,,1219116125
2021-06-30,47217,,1169470654
2021-09-30,47217,,1118192748
2021-12-31,47217,,1072205368
