period,cik,class,shares_outstanding
2017-09-30,4904,,491870978
2017-12-31,4904,,492003753
2018-03-31,4904,,492402930
2018-06-30,4904,,492812235
2018-09-30,4904,,493058893
2018-12-31,4904,,493243830
2019-03-31,4904,,493392651
2019-06-30,4904,,493692373
2019-09-30,4904,,493908762
2019-12-31,4904,,494166270
2020-03-31,4904,,495171278
2020-06-30,4904,,495919049
2020-09-30,4904,,496317306
2020-12-31,4904,,496601080
2021-03-31,4904,,499104304
2021-06-30,4904,,500124728
2021-09-30,4904,,502645454
2021-12-31,4904,,504203259
