period,cik,class,shares_outstanding
2017-09-30,49071,,142878108
2017-12-31,49071,,139030867
2018-03-31,49071,,137682207
2018-06-30,49071,,137762514
2018-09-30,49071,,137193146
2018-12-31,49071,,135988364
2019-03-31,49071,,135044033
2019-06-30,49071,,135088693
2019-09-30,49071,,132454993
2019-12-31,49071,,132189631
2020-03-31,49071,,132204409
2020-06-30,49071,,132291615
2020-09-30,49071,,132340919
2020-12-31,49071,,129767170
2021-03-31,49071,,129011842
2021-06-30,49071,,128510265
2021-09-30,49071,,128533968
2021-12-31,49071,,127128087
