period,cik,class,shares_outstanding
2017-09-30,4962,,871297168
2017-12-31,4962,,862920834
2018-03-31,4962,,860339895
2018-06-30,4962,,860909757
2018-09-30,4962,,855482917
2018-12-31,4962,,846870034
2019-03-31,4962,,836974969
2019-06-30,4962,,830624342
2019-09-30,4962,,820150411
2019-12-31,4962,,810977097
2020-03-31,4962,,805767208
2020-06-30,4962,,805122334
2020-09-30,4962,,805193263
2020-12-31,4962,,805462381
2021-03-31,4962,,803912491
2021-06-30,4962,,796382478
2021-09-30,4962,,778705969
2021-12-31,4962,,764281168
