period,cik,class,shares_outstanding
2017-09-30,55067,,345364909
2017-12-31,55067,,345663776
2018-03-31,55067,,346497908
2018-06-30,55067,,346728635
2018-09-30,55067,,346913916
2018-12-31,55067,,344822293
2019-03-31,55067,,341542405
2019-06-30,55067,,340590397
2019-09-30,55067,,341102246
2019-12-31,55067,,341844576
2020-03-31,55067,,342675504
2020-06-30,55067,,342936709
2020-09-30,55067,,343718626
2020-12-31,55067,,343891919
2021-03-31,55067,,340715636
2021-06-30,55067,,340862135
2021-09-30,55067,,341114764
2021-12-31,55067,,341535695
