period,cik,class,shares_outstanding
2017-09-30,59478,,1101068808
2017-12-31,59478,,1097815720
2018-03-31,59478,,1089018829
2018-06-30,59478,,1077005675
2018-09-30,59478,,1064210788
2018-12-31,59478,,1045861923
2019-03-31,59478,,996665945
2019-06-30,59478,,967212484
2019-09-30,59478,,961519437
2019-12-31,59478,,957849033
2020-03-31,59478,,956424625
2020-06-30,59478,,956464241
2020-09-30,59478,,956548596
2020-12-31,59478,,957681287
2021-03-31,59478,,958798512
2021-06-30,59478,,957387075
2021-09-30,59478,,956589244
2021-12-31,59478,,954130851
