period,cik,class,shares_outstanding
2017-09-30,59558,,219661455
2017-12-31,59558,,218502639
2018-03-31,59558,,218516068
2018-06-30,59558,,217370875
2018-09-30,59558,,214641162
2018-12-31,59558,,208296633
2019-03-31,59558,,203134034
2019-06-30,59558,,200901674
2019-09-30,59558,,198924015
2019-12-31,59558,,196620341
2020-03-31,59558,,194163816
2020-06-30,59558,,193239014
2020-09-30,59558,,193258912
2020-12-31,59558,,192522114
2021-03-31,59558,,191046857
2021-06-30,59558,,188838656
2021-09-30,59558,,183324981
2021-12-31,59558,,175934331
