period,cik,class,shares_outstanding
2017-09-30,62709,,510969536
2017-12-31,62709,,508813742
2018-03-31,62709,,507478632
2018-06-30,62709,,505647305
2018-09-30,62709,,504043423
2018-12-31,62709,,504515385
2019-03-31,62709,,506419644
2019-06-30,62709,,506614086
2019-09-30,62709,,505164944
2019-12-31,62709,,504229938
2020-03-31,62709,,505277555
2020-06-30,62709,,506416539
2020-09-30,62709,,507016172
2020-12-31,62709,,507795278
2021-03-31,62709,,508416804
2021-06-30,62709,,507007133
2021-09-30,62709,,505199642
2021-12-31,62709,,503523671
