period,cik,class,shares_outstanding
2017-09-30,6281,,368327290
2017-12-31,6281,,369386517
2018-03-31,6281,,370464618
2018-06-30,6281,,371364292
2018-09-30,6281,,370740481
2018-12-31,6281,,369003743
2019-03-31,6281,,369204722
2019-06-30,6281,,369542709
2019-09-30,6281,,368714765
2019-12-31,6281,,368249928
2020-03-31,6281,,368350446
2020-06-30,6281,,368897309
2020-09-30,6281,,369372849
2020-12-31,6281,,369095125
2021-03-31,6281,,368850416
2021-06-30,6281,,368429752
2021-09-30,6281,,471807526
2021-12-31,6281,,523979594
