period,cik,class,shares_outstanding
2017-09-30,62996,,314609079
2017-12-31,62996,,313696876
2018-03-31,62996,,310539988
2018-06-30,62996,,307509819
2018-09-30,62996,,305519850
2018-12-31,62996,,297355809
2019-03-31,62996,,293564867
2019-06-30,62996,,289500982
2019-09-30,62996,,286110109
2019-12-31,62996,,279904398
2020-03-31,62996,,263988368
2020-06-30,62996,,261556481
2020-09-30,62996,,261674327
2020-12-31,62996,,258321806
2021-03-31,62996,,253842741
2021-06-30,62996,,247235737
2021-09-30,62996,,244120921
2021-12-31,62996,,241008854
