period,cik,class,shares_outstanding
2017-09-30,63908,,797324838
2017-12-31,63908,,795197121
2018-03-31,63908,,785335372
2018-06-30,63908,,775903452
2018-09-30,63908,,770963403
2018-12-31,63908,,766772400
2019-03-31,63908,,763586223
2019-06-30,63908,,759489363
2019-09-30,63908,,753162356
2019-12-31,63908,,747436032
2020-03-31,63908,,743587689
2020-06-30,63908,,744096510
2020-09-30,63908,,745100026
2020-12-31,63908,,745452169
2021-03-31,63908,,746164078
2021-06-30,63908,,746792011
2021-09-30,63908,,747240573
2021-12-31,63908,,744537097
