period,cik,class,shares_outstanding
2017-09-30,66740,,595620706
2017-12-31,66740,,595528125
2018-03-31,66740,,593722921
2018-06-30,66740,,586691265
2018-09-30,66740,,582334160
2018-12-31,66740,,577487709
2019-03-31,66740,,576416083
2019-06-30,66740,,575291661
2019-09-30,66740,,575053137
2019-12-31,66740,,575457080
2020-03-31,66740,,575203098
2020-06-30,66740,,576010397
2020-09-30,66740,,576813155
2020-12-31,66740,,578507317
2021-03-31,66740,,579665256
2021-06-30,66740,,578649645
2021-09-30,66740,,576278731
2021-12-31,66740,,572440566
