period,cik,class,shares_outstanding
2017-09-30,68505,,162006986
2017-12-31,68505,,161495824
2018-03-31,68505,,162120738
2018-06-30,68505,,162265355
2018-09-30,68505,,163527868
2018-12-31,68505,,163780625
2019-03-31,68505,,164786286
2019-06-30,68505,,165440500
2019-09-30,68505,,170330721
2019-12-31,68505,,170803371
2020-03-31,68505,,170176513
2020-06-30,68505,,169836366
2020-09-30,68505,,169568813
2020-12-31,68505,,169178024
2021-03-31,68505,,169527544
2021-06-30,68505,,169384922
2021-09-30,68505,,168971768
2021-12-31,68505,,168442546
