period,cik,class,shares_outstanding
2017-09-30,7084,,560373503
2017-12-31,7084,,559018153
2018-03-31,7084,,559039696
2018-06-30,7084,,559548940
2018-09-30,7084,,560301944
2018-12-31,7084,,560341831
2019-03-31,7084,,560136818
2019-06-30,7084,,558026805
2019-09-30,7084,,556784337
2019-12-31,7084,,557371099
2020-03-31,7084,,556471602
2020-06-30,7084,,555596662
2020-09-30,7084,,556147040
2020-12-31,7084,,557520144
2021-03-31,7084,,558585225
2021-06-30,7084,,559167167
2021-09-30,7084,,559419893
2021-12-31,7084,,561019072
