period,cik,class,shares_outstanding
2017-09-30,712515,,308228531
2017-12-31,712515,,307170533
2018-03-31,712515,,306782408
2018-06-30,712515,,305771147
2018-09-30,712515,,303133588
2018-12-31,712515,,300565703
2019-03-31,712515,,298395046
2019-06-30,712515,,295880825
2019-09-30,712515,,292968397
2019-12-31,712515,,290484714
2020-03-31,712515,,289135280
2020-06-30,712515,,288745673
2020-09-30,712515,,289554198
2020-12-31,712515,,288606608
2021-03-31,712515,,286915183
2021-06-30,712515,,285408239
2021-09-30,712515,,283529303
2021-12-31,712515,,281849647
