period,cik,class,shares_outstanding
2017-09-30,713676,,476586957
2017-12-31,713676,,473131799
2018-03-31,713676,,470126243
2018-06-30,713676,,465501515
2018-09-30,713676,,462057014
2018-12-31,713676,,456402524
2019-03-31,713676,,452059232
2019-06-30,713676,,446615368
2019-09-30,713676,,439587710
2019-12-31,713676,,431930872
2020-03-31,713676,,425345119
2020-06-30,713676,,424455421
2020-09-30,713676,,423850832
2020-12-31,713676,,423914960
2021-03-31,713676,,424654869
2021-06-30,713676,,424968034
2021-09-30,713676,,423054420
2021-12-31,713676,,419800301
