period,cik,class,shares_outstanding
2017-09-30,718877,,755749855
2017-12-31,718877,,757506237
2018-03-31,718877,,760148770
2018-06-30,718877,,762057921
2018-09-30,718877,,762834490
2018-12-31,718877,,763463272
2019-03-31,718877,,765109988
2019-06-30,718877,,766682732
2019-09-30,718877,,767826090
2019-12-31,718877,,768775134
2020-03-31,718877,,769946425
2020-06-30,718877,,771430173
2020-09-30,718877,,772593720
2020-12-31,718877,,773975798
2021-03-31,718877,,776111641
2021-06-30,718877,,777495618
2021-09-30,718877,,778538432
2021-12-31,718877,,779084321
