period,cik,class,shares_outstanding
2017-09-30,720005,,144302258
2017-12-31,720005,,145044324
2018-03-31,720005,,145756429
2018-06-30,720005,,145877342
2018-09-30,720005,,144549465
2018-12-31,720005,,142133337
2019-03-31,720005,,140906140
2019-06-30,720005,,139684105
2019-09-30,720005,,138785394
2019-12-31,720005,,138992037
2020-03-31,720005,,137941991
2020-06-30,720005,,137106963
2020-09-30,720005,,137042748
2020-12-31,720005,,137352431
2021-03-31,720005,,137532068
2021-06-30,720005,,137280549
2021-09-30,720005,,173628876
2021-12-31,720005,,206947338
