period,cik,class,shares_outstanding
2017-12-31,723254,,106486794
2018-03-31,723254,,106718323
2018-06-30,723254,,106284159
2018-09-30,723254,,106888595
2018-12-31,723254,,104569453
2019-03-31,723254,,104570566
2019-06-30,723254,,102509938
2019-09-30,723254,,103488644
2019-12-31,723254,,103748068
2020-03-31,723254,,104046911
2020-06-30,723254,,103505069
2020-09-30,723254,,104613140
2020-12-31,723254,,105025565
2021-03-31,723254,,105052938
2021-06-30,723254,,102990167
2021-09-30,723254,,103402837
2021-12-31,723254,,103729043
