period,cik,class,shares_outstanding
2017-12-31,723531,,359215430
2018-03-31,723531,,359207440
2018-06-30,723531,,359001393
2018-09-30,723531,,359081039
2018-12-31,723531,,359191703
2019-03-31,723531,,359381139
2019-06-30,723531,,359345898
2019-09-30,723531,,357959420
2019-12-31,723531,,358494926
2020-03-31,723531,,358728774
2020-06-30,723531,,358769237
2020-09-30,723531,,359492375
2020-12-31,723531,,360563950
2021-03-31,723531,,360362308
2021-06-30,723531,,359836007
2021-09-30,723531,,360643718
2021-12-31,723531,,360843789
