period,cik,class,shares_outstanding
2017-09-30,726728,,280090876
2017-12-31,726728,,283286485
2018-03-31,726728,,284326482
2018-06-30,726728,,288246661
2018-09-30,726728,,293666920
2018-12-31,726728,,300274683
2019-03-31,726728,,303806245
2019-06-30,726728,,313573553
2019-09-30,726728,,323383520
2019-12-31,726728,,330427654
2020-03-31,726728,,339525638
2020-06-30,726728,,344474715
2020-09-30,726728,,349006530
2020-12-31,726728,,363731716
2021-03-31,726728,,373463752
2021-06-30,726728,,384039593
2021-09-30,726728,,399325653
2021-12-31,726728,,514695507
