period,cik,class,shares_outstanding
2017-09-30,728535,,109748455
2017-12-31,728535,,109753632
2018-03-31,728535,,109755593
2018-06-30,728535,,109348552
2018-09-30,728535,,109178147
2018-12-31,728535,,108881392
2019-03-31,728535,,108738890
2019-06-30,728535,,106789801
2019-09-30,728535,,106579969
2019-12-31,728535,,106372060
2020-03-31,728535,,105479640
2020-06-30,728535,,105506711
2020-09-30,728535,,105677088
2020-12-31,728535,,91261766
2021-03-31,728535,,105159054
2021-06-30,728535,,105201250
2021-09-30,728535,,105015872
2021-12-31,728535,,104905819
