period,cik,class,shares_outstanding
2017-09-30,72903,,507762881
2017-12-31,72903,,507935510
2018-03-31,72903,,508555248
2018-06-30,72903,,509026406
2018-09-30,72903,,512766559
2018-12-31,72903,,514070009
2019-03-31,72903,,514533911
2019-06-30,72903,,514921144
2019-09-30,72903,,522378650
2019-12-31,72903,,524562790
2020-03-31,72903,,524968798
2020-06-30,72903,,525286427
2020-09-30,72903,,525429949
2020-12-31,72903,,533090436
2021-03-31,72903,,538023467
2021-06-30,72903,,538378556
2021-09-30,72903,,538608374
2021-12-31,72903,,541833292
