period,cik,class,shares_outstanding
2017-09-30,72971,,4935599503
2017-12-31,72971,,4898248751
2018-03-31,72971,,4874856360
2018-06-30,72971,,4832347636
2018-09-30,72971,,4737159824
2018-12-31,72971,,4616867265
2019-03-31,72971,,4515527087
2019-06-30,72971,,4430347642
2019-09-30,72971,,4275974012
2019-12-31,72971,,4154748233
2020-03-31,72971,,4099955757
2020-06-30,72971,,4114538984
2020-09-30,72971,,4130680568
2020-12-31,72971,,4134265115
2021-03-31,72971,,4133760870
2021-06-30,72971,,4112583464
2021-09-30,72971,,4015125277
2021-12-31,72971,,3880265298
