period,cik,class,shares_outstanding
2017-09-30,732717,,6139347826
2017-12-31,732717,,6140782178
2018-03-31,732717,,6141387500
2018-06-30,732717,,6872086956
2018-09-30,732717,,7272434782
2018-12-31,732717,,7282038461
2019-03-31,732717,,7292766233
2019-06-30,732717,,7303869565
2019-09-30,732717,,7305695652
2019-12-31,732717,,7228779271
2020-03-31,732717,,7144030848
2020-06-30,732717,,7125000000
2020-09-30,732717,,7125652173
2020-12-31,732717,,7129325093
2021-03-31,732717,,7136684004
2021-06-30,732717,,7140000000
2021-09-30,732717,,7140670329
2021-12-31,732717,,7142117618
