period,cik,class,shares_outstanding
2017-09-30,73309,,317933259
2017-12-31,73309,,317929187
2018-03-31,73309,,318092192
2018-06-30,73309,,316362753
2018-09-30,73309,,313932540
2018-12-31,73309,,308544265
2019-03-31,73309,,304785686
2019-06-30,73309,,303157475
2019-09-30,73309,,303200096
2019-12-31,73309,,301804411
2020-03-31,73309,,301119114
2020-06-30,73309,,301853300
2020-09-30,73309,,301927446
2020-12-31,73309,,299470584
2021-03-31,73309,,299130689
2021-06-30,73309,,293938376
2021-09-30,73309,,286059170
2021-12-31,73309,,275122708
