period,cik,class,shares_outstanding
2017-09-30,740260,,356159941
2017-12-31,740260,,356186884
2018-03-31,740260,,356277907
2018-06-30,740260,,356404213
2018-09-30,740260,,356460180
2018-12-31,740260,,356583984
2019-03-31,740260,,357846078
2019-06-30,740260,,368840635
2019-09-30,740260,,372696503
2019-12-31,740260,,372808353
2020-03-31,740260,,372975913
2020-06-30,740260,,373082534
2020-09-30,740260,,374000305
2020-12-31,740260,,374617809
2021-03-31,740260,,374915899
2021-06-30,740260,,378336863
2021-09-30,740260,,391882454
2021-12-31,740260,,399350003
