period,cik,class,shares_outstanding
2017-09-30,743988,,250591140
2017-12-31,743988,,254263462
2018-03-31,743988,,253780326
2018-06-30,743988,,253002728
2018-09-30,743988,,253024881
2018-12-31,743988,,253148010
2019-03-31,743988,,253725573
2019-06-30,743988,,252826799
2019-09-30,743988,,251617372
2019-12-31,743988,,249154573
2020-03-31,743988,,245034228
2020-06-30,743988,,244247142
2020-09-30,743988,,244977131
2020-12-31,743988,,245241408
2021-03-31,743988,,245673780
2021-06-30,743988,,247108703
2021-09-30,743988,,247807932
