period,cik,class,shares_outstanding
2017-09-30,745732,,383907329
2017-12-31,745732,,380807855
2018-03-31,745732,,378170173
2018-06-30,745732,,375249686
2018-09-30,745732,,372206116
2018-12-31,745732,,369758541
2019-03-31,745732,,367309833
2019-06-30,745732,,363457397
2019-09-30,745732,,360509815
2019-12-31,745732,,357796698
2020-03-31,745732,,355904258
2020-06-30,745732,,355961725
2020-09-30,745732,,356236894
2020-12-31,745732,,356487724
2021-03-31,745732,,356719483
2021-06-30,745732,,356233672
2021-09-30,745732,,354314283
2021-12-31,745732,,352312443
