period,cik,class,shares_outstanding
2017-09-30,746515,,178870233
2017-12-31,746515,,177095571
2018-03-31,746515,,175572582
2018-06-30,746515,,174474807
2018-09-30,746515,,173299754
2018-12-31,746515,,172112448
2019-03-31,746515,,171837024
2019-06-30,746515,,171238855
2019-09-30,746515,,170466961
2019-12-31,746515,,170017556
2020-03-31,746515,,167963458
2020-06-30,746515,,167184966
2020-09-30,746515,,168665465
2020-12-31,746515,,169323248
2021-03-31,746515,,169102817
2021-06-30,746515,,169515534
2021-09-30,746515,,169580548
2021-12-31,746515,,168472013
