period,cik,class,shares_outstanding
2017-09-30,750556,,477390677
2017-12-31,750556,,471737093
2018-03-31,750556,,466301652
2018-06-30,750556,,462155764
2018-09-30,750556,,453266476
2018-12-31,750556,,445903834
2019-03-31,750556,,443586549
2019-06-30,750556,,443898943
2019-09-30,750556,,444006752
