period,cik,class,shares_outstanding
2017-09-30,754737,,142720832
2017-12-31,754737,,142628102
2018-03-31,754737,,142632201
2018-06-30,754737,,142626228
2018-09-30,754737,,142621074
2018-12-31,754737,,59849204
