period,cik,class,shares_outstanding
2017-09-30,77476,,1422109492
2017-12-31,77476,,1420551702
2018-03-31,77476,,1418420865
2018-06-30,77476,,1414509749
2018-09-30,77476,,1411365591
2018-12-31,77476,,1406710193
2019-03-31,77476,,1402338202
2019-06-30,77476,,1398258580
2019-09-30,77476,,1394325021
2019-12-31,77476,,1390941966
2020-03-31,77476,,1388100060
2020-06-30,77476,,1384896962
2020-09-30,77476,,1381868220
2020-12-31,77476,,1380244147
2021-03-31,77476,,1381342317
2021-06-30,77476,,1382076912
2021-09-30,77476,,1382659180
2021-12-31,77476,,1383233071
