period,cik,class,shares_outstanding
2018-09-30,779152,,77246885
2018-12-31,779152,,77223222
2019-03-31,779152,,77193789
2019-06-30,779152,,77089626
2019-09-30,779152,,76961751
2019-12-31,779152,,76788094
2020-03-31,779152,,76648629
2020-06-30,779152,,76630589
2020-09-30,779152,,76436620
2020-12-31,779152,,76152711
2021-03-31,779152,,74881031
2021-06-30,779152,,74128160
2021-09-30,779152,,74030716
2021-12-31,779152,,73208337
