period,cik,class,shares_outstanding
2017-09-30,78239,,77242021
2017-12-31,78239,,76947340
2018-03-31,78239,,77005042
2018-06-30,78239,,76983593
2018-09-30,78239,,76416225
2018-12-31,78239,,75588018
2019-03-31,78239,,75110528
2019-06-30,78239,,74692101
2019-09-30,78239,,73765459
2019-12-31,78239,,72420386
2020-03-31,78239,,70906272
2020-06-30,78239,,71055268
2020-09-30,78239,,71095266
2020-12-31,78239,,71120085
2021-03-31,78239,,71213725
2021-06-30,78239,,71266235
2021-09-30,78239,,70705123
2021-12-31,78239,,69422783
