period,cik,class,shares_outstanding
2017-09-30,789019,,7711389324
2017-12-31,789019,,7703869670
2018-03-31,789019,,7687346340
2018-06-30,789019,,7672916982
2018-09-30,789019,,7674218381
2018-12-31,789019,,7673276073
2019-03-31,789019,,7664968703
2019-06-30,789019,,7643470729
2019-09-30,789019,,7630354653
2019-12-31,789019,,7611852777
2020-03-31,789019,,7589650896
2020-06-30,789019,,7572355538
2020-09-30,789019,,7562388040
2020-12-31,789019,,7546635156
2021-03-31,789019,,7534264089
2021-06-30,789019,,7519632818
2021-09-30,789019,,7509728003
2021-12-31,789019,,7499431200
