period,cik,class,shares_outstanding
2017-09-30,794367,,304562826
2017-12-31,794367,,304836450
2018-03-31,794367,,305771761
2018-06-30,794367,,306734539
2018-09-30,794367,,307205431
2018-12-31,794367,,307573421
2019-03-31,794367,,308129994
2019-06-30,794367,,308890793
2019-09-30,794367,,308939036
2019-12-31,794367,,309189515
