period,cik,class,shares_outstanding
2017-09-30,796343,,492857733
2017-12-31,796343,,491736906
2018-03-31,796343,,492254359
2018-06-30,796343,,489545030
2018-09-30,796343,,488106124
2018-12-31,796343,,487790995
2019-03-31,796343,,487730091
2019-06-30,796343,,485319188
2019-09-30,796343,,483922102
2019-12-31,796343,,482322260
2020-03-31,796343,,481566167
2020-06-30,796343,,479671144
2020-09-30,796343,,479618904
2020-12-31,796343,,478781882
2021-03-31,796343,,477929670
2021-06-30,796343,,476373626
2021-09-30,796343,,475616964
2021-12-31,796343,,472249107
