period,cik,class,shares_outstanding
2017-09-30,80424,,2537172115
2017-12-31,80424,,2521177123
2018-03-31,80424,,2514670634
2018-06-30,80424,,2494985314
2018-09-30,80424,,2491352641
2018-12-31,80424,,2501469150
2019-03-31,80424,,2508254763
2019-06-30,80424,,2502326372
2019-09-30,80424,,2493903869
2019-12-31,80424,,2469717657
2020-03-31,80424,,2475574594
2020-06-30,80424,,2483347261
2020-09-30,80424,,2479712135
2020-12-31,80424,,2462662238
2021-03-31,80424,,2448391044
2021-06-30,80424,,2432882686
2021-09-30,80424,,2420070393
2021-12-31,80424,,2397314424
