period,cik,class,shares_outstanding
2017-09-30,804753,,332231977
2017-12-31,804753,,332539988
2018-03-31,804753,,332065930
2018-06-30,804753,,329816104
2018-09-30,804753,,329384588
2018-12-31,804753,,325804538
2019-03-31,804753,,325179147
2019-06-30,804753,,319783835
2019-09-30,804753,,314900060
2019-12-31,804753,,312539921
2020-03-31,804753,,306466486
2020-06-30,804753,,305117574
2020-09-30,804753,,306297770
2020-12-31,804753,,306389012
2021-03-31,804753,,303070414
2021-06-30,804753,,297364476
2021-09-30,804753,,294612202
2021-12-31,804753,,293685795
