period,cik,class,shares_outstanding
2017-09-30,813828,a,37598604
2017-12-31,813828,a,37583505
2018-03-31,813828,a,37533712
2018-06-30,813828,a,37507611
2018-09-30,813828,a,37507554
2018-12-31,813828,a,30528352
2019-03-31,813828,a,23851656
2019-06-30,813828,a,22824096
2019-09-30,813828,a,22803035
2019-12-31,813828,a,38437699
2020-03-31,813828,a,52267989
2020-06-30,813828,a,52266904
2020-09-30,813828,a,52266444
2020-12-31,813828,a,52160821
2021-03-31,813828,a,45997917
2021-06-30,813828,a,40707517
2021-09-30,813828,a,40707517
2021-12-31,813828,a,40707498
2017-09-30,813828,b,363093105
2017-12-31,813828,b,352522832
2018-03-31,813828,b,342957006
2018-06-30,813828,b,339553035
2018-09-30,813828,b,337391951
2018-12-31,813828,b,343009599
2019-03-31,813828,b,350209301
2019-06-30,813828,b,351898291
2019-09-30,813828,b,351898965
2019-12-31,813828,b,463112799
2020-03-31,813828,b,562390751
2020-06-30,813828,b,563515377
2020-09-30,813828,b,564519965
2020-12-31,813828,b,566330819
2021-03-31,813828,b,587866026
2021-06-30,813828,b,605728611
2021-09-30,813828,b,606382552
2021-12-31,813828,b,607390296
