period,cik,class,shares_outstanding
2017-09-30,818479,,229626715
2017-12-31,818479,,228555030
2018-03-31,818479,,227403565
2018-06-30,818479,,223856169
2018-09-30,818479,,222480738
2018-12-31,818479,,222903649
2019-03-31,818479,,229438391
2019-06-30,818479,,227089385
2019-09-30,818479,,223055661
2019-12-31,818479,,221907933
2020-03-31,818479,,220181085
2020-06-30,818479,,218721025
2020-09-30,818479,,218532863
2020-12-31,818479,,218815579
2021-03-31,818479,,218658296
2021-06-30,818479,,218462157
2021-09-30,818479,,218585944
2021-12-31,818479,,218056954
