period,cik,class,shares_outstanding
2017-09-30,820313,,305375893
2017-12-31,820313,,305433455
2018-03-31,820313,,302845784
2018-06-30,820313,,300697235
2018-09-30,820313,,301053380
2018-12-31,820313,,299134459
2019-03-31,820313,,298543465
2019-06-30,820313,,297786837
2019-09-30,820313,,296733452
2019-12-31,820313,,297591230
2020-03-31,820313,,296493742
2020-06-30,820313,,297776699
2020-09-30,820313,,298975238
2020-12-31,820313,,299445616
2021-03-31,820313,,500579763
2021-06-30,820313,,598009999
2021-09-30,820313,,598074498
2021-12-31,820313,,598638909
