period,cik,class,shares_outstanding
2017-09-30,831001,,2644877587
2017-12-31,831001,,2589301195
2018-03-31,831001,,2550274717
2018-06-30,831001,,2516971654
2018-09-30,831001,,2442946254
2018-12-31,831001,,2375097849
2019-03-31,831001,,2313129686
2019-06-30,831001,,2259643402
2019-09-30,831001,,2184018532
2019-12-31,831001,,2126443123
2020-03-31,831001,,2082219322
2020-06-30,831001,,2081864268
2020-09-30,831001,,2081958647
2020-12-31,831001,,2085923929
2021-03-31,831001,,2067391085
2021-06-30,831001,,2027227626
2021-09-30,831001,,1984729390
2021-12-31,831001,,1981772044
