period,cik,class,shares_outstanding
2018-09-30,84839,,218205309
2018-12-31,84839,,294838814
2019-03-31,84839,,327530468
2019-06-30,84839,,327494490
2019-09-30,84839,,327449977
2019-12-31,84839,,327678633
2020-03-31,84839,,327770316
2020-06-30,84839,,327760449
2020-09-30,84839,,327750821
2020-12-31,84839,,442977689
2021-03-31,84839,,492127688
2021-06-30,84839,,492087552
2021-09-30,84839,,492054066
2021-12-31,84839,,492074737
