period,cik,class,shares_outstanding
2017-09-30,850209,,123159974
2017-12-31,850209,,120293853
2018-03-31,850209,,118043771
2018-06-30,850209,,116289655
2018-09-30,850209,,114256806
2018-12-31,850209,,112739005
2019-03-31,850209,,112143344
