period,cik,class,shares_outstanding
2017-09-30,851968,,74338177
2017-12-31,851968,,74382561
2018-03-31,851968,,74510744
2018-06-30,851968,,74601366
2018-09-30,851968,,74340991
2018-12-31,851968,,73246483
2019-03-31,851968,,72364676
2019-06-30,851968,,72247018
2019-09-30,851968,,71802886
2019-12-31,851968,,71648360
2020-03-31,851968,,71421214
2020-06-30,851968,,71191031
2020-09-30,851968,,71197400
2020-12-31,851968,,70651720
2021-03-31,851968,,69922750
2021-06-30,851968,,69245550
2021-09-30,851968,,68131409
2021-12-31,851968,,66238287
