period,cik,class,shares_outstanding
2017-09-30,858470,,462504291
2017-12-31,858470,,461498861
2018-03-31,858470,,455043055
2018-06-30,858470,,444123204
2018-09-30,858470,,434005255
2018-12-31,858470,,426810100
2019-03-31,858470,,423318433
2019-06-30,858470,,419735585
2019-09-30,858470,,410684920
2019-12-31,858470,,402582294
2020-03-31,858470,,398575510
2020-06-30,858470,,398578455
2020-09-30,858470,,398579881
2020-12-31,858470,,399032117
2021-03-31,858470,,399419748
2021-06-30,858470,,399586284
2021-09-30,858470,,671294887
2021-12-31,858470,,813670145
