period,cik,class,shares_outstanding
2017-09-30,860730,,356555873
2017-12-31,860730,,351346760
2018-03-31,860730,,349509756
2018-06-30,860730,,347177547
2018-09-30,860730,,344816326
2018-12-31,860730,,342997152
2019-03-31,860730,,342331538
2019-06-30,860730,,341443530
2019-09-30,860730,,339805952
2019-12-31,860730,,338688517
2020-03-31,860730,,337897348
2020-06-30,860730,,337898270
2020-09-30,860730,,338272280
2020-12-31,860730,,339408535
2021-03-31,860730,,333597547
2021-06-30,860730,,323261319
2021-09-30,860730,,313628257
2021-12-31,860730,,306023771
