period,cik,class,shares_outstanding
2017-09-30,86312,,274116422
2017-12-31,86312,,272229550
2018-03-31,86312,,270599459
2018-06-30,86312,,268181266
2018-09-30,86312,,265375186
2018-12-31,86312,,263905437
2019-03-31,86312,,262267682
2019-06-30,86312,,260706245
2019-09-30,86312,,258587343
2019-12-31,86312,,256104054
2020-03-31,86312,,253400280
2020-06-30,86312,,253111789
2020-09-30,86312,,253286045
2020-12-31,86312,,252575899
2021-03-31,86312,,251638968
2021-06-30,86312,,249839689
2021-09-30,86312,,246583007
2021-12-31,86312,,243186633
