period,cik,class,shares_outstanding
2017-09-30,872589,,105462557
2017-12-31,872589,,105703805
2018-03-31,872589,,105919296
2018-06-30,872589,,106103594
2018-09-30,872589,,106284041
2018-12-31,872589,,107045027
2019-03-31,872589,,107641779
2019-06-30,872589,,107922071
2019-09-30,872589,,107956529
2019-12-31,872589,,108098420
2020-03-31,872589,,110166053
2020-06-30,872589,,106014596
2020-09-30,872589,,104775414
2020-12-31,872589,,105152632
2021-03-31,872589,,104806096
2021-06-30,872589,,105008609
2021-09-30,872589,,105564718
2021-12-31,872589,,106428417
2017-09-30,872589,a,1911456
2017-12-31,872589,a,1911386
2018-03-31,872589,a,1911354
2018-06-30,872589,a,1911354
2018-09-30,872589,a,1911354
2018-12-31,872589,a,1911354
2019-03-31,872589,a,1911354
2019-06-30,872589,a,1863916
2019-09-30,872589,a,1848970
2019-12-31,872589,a,1848970
2020-03-31,872589,a,1848970
2020-06-30,872589,a,1848970
2020-09-30,872589,a,1848970
2020-12-31,872589,a,1848970
2021-03-31,872589,a,1848970
2021-06-30,872589,a,1848970
2021-09-30,872589,a,1829775
2021-12-31,872589,a,1823283
