period,cik,class,shares_outstanding
2017-09-30,877890,,150932487
2017-12-31,877890,,141822276
2018-03-31,877890,,135752824
2018-06-30,877890,,135617502
2018-09-30,877890,,135027828
2018-12-31,877890,,132882386
2019-03-31,877890,,131681784
2019-06-30,877890,,131143094
2019-09-30,877890,,130414776
2019-12-31,877890,,125278217
2020-03-31,877890,,123059509
2020-06-30,877890,,123508613
2020-09-30,877890,,123231286
2020-12-31,877890,,123015953
2021-03-31,877890,,123752107
2021-06-30,877890,,124213718
2021-09-30,877890,,124562514
2021-12-31,877890,,125220179
