period,cik,class,shares_outstanding
2017-09-30,879101,,425650218
2017-12-31,879101,,425536547
2018-03-31,879101,,425069801
2018-06-30,879101,,422069855
2018-09-30,879101,,421389587
2018-12-31,879101,,421387765
2019-03-31,879101,,421827949
2019-06-30,879101,,422086290
2019-09-30,879101,,422210244
2019-12-31,879101,,428708914
2020-03-31,879101,,432372265
2020-06-30,879101,,432509796
2020-09-30,879101,,432500246
2020-12-31,879101,,432463689
2021-03-31,879101,,433134181
2021-06-30,879101,,433500358
2021-09-30,879101,,564166750
2021-12-31,879101,,616603757
