period,cik,class,shares_outstanding
2017-09-30,885639,,168365000
2017-12-31,885639,,168079318
2018-03-31,885639,,168008784
2018-06-30,885639,,166982544
2018-09-30,885639,,166225620
2018-12-31,885639,,164571158
2019-03-31,885639,,162920660
2019-06-30,885639,,161101975
2019-09-30,885639,,158283164
2019-12-31,885639,,156170197
2020-03-31,885639,,155845434
