period,cik,class,shares_outstanding
2017-09-30,886982,,379433860
2017-12-31,886982,,378903932
2018-03-31,886982,,378368772
2018-06-30,886982,,377593578
2018-09-30,886982,,373200660
2018-12-31,886982,,369594217
2019-03-31,886982,,366508868
2019-06-30,886982,,360927705
2019-09-30,886982,,355230484
2019-12-31,886982,,348602740
2020-03-31,886982,,344345892
2020-06-30,886982,,344027811
2020-09-30,886982,,344069486
2020-12-31,886982,,345223975
2021-03-31,886982,,341227148
2021-06-30,886982,,337750069
2021-09-30,886982,,335231933
2021-12-31,886982,,336791965
