period,cik,class,shares_outstanding
2017-09-30,895421,,1817875345
2017-12-31,895421,,1797429961
2018-03-31,895421,,1777779140
2018-06-30,895421,,1753649093
2018-09-30,895421,,1728723445
2018-12-31,895421,,1712741377
2019-03-31,895421,,1691483356
2019-06-30,895421,,1663017190
2019-09-30,895421,,1630483124
2019-12-31,895421,,1605996995
2020-03-31,895421,,1583792204
2020-06-30,895421,,1576376758
2020-09-30,895421,,1730016314
2020-12-31,895421,,1812116884
2021-03-31,895421,,1844565445
2021-06-30,895421,,1836834291
2021-09-30,895421,,1804351223
2021-12-31,895421,,1785763306
