period,cik,class,shares_outstanding
2017-09-30,896159,,464497545
2017-12-31,896159,,464141273
2018-03-31,896159,,465283672
2018-06-30,896159,,463839429
2018-09-30,896159,,461323342
2018-12-31,896159,,459318113
2019-03-31,896159,,458024602
2019-06-30,896159,,456173729
2019-09-30,896159,,453700665
2019-12-31,896159,,452397316
2020-03-31,896159,,451512062
2020-06-30,896159,,451364173
2020-09-30,896159,,451369653
2020-12-31,896159,,450642374
2021-03-31,896159,,449832506
2021-06-30,896159,,440785738
2021-09-30,896159,,432147654
2021-12-31,896159,,427835229
