period,cik,class,shares_outstanding
2017-09-30,899051,,359321650
2017-12-31,899051,,355776690
2018-03-31,899051,,352192073
2018-06-30,899051,,347272096
2018-09-30,899051,,344760507
2018-12-31,899051,,335660634
2019-03-31,899051,,332859535
2019-06-30,899051,,329880149
2019-09-30,899051,,324819139
2019-12-31,899051,,318981161
2020-03-31,899051,,314850452
2020-06-30,899051,,312731528
2020-09-30,899051,,305880802
2020-12-31,899051,,303224778
2021-03-31,899051,,300222369
2021-06-30,899051,,296689024
2021-09-30,899051,,289249003
2021-12-31,899051,,281066053
