period,cik,class,shares_outstanding
2017-09-30,899689,,189873371
2017-12-31,899689,,189982705
2018-03-31,899689,,190167109
2018-06-30,899689,,190237201
2018-09-30,899689,,190285278
2018-12-31,899689,,190532784
2019-03-31,899689,,190758986
2019-06-30,899689,,190812898
2019-09-30,899689,,190849920
2019-12-31,899689,,190984205
2020-03-31,899689,,191114296
2020-06-30,899689,,191150752
2020-09-30,899689,,191259787
2020-12-31,899689,,191353660
2021-03-31,899689,,191463436
2021-06-30,899689,,191559699
2021-09-30,899689,,191679677
2021-12-31,899689,,191723144
