period,cik,class,shares_outstanding
2017-09-30,908255,,210890185
2017-12-31,908255,,210643490
2018-03-31,908255,,210224071
2018-06-30,908255,,209152188
2018-09-30,908255,,208403394
2018-12-31,908255,,207905004
2019-03-31,908255,,207390529
2019-06-30,908255,,206679836
2019-09-30,908255,,206498770
2019-12-31,908255,,206440589
2020-03-31,908255,,206966948
2020-06-30,908255,,207273789
2020-09-30,908255,,233871670
2020-12-31,908255,,241295929
2021-03-31,908255,,239496692
2021-06-30,908255,,239809791
2021-09-30,908255,,239777505
2021-12-31,908255,,239889484
