period,cik,class,shares_outstanding
2017-12-31,909832,,439048071
2018-03-31,909832,,438743953
2018-06-30,909832,,438470657
2018-09-30,909832,,438253270
2018-12-31,909832,,440359716
2019-03-31,909832,,439854236
2019-06-30,909832,,439756907
2019-09-30,909832,,439661114
2019-12-31,909832,,441717438
2020-03-31,909832,,441562544
2020-06-30,909832,,441445650
2020-09-30,909832,,441228027
2020-12-31,909832,,442849868
2021-03-31,909832,,442384419
2021-06-30,909832,,442002374
2021-09-30,909832,,441844702
2021-12-31,909832,,443389779
