period,cik,class,shares_outstanding
2017-09-30,91419,,113590229
2017-12-31,91419,,113598322
2018-03-31,91419,,113575958
2018-06-30,91419,,113584277
2018-09-30,91419,,113746377
2018-12-31,91419,,113753048
2019-03-31,91419,,113745191
2019-06-30,91419,,113824297
2019-09-30,91419,,114051720
2019-12-31,91419,,114047734
2020-03-31,91419,,114039770
2020-06-30,91419,,114050962
2020-09-30,91419,,114082546
2020-12-31,91419,,112008783
2021-03-31,91419,,109142073
2021-06-30,91419,,108347714
2021-09-30,91419,,108360683
2021-12-31,91419,,108405948
