period,cik,class,shares_outstanding
2017-09-30,914208,,407076499
2017-12-31,914208,,407129664
2018-03-31,914208,,410701323
2018-06-30,914208,,410847985
2018-09-30,914208,,411330599
2018-12-31,914208,,400782696
2019-03-31,914208,,400793580
2019-06-30,914208,,469036347
2019-09-30,914208,,454066701
2019-12-31,914208,,453532177
2020-03-31,914208,,458804135
2020-06-30,914208,,459162958
2020-09-30,914208,,459333274
2020-12-31,914208,,459140646
2021-03-31,914208,,461410769
2021-06-30,914208,,461392435
2021-09-30,914208,,461208530
2021-12-31,914208,,460869239
