period,cik,class,shares_outstanding
2017-09-30,91576,,1079630200
2017-12-31,91576,,1067457632
2018-03-31,91576,,1061224939
2018-06-30,91576,,1055384744
2018-09-30,91576,,1040493891
2018-12-31,91576,,1020383554
2019-03-31,91576,,1008510406
2019-06-30,91576,,1004954212
2019-09-30,91576,,990790129
2019-12-31,91576,,976774358
2020-03-31,91576,,973065515
2020-06-30,91576,,975803956
2020-09-30,91576,,976316761
2020-12-31,91576,,972195447
2021-03-31,91576,,969799317
2021-06-30,91576,,961034718
2021-09-30,91576,,939312138
2021-12-31,91576,,929233019
