period,cik,class,shares_outstanding
2017-09-30,915912,,138086228
2017-12-31,915912,,138092847
2018-03-31,915912,,138169347
2018-06-30,915912,,138215280
2018-09-30,915912,,138221231
2018-12-31,915912,,138409088
2019-03-31,915912,,139091633
2019-06-30,915912,,139568709
2019-09-30,915912,,139660107
2019-12-31,915912,,140301101
2020-03-31,915912,,140700591
2020-06-30,915912,,140739309
2020-09-30,915912,,139995486
2020-12-31,915912,,139554357
2021-03-31,915912,,139578357
2021-06-30,915912,,139612545
2021-09-30,915912,,139699536
2021-12-31,915912,,139748549
