period,cik,class,shares_outstanding
2017-09-30,915913,,110487680
2017-12-31,915913,,110572149
2018-03-31,915913,,110707178
2018-06-30,915913,,109254453
2018-09-30,915913,,106986364
2018-12-31,915913,,105963730
2019-03-31,915913,,105865583
2019-06-30,915913,,105975988
2019-09-30,915913,,106016765
2019-12-31,915913,,106131027
2020-03-31,915913,,106266824
2020-06-30,915913,,106343670
2020-09-30,915913,,106422687
2020-12-31,915913,,112327527
2021-03-31,915913,,116685839
2021-06-30,915913,,116870548
2021-09-30,915913,,116967501
2021-12-31,915913,,117011921
