period,cik,class,shares_outstanding
2017-09-30,916365,,125924980
2017-12-31,916365,,125254588
2018-03-31,916365,,123027563
2018-06-30,916365,,121882948
2018-09-30,916365,,121987014
2018-12-31,916365,,121513671
2019-03-31,916365,,120838099
2019-06-30,916365,,119688599
2019-09-30,916365,,118646948
2019-12-31,916365,,117597500
2020-03-31,916365,,116102088
2020-06-30,916365,,116054108
2020-09-30,916365,,116492464
2020-12-31,916365,,116341280
2021-03-31,916365,,115543300
2021-06-30,916365,,114590442
2021-09-30,916365,,113952969
2021-12-31,916365,,113035856
