period,cik,class,shares_outstanding
2017-09-30,92122,,1003582542
2017-12-31,92122,,1006980479
2018-03-31,92122,,1011565888
2018-06-30,92122,,1014108484
2018-09-30,92122,,1028728329
2018-12-31,92122,,1033087701
2019-03-31,92122,,1040198588
2019-06-30,92122,,1045177405
2019-09-30,92122,,1048695920
2019-12-31,92122,,1052798966
2020-03-31,92122,,1055926922
2020-06-30,92122,,1056128824
2020-09-30,92122,,1056240783
2020-12-31,92122,,1056514006
2021-03-31,92122,,1058596135
2021-06-30,92122,,1058823666
2021-09-30,92122,,1059793299
2021-12-31,92122,,1060116627
