period,cik,class,shares_outstanding
2017-09-30,922224,,687710710
2017-12-31,922224,,692225963
2018-03-31,922224,,697497396
2018-06-30,922224,,699396545
2018-09-30,922224,,713963168
2018-12-31,922224,,720696252
2019-03-31,922224,,721493009
2019-06-30,922224,,722080704
2019-09-30,922224,,722759742
2019-12-31,922224,,752237770
2020-03-31,922224,,768436314
2020-06-30,922224,,768776566
2020-09-30,922224,,768812092
2020-12-31,922224,,768930014
2021-03-31,922224,,769273542
2021-06-30,922224,,769545206
2021-09-30,922224,,757215660
2021-12-31,922224,,740702412
