period,cik,class,shares_outstanding
2017-09-30,92230,,789129437
2017-12-31,92230,,781056877
2018-03-31,92230,,779727107
2018-06-30,92230,,774505173
2018-09-30,92230,,770661347
2018-12-31,92230,,765425561
2019-03-31,92230,,765880584
2019-06-30,92230,,766009188
2019-09-30,92230,,766300301
2019-12-31,92230,,1192794506
2020-03-31,92230,,1345849814
2020-06-30,92230,,1347606627
2020-09-30,92230,,1348112779
2020-12-31,92230,,1347437809
2021-03-31,92230,,1344885061
2021-06-30,92230,,1334940610
2021-09-30,92230,,1334890863
2021-12-31,92230,,1329882032
