period,cik,class,shares_outstanding
2017-09-30,92380,,595077237
2017-12-31,92380,,590003599
2018-03-31,92380,,582619732
2018-06-30,92380,,575256479
2018-09-30,92380,,565593411
2018-12-31,92380,,555927476
2019-03-31,92380,,546158297
2019-06-30,92380,,539163101
2019-09-30,92380,,530423259
2019-12-31,92380,,520570812
2020-03-31,92380,,511359062
2020-06-30,92380,,568275687
2020-09-30,92380,,590168469
2020-12-31,92380,,590537486
2021-03-31,92380,,591161467
2021-06-30,92380,,591573880
2021-09-30,92380,,591850313
2021-12-31,92380,,592202586
