period,cik,class,shares_outstanding
2017-09-30,927066,,186121428
2017-12-31,927066,,182467415
2018-03-31,927066,,177112359
2018-06-30,927066,,169543478
2018-09-30,927066,,166325531
2018-12-31,927066,,166257777
2019-03-31,927066,,166400000
2019-06-30,927066,,162493258
2019-09-30,927066,,140558064
2019-12-31,927066,,127041758
2020-03-31,927066,,123136263
2020-06-30,927066,,121932584
2020-09-30,927066,,115186813
2020-12-31,927066,,110238709
2021-03-31,927066,,107193103
2021-06-30,927066,,105256842
2021-09-30,927066,,102694047
2021-12-31,927066,,98074257
