period,cik,class,shares_outstanding
2017-09-30,96021,,522573085
2017-12-31,96021,,521742741
2018-03-31,96021,,521203080
2018-06-30,96021,,520230012
2018-09-30,96021,,519785008
2018-12-31,96021,,514688927
2019-03-31,96021,,513862667
2019-06-30,96021,,513469217
2019-09-30,96021,,511027575
2019-12-31,96021,,508848454
2020-03-31,96021,,507794129
2020-06-30,96021,,508216080
2020-09-30,96021,,509158771
2020-12-31,96021,,510226767
2021-03-31,96021,,511363340
2021-06-30,96021,,511900798
2021-09-30,96021,,512475321
2021-12-31,96021,,508706753
