period,cik,class,shares_outstanding
2017-09-30,97476,,986790821
2017-12-31,97476,,984562297
2018-03-31,97476,,980850433
2018-06-30,97476,,974042071
2018-09-30,97476,,963616249
2018-12-31,97476,,947831482
2019-03-31,97476,,938310583
2019-06-30,97476,,934866196
2019-09-30,97476,,934452396
2019-12-31,97476,,934304117
2020-03-31,97476,,921823385
2020-06-30,97476,,916245239
2020-09-30,97476,,917634691
2020-12-31,97476,,919632420
2021-03-31,97476,,922692547
2021-06-30,97476,,923265303
2021-09-30,97476,,923460876
2021-12-31,97476,,923541486
